%!PS-Adobe-3.0 EPSF-3.0
%%Title: LogisticRegression-prec-rec-thresh.eps
%%Creator: matplotlib version 3.0.3, http://matplotlib.org/
%%CreationDate: Thu May 16 19:08:05 2019
%%Orientation: portrait
%%BoundingBox: 90 252 522 540
%%EndComments
%%BeginProlog
/mpldict 8 dict def
mpldict begin
/m { moveto } bind def
/l { lineto } bind def
/r { rlineto } bind def
/c { curveto } bind def
/cl { closepath } bind def
/box {
m
1 index 0 r
0 exch r
neg 0 r
cl
} bind def
/clipbox {
box
clip
newpath
} bind def
%!PS-Adobe-3.0 Resource-Font
%%Title: DejaVu Sans
%%Copyright: Copyright (c) 2003 by Bitstream, Inc. All Rights Reserved. Copyright (c) 2006 by Tavmjong Bah. All Rights Reserved. DejaVu changes are in public domain 
%%Creator: Converted from TrueType to type 3 by PPR
25 dict begin
/_d{bind def}bind def
/_m{moveto}_d
/_l{lineto}_d
/_cl{closepath eofill}_d
/_c{curveto}_d
/_sc{7 -1 roll{setcachedevice}{pop pop pop pop pop pop}ifelse}_d
/_e{exec}_d
/FontName /DejaVuSans def
/PaintType 0 def
/FontMatrix[.001 0 0 .001 0 0]def
/FontBBox[-1021 -463 1793 1232]def
/FontType 3 def
/Encoding [ /space /comma /hyphen /period /zero /one /two /four /six /eight /C /F /P /R /T /a /c /d /e /h /i /l /n /o /r /s /t /v ] def
/FontInfo 10 dict dup begin
/FamilyName (DejaVu Sans) def
/FullName (DejaVu Sans) def
/Notice (Copyright (c) 2003 by Bitstream, Inc. All Rights Reserved. Copyright (c) 2006 by Tavmjong Bah. All Rights Reserved. DejaVu changes are in public domain ) def
/Weight (Book) def
/Version (Version 2.35) def
/ItalicAngle 0.0 def
/isFixedPitch false def
/UnderlinePosition -130 def
/UnderlineThickness 90 def
end readonly def
/CharStrings 29 dict dup begin
/.notdef 0 def
/space{318 0 0 0 0 0 _sc
}_d
/comma{318 0 77 -115 220 124 _sc
117 124 _m
220 124 _l
220 40 _l
140 -115 _l
77 -115 _l
117 40 _l
117 124 _l
_cl}_d
/hyphen{361 0 49 234 312 314 _sc
49 314 _m
312 314 _l
312 234 _l
49 234 _l
49 314 _l
_cl}_d
/period{318 0 107 0 210 124 _sc
107 124 _m
210 124 _l
210 0 _l
107 0 _l
107 124 _l
_cl}_d
/zero{636 0 66 -13 570 742 _sc
318 664 _m
267 664 229 639 203 589 _c
177 539 165 464 165 364 _c
165 264 177 189 203 139 _c
229 89 267 64 318 64 _c
369 64 407 89 433 139 _c
458 189 471 264 471 364 _c
471 464 458 539 433 589 _c
407 639 369 664 318 664 _c
318 742 _m
399 742 461 709 505 645 _c
548 580 570 486 570 364 _c
570 241 548 147 505 83 _c
461 19 399 -13 318 -13 _c
236 -13 173 19 130 83 _c
87 147 66 241 66 364 _c
66 486 87 580 130 645 _c
173 709 236 742 318 742 _c
_cl}_d
/one{636 0 110 0 544 729 _sc
124 83 _m
285 83 _l
285 639 _l
110 604 _l
110 694 _l
284 729 _l
383 729 _l
383 83 _l
544 83 _l
544 0 _l
124 0 _l
124 83 _l
_cl}_d
/two{{636 0 73 0 536 742 _sc
192 83 _m
536 83 _l
536 0 _l
73 0 _l
73 83 _l
110 121 161 173 226 239 _c
290 304 331 346 348 365 _c
380 400 402 430 414 455 _c
426 479 433 504 433 528 _c
433 566 419 598 392 622 _c
365 646 330 659 286 659 _c
255 659 222 653 188 643 _c
154 632 117 616 78 594 _c
78 694 _l
118 710 155 722 189 730 _c
223 738 255 742 284 742 _c
}_e{359 742 419 723 464 685 _c
509 647 532 597 532 534 _c
532 504 526 475 515 449 _c
504 422 484 390 454 354 _c
446 344 420 317 376 272 _c
332 227 271 164 192 83 _c
_cl}_e}_d
/four{636 0 49 0 580 729 _sc
378 643 _m
129 254 _l
378 254 _l
378 643 _l
352 729 _m
476 729 _l
476 254 _l
580 254 _l
580 172 _l
476 172 _l
476 0 _l
378 0 _l
378 172 _l
49 172 _l
49 267 _l
352 729 _l
_cl}_d
/six{{636 0 70 -13 573 742 _sc
330 404 _m
286 404 251 388 225 358 _c
199 328 186 286 186 234 _c
186 181 199 139 225 109 _c
251 79 286 64 330 64 _c
374 64 409 79 435 109 _c
461 139 474 181 474 234 _c
474 286 461 328 435 358 _c
409 388 374 404 330 404 _c
526 713 _m
526 623 _l
501 635 476 644 451 650 _c
425 656 400 659 376 659 _c
310 659 260 637 226 593 _c
}_e{192 549 172 482 168 394 _c
187 422 211 444 240 459 _c
269 474 301 482 336 482 _c
409 482 467 459 509 415 _c
551 371 573 310 573 234 _c
573 159 550 99 506 54 _c
462 9 403 -13 330 -13 _c
246 -13 181 19 137 83 _c
92 147 70 241 70 364 _c
70 479 97 571 152 639 _c
206 707 280 742 372 742 _c
396 742 421 739 447 735 _c
472 730 498 723 526 713 _c
_cl}_e}_d
/eight{{636 0 68 -13 568 742 _sc
318 346 _m
271 346 234 333 207 308 _c
180 283 167 249 167 205 _c
167 161 180 126 207 101 _c
234 76 271 64 318 64 _c
364 64 401 76 428 102 _c
455 127 469 161 469 205 _c
469 249 455 283 429 308 _c
402 333 365 346 318 346 _c
219 388 _m
177 398 144 418 120 447 _c
96 476 85 511 85 553 _c
85 611 105 657 147 691 _c
188 725 245 742 318 742 _c
}_e{390 742 447 725 489 691 _c
530 657 551 611 551 553 _c
551 511 539 476 515 447 _c
491 418 459 398 417 388 _c
464 377 501 355 528 323 _c
554 291 568 251 568 205 _c
568 134 546 80 503 43 _c
459 5 398 -13 318 -13 _c
237 -13 175 5 132 43 _c
89 80 68 134 68 205 _c
68 251 81 291 108 323 _c
134 355 171 377 219 388 _c
183 544 _m
183 506 194 476 218 455 _c
}_e{242 434 275 424 318 424 _c
360 424 393 434 417 455 _c
441 476 453 506 453 544 _c
453 582 441 611 417 632 _c
393 653 360 664 318 664 _c
275 664 242 653 218 632 _c
194 611 183 582 183 544 _c
_cl}_e}_d
/C{{698 0 56 -13 644 742 _sc
644 673 _m
644 569 _l
610 599 575 622 537 638 _c
499 653 460 661 418 661 _c
334 661 270 635 226 584 _c
182 533 160 460 160 364 _c
160 268 182 194 226 143 _c
270 92 334 67 418 67 _c
460 67 499 74 537 90 _c
575 105 610 128 644 159 _c
644 56 _l
609 32 572 15 534 4 _c
496 -7 455 -13 412 -13 _c
302 -13 215 20 151 87 _c
}_e{87 154 56 246 56 364 _c
56 481 87 573 151 641 _c
215 708 302 742 412 742 _c
456 742 497 736 535 725 _c
573 713 610 696 644 673 _c
_cl}_e}_d
/F{575 0 98 0 517 729 _sc
98 729 _m
517 729 _l
517 646 _l
197 646 _l
197 431 _l
486 431 _l
486 348 _l
197 348 _l
197 0 _l
98 0 _l
98 729 _l
_cl}_d
/P{603 0 98 0 569 729 _sc
197 648 _m
197 374 _l
321 374 _l
367 374 402 385 427 409 _c
452 433 465 467 465 511 _c
465 555 452 588 427 612 _c
402 636 367 648 321 648 _c
197 648 _l
98 729 _m
321 729 _l
402 729 464 710 506 673 _c
548 636 569 582 569 511 _c
569 439 548 384 506 348 _c
464 311 402 293 321 293 _c
197 293 _l
197 0 _l
98 0 _l
98 729 _l
_cl}_d
/R{{695 0 98 0 666 729 _sc
444 342 _m
465 334 486 319 506 296 _c
526 272 546 240 566 199 _c
666 0 _l
560 0 _l
467 187 _l
443 235 419 268 397 284 _c
374 300 343 308 304 308 _c
197 308 _l
197 0 _l
98 0 _l
98 729 _l
321 729 _l
404 729 466 711 507 677 _c
548 642 569 589 569 519 _c
569 473 558 434 537 404 _c
515 374 484 353 444 342 _c
197 648 _m
197 389 _l
321 389 _l
}_e{368 389 404 400 428 422 _c
452 444 465 476 465 519 _c
465 561 452 593 428 615 _c
404 637 368 648 321 648 _c
197 648 _l
_cl}_e}_d
/T{611 0 -2 0 614 729 _sc
-2 729 _m
614 729 _l
614 646 _l
355 646 _l
355 0 _l
256 0 _l
256 646 _l
-2 646 _l
-2 729 _l
_cl}_d
/a{{613 0 60 -13 522 560 _sc
343 275 _m
270 275 220 266 192 250 _c
164 233 150 205 150 165 _c
150 133 160 107 181 89 _c
202 70 231 61 267 61 _c
317 61 357 78 387 114 _c
417 149 432 196 432 255 _c
432 275 _l
343 275 _l
522 312 _m
522 0 _l
432 0 _l
432 83 _l
411 49 385 25 355 10 _c
325 -5 287 -13 243 -13 _c
187 -13 142 2 109 33 _c
76 64 60 106 60 159 _c
}_e{60 220 80 266 122 298 _c
163 329 224 345 306 345 _c
432 345 _l
432 354 _l
432 395 418 427 391 450 _c
364 472 326 484 277 484 _c
245 484 215 480 185 472 _c
155 464 127 453 100 439 _c
100 522 _l
132 534 164 544 195 550 _c
226 556 256 560 286 560 _c
365 560 424 539 463 498 _c
502 457 522 395 522 312 _c
_cl}_e}_d
/c{{550 0 55 -13 488 560 _sc
488 526 _m
488 442 _l
462 456 437 466 411 473 _c
385 480 360 484 334 484 _c
276 484 230 465 198 428 _c
166 391 150 339 150 273 _c
150 206 166 154 198 117 _c
230 80 276 62 334 62 _c
360 62 385 65 411 72 _c
437 79 462 90 488 104 _c
488 21 _l
462 9 436 0 410 -5 _c
383 -10 354 -13 324 -13 _c
242 -13 176 12 128 64 _c
}_e{79 115 55 185 55 273 _c
55 362 79 432 128 483 _c
177 534 244 560 330 560 _c
358 560 385 557 411 551 _c
437 545 463 537 488 526 _c
_cl}_e}_d
/d{{635 0 55 -13 544 760 _sc
454 464 _m
454 760 _l
544 760 _l
544 0 _l
454 0 _l
454 82 _l
435 49 411 25 382 10 _c
353 -5 319 -13 279 -13 _c
213 -13 159 13 117 65 _c
75 117 55 187 55 273 _c
55 359 75 428 117 481 _c
159 533 213 560 279 560 _c
319 560 353 552 382 536 _c
411 520 435 496 454 464 _c
148 273 _m
148 207 161 155 188 117 _c
215 79 253 61 301 61 _c
}_e{348 61 385 79 413 117 _c
440 155 454 207 454 273 _c
454 339 440 390 413 428 _c
385 466 348 485 301 485 _c
253 485 215 466 188 428 _c
161 390 148 339 148 273 _c
_cl}_e}_d
/e{{615 0 55 -13 562 560 _sc
562 296 _m
562 252 _l
149 252 _l
153 190 171 142 205 110 _c
238 78 284 62 344 62 _c
378 62 412 66 444 74 _c
476 82 509 95 541 113 _c
541 28 _l
509 14 476 3 442 -3 _c
408 -9 373 -13 339 -13 _c
251 -13 182 12 131 62 _c
80 112 55 181 55 268 _c
55 357 79 428 127 481 _c
175 533 241 560 323 560 _c
397 560 455 536 498 489 _c
}_e{540 441 562 377 562 296 _c
472 322 _m
471 371 457 410 431 440 _c
404 469 368 484 324 484 _c
274 484 234 469 204 441 _c
174 413 156 373 152 322 _c
472 322 _l
_cl}_e}_d
/h{634 0 91 0 549 760 _sc
549 330 _m
549 0 _l
459 0 _l
459 327 _l
459 379 448 417 428 443 _c
408 469 378 482 338 482 _c
289 482 251 466 223 435 _c
195 404 181 362 181 309 _c
181 0 _l
91 0 _l
91 760 _l
181 760 _l
181 462 _l
202 494 227 519 257 535 _c
286 551 320 560 358 560 _c
420 560 468 540 500 501 _c
532 462 549 405 549 330 _c
_cl}_d
/i{278 0 94 0 184 760 _sc
94 547 _m
184 547 _l
184 0 _l
94 0 _l
94 547 _l
94 760 _m
184 760 _l
184 646 _l
94 646 _l
94 760 _l
_cl}_d
/l{278 0 94 0 184 760 _sc
94 760 _m
184 760 _l
184 0 _l
94 0 _l
94 760 _l
_cl}_d
/n{634 0 91 0 549 560 _sc
549 330 _m
549 0 _l
459 0 _l
459 327 _l
459 379 448 417 428 443 _c
408 469 378 482 338 482 _c
289 482 251 466 223 435 _c
195 404 181 362 181 309 _c
181 0 _l
91 0 _l
91 547 _l
181 547 _l
181 462 _l
202 494 227 519 257 535 _c
286 551 320 560 358 560 _c
420 560 468 540 500 501 _c
532 462 549 405 549 330 _c
_cl}_d
/o{612 0 55 -13 557 560 _sc
306 484 _m
258 484 220 465 192 427 _c
164 389 150 338 150 273 _c
150 207 163 156 191 118 _c
219 80 257 62 306 62 _c
354 62 392 80 420 118 _c
448 156 462 207 462 273 _c
462 337 448 389 420 427 _c
392 465 354 484 306 484 _c
306 560 _m
384 560 445 534 490 484 _c
534 433 557 363 557 273 _c
557 183 534 113 490 63 _c
445 12 384 -13 306 -13 _c
227 -13 165 12 121 63 _c
77 113 55 183 55 273 _c
55 363 77 433 121 484 _c
165 534 227 560 306 560 _c
_cl}_d
/r{411 0 91 0 411 560 _sc
411 463 _m
401 469 390 473 378 476 _c
366 478 353 480 339 480 _c
288 480 249 463 222 430 _c
194 397 181 350 181 288 _c
181 0 _l
91 0 _l
91 547 _l
181 547 _l
181 462 _l
199 495 224 520 254 536 _c
284 552 321 560 365 560 _c
371 560 378 559 386 559 _c
393 558 401 557 411 555 _c
411 463 _l
_cl}_d
/s{{521 0 54 -13 472 560 _sc
443 531 _m
443 446 _l
417 458 391 468 364 475 _c
336 481 308 485 279 485 _c
234 485 200 478 178 464 _c
156 450 145 430 145 403 _c
145 382 153 366 169 354 _c
185 342 217 330 265 320 _c
296 313 _l
360 299 405 279 432 255 _c
458 230 472 195 472 151 _c
472 100 452 60 412 31 _c
372 1 316 -13 246 -13 _c
216 -13 186 -10 154 -5 _c
}_e{122 0 89 8 54 20 _c
54 113 _l
87 95 120 82 152 74 _c
184 65 216 61 248 61 _c
290 61 323 68 346 82 _c
368 96 380 117 380 144 _c
380 168 371 187 355 200 _c
339 213 303 226 247 238 _c
216 245 _l
160 257 119 275 95 299 _c
70 323 58 356 58 399 _c
58 450 76 490 112 518 _c
148 546 200 560 268 560 _c
301 560 332 557 362 552 _c
391 547 418 540 443 531 _c
}_e{_cl}_e}_d
/t{392 0 27 0 368 702 _sc
183 702 _m
183 547 _l
368 547 _l
368 477 _l
183 477 _l
183 180 _l
183 135 189 106 201 94 _c
213 81 238 75 276 75 _c
368 75 _l
368 0 _l
276 0 _l
206 0 158 13 132 39 _c
106 65 93 112 93 180 _c
93 477 _l
27 477 _l
27 547 _l
93 547 _l
93 702 _l
183 702 _l
_cl}_d
/v{592 0 30 0 562 547 _sc
30 547 _m
125 547 _l
296 88 _l
467 547 _l
562 547 _l
357 0 _l
235 0 _l
30 547 _l
_cl}_d
end readonly def

/BuildGlyph
 {exch begin
 CharStrings exch
 2 copy known not{pop /.notdef}if
 true 3 1 roll get exec
 end}_d

/BuildChar {
 1 index /Encoding get exch get
 1 index /BuildGlyph get exec
}_d

FontName currentdict end definefont pop
end
%%EndProlog
mpldict begin
90 252 translate
432 288 0 0 clipbox
gsave
0 0 m
432 0 l
432 288 l
0 288 l
cl
1.000 setgray
fill
grestore
gsave
54 36 m
388.8 36 l
388.8 253.44 l
54 253.44 l
cl
1.000 setgray
fill
grestore
0.800 setlinewidth
1 setlinejoin
0 setlinecap
[] 0 setdash
0.000 setgray
gsave
/o {
gsave
newpath
translate
0.8 setlinewidth
1 setlinejoin
0 setlinecap
0 0 m
0 -3.5 l

gsave
0.000 setgray
fill
grestore
stroke
grestore
} bind def
69.1728 36 o
grestore
/DejaVuSans findfont
10.000 scalefont
setfont
gsave
61.219716 21.406250 translate
0.000000 rotate
0.000000 0.000000 m /zero glyphshow
6.362305 0.000000 m /period glyphshow
9.541016 0.000000 m /zero glyphshow
grestore
gsave
/o {
gsave
newpath
translate
0.8 setlinewidth
1 setlinejoin
0 setlinecap
0 0 m
0 -3.5 l

gsave
0.000 setgray
fill
grestore
stroke
grestore
} bind def
130.055 36 o
grestore
gsave
122.101739 21.406250 translate
0.000000 rotate
0.000000 0.000000 m /zero glyphshow
6.362305 0.000000 m /period glyphshow
9.541016 0.000000 m /two glyphshow
grestore
gsave
/o {
gsave
newpath
translate
0.8 setlinewidth
1 setlinejoin
0 setlinecap
0 0 m
0 -3.5 l

gsave
0.000 setgray
fill
grestore
stroke
grestore
} bind def
190.937 36 o
grestore
gsave
182.983761 21.406250 translate
0.000000 rotate
0.000000 0.000000 m /zero glyphshow
6.362305 0.000000 m /period glyphshow
9.541016 0.000000 m /four glyphshow
grestore
gsave
/o {
gsave
newpath
translate
0.8 setlinewidth
1 setlinejoin
0 setlinecap
0 0 m
0 -3.5 l

gsave
0.000 setgray
fill
grestore
stroke
grestore
} bind def
251.819 36 o
grestore
gsave
243.865783 21.406250 translate
0.000000 rotate
0.000000 0.000000 m /zero glyphshow
6.362305 0.000000 m /period glyphshow
9.541016 0.000000 m /six glyphshow
grestore
gsave
/o {
gsave
newpath
translate
0.8 setlinewidth
1 setlinejoin
0 setlinecap
0 0 m
0 -3.5 l

gsave
0.000 setgray
fill
grestore
stroke
grestore
} bind def
312.701 36 o
grestore
gsave
304.747805 21.406250 translate
0.000000 rotate
0.000000 0.000000 m /zero glyphshow
6.362305 0.000000 m /period glyphshow
9.541016 0.000000 m /eight glyphshow
grestore
gsave
/o {
gsave
newpath
translate
0.8 setlinewidth
1 setlinejoin
0 setlinecap
0 0 m
0 -3.5 l

gsave
0.000 setgray
fill
grestore
stroke
grestore
} bind def
373.583 36 o
grestore
gsave
365.629827 21.406250 translate
0.000000 rotate
0.000000 0.000000 m /one glyphshow
6.362305 0.000000 m /period glyphshow
9.541016 0.000000 m /zero glyphshow
grestore
gsave
196.634375 7.734375 translate
0.000000 rotate
0.000000 0.000000 m /T glyphshow
6.108398 0.000000 m /h glyphshow
12.446289 0.000000 m /r glyphshow
16.557617 0.000000 m /e glyphshow
22.709961 0.000000 m /s glyphshow
27.919922 0.000000 m /h glyphshow
34.257812 0.000000 m /o glyphshow
40.375977 0.000000 m /l glyphshow
43.154297 0.000000 m /d glyphshow
grestore
gsave
/o {
gsave
newpath
translate
0.8 setlinewidth
1 setlinejoin
0 setlinecap
0 0 m
-3.5 0 l

gsave
0.000 setgray
fill
grestore
stroke
grestore
} bind def
54 36 o
grestore
gsave
31.093750 32.203125 translate
0.000000 rotate
0.000000 0.000000 m /zero glyphshow
6.362305 0.000000 m /period glyphshow
9.541016 0.000000 m /zero glyphshow
grestore
gsave
/o {
gsave
newpath
translate
0.8 setlinewidth
1 setlinejoin
0 setlinecap
0 0 m
-3.5 0 l

gsave
0.000 setgray
fill
grestore
stroke
grestore
} bind def
54 79.488 o
grestore
gsave
31.093750 75.691125 translate
0.000000 rotate
0.000000 0.000000 m /zero glyphshow
6.362305 0.000000 m /period glyphshow
9.541016 0.000000 m /two glyphshow
grestore
gsave
/o {
gsave
newpath
translate
0.8 setlinewidth
1 setlinejoin
0 setlinecap
0 0 m
-3.5 0 l

gsave
0.000 setgray
fill
grestore
stroke
grestore
} bind def
54 122.976 o
grestore
gsave
31.093750 119.179125 translate
0.000000 rotate
0.000000 0.000000 m /zero glyphshow
6.362305 0.000000 m /period glyphshow
9.541016 0.000000 m /four glyphshow
grestore
gsave
/o {
gsave
newpath
translate
0.8 setlinewidth
1 setlinejoin
0 setlinecap
0 0 m
-3.5 0 l

gsave
0.000 setgray
fill
grestore
stroke
grestore
} bind def
54 166.464 o
grestore
gsave
31.093750 162.667125 translate
0.000000 rotate
0.000000 0.000000 m /zero glyphshow
6.362305 0.000000 m /period glyphshow
9.541016 0.000000 m /six glyphshow
grestore
gsave
/o {
gsave
newpath
translate
0.8 setlinewidth
1 setlinejoin
0 setlinecap
0 0 m
-3.5 0 l

gsave
0.000 setgray
fill
grestore
stroke
grestore
} bind def
54 209.952 o
grestore
gsave
31.093750 206.155125 translate
0.000000 rotate
0.000000 0.000000 m /zero glyphshow
6.362305 0.000000 m /period glyphshow
9.541016 0.000000 m /eight glyphshow
grestore
gsave
/o {
gsave
newpath
translate
0.8 setlinewidth
1 setlinejoin
0 setlinecap
0 0 m
-3.5 0 l

gsave
0.000 setgray
fill
grestore
stroke
grestore
} bind def
54 253.44 o
grestore
gsave
31.093750 249.643125 translate
0.000000 rotate
0.000000 0.000000 m /one glyphshow
6.362305 0.000000 m /period glyphshow
9.541016 0.000000 m /zero glyphshow
grestore
gsave
25.015625 94.618437 translate
90.000000 rotate
0.000000 0.000000 m /P glyphshow
6.030273 0.000000 m /r glyphshow
10.141602 0.000000 m /e glyphshow
16.293945 0.000000 m /c glyphshow
21.791992 0.000000 m /i glyphshow
24.570312 0.000000 m /s glyphshow
29.780273 0.000000 m /i glyphshow
32.558594 0.000000 m /o glyphshow
38.676758 0.000000 m /n glyphshow
45.014648 0.000000 m /comma glyphshow
48.193359 0.000000 m /space glyphshow
51.372070 0.000000 m /R glyphshow
58.320312 0.000000 m /e glyphshow
64.472656 0.000000 m /c glyphshow
69.970703 0.000000 m /a glyphshow
76.098633 0.000000 m /l glyphshow
78.876953 0.000000 m /l glyphshow
81.655273 0.000000 m /comma glyphshow
84.833984 0.000000 m /space glyphshow
88.012695 0.000000 m /F glyphshow
93.764648 0.000000 m /one glyphshow
grestore
1.500 setlinewidth
[5.55 2.4] 0 setdash
0.000 0.000 1.000 setrgbcolor
gsave
334.8 217.4 54 36 clipbox
69.218182 251.106953 m
69.876721 251.213162 l
69.87739 251.248716 l
71.8101 251.461638 l
71.813708 251.497287 l
72.5182 251.604 l
93.47335 252.317121 l
99.335171 252.423586 l
99.9308 252.495714 l
112.678104 252.602992 l
113.273979 252.711802 l
118.095557 252.819681 l
118.911994 252.855876 l
123.8023 252.964841 l
147.852674 253.072516 l
148.379245 253.109097 l
177.581227 253.216258 l
177.722955 253.253484 l
238.562736 253.321997 l
239.026485 253.361289 l
372.038722 253.44 l
373.581818 253.44 l
373.581818 253.44 l
stroke
grestore
1.000 0.000 0.000 setrgbcolor
gsave
334.8 217.4 54 36 clipbox
69.218182 253.44 m
69.87739 253.403718 l
73.44656 253.294871 l
75.41707 253.258588 l
79.398423 253.149741 l
88.2916 252.8232 l
93.47335 252.678071 l
98.145646 252.387812 l
98.254693 252.35153 l
105.982473 252.133836 l
112.143047 251.988707 l
122.336264 251.40819 l
141.009406 250.863955 l
141.020312 250.79139 l
143.082834 250.646261 l
147.598842 250.356002 l
149.519719 250.17459 l
153.219107 249.993179 l
154.275461 249.884332 l
156.654202 249.70292 l
156.856643 249.630355 l
158.92531 249.448944 l
171.699348 247.997651 l
172.717343 247.816239 l
172.717595 247.779957 l
173.760957 247.707392 l
177.988526 247.272004 l
182.454258 246.945463 l
185.522792 246.618922 l
185.579958 246.510075 l
188.931608 246.147252 l
189.297144 246.002122 l
192.084636 245.748146 l
192.13877 245.711864 l
195.104608 245.349041 l
195.153782 245.276476 l
195.352181 245.240194 l
196.870673 245.095064 l
196.896491 245.058782 l
199.090938 244.695959 l
200.594665 244.478265 l
201.96453 244.224288 l
203.439748 244.042877 l
203.446934 244.006594 l
208.438767 243.280948 l
208.948648 243.172101 l
210.815853 242.881842 l
211.179789 242.736713 l
211.745835 242.591584 l
216.586432 241.575678 l
218.121141 241.430549 l
218.382534 241.321702 l
220.509676 240.995161 l
221.770621 240.777467 l
222.830464 240.450926 l
222.838074 240.414644 l
223.303507 240.233232 l
223.462339 240.124385 l
226.958038 239.326174 l
226.979979 239.289892 l
227.913087 239.035915 l
228.164329 238.963351 l
230.250832 238.346551 l
231.387939 238.201422 l
231.499306 238.092575 l
233.000668 237.693469 l
233.097644 237.657187 l
234.737098 237.439493 l
237.023098 236.93154 l
237.475596 236.713846 l
238.319999 236.532435 l
239.787184 236.169611 l
240.711805 235.9882 l
241.173391 235.879353 l
241.645896 235.697941 l
241.667459 235.625376 l
243.97398 235.117424 l
244.268228 234.936012 l
246.956809 234.500624 l
247.528033 234.355495 l
249.134185 233.956389 l
249.18462 233.920107 l
250.119101 233.774977 l
250.149838 233.738695 l
251.111766 233.448437 l
251.127193 233.412154 l
251.682744 233.230743 l
252.023451 233.085613 l
252.044502 233.049331 l
252.730573 232.867919 l
253.422972 232.613943 l
253.826177 232.468814 l
254.140684 232.287402 l
255.316336 232.069708 l
256.841549 231.670602 l
257.0333 231.525473 l
258.174558 231.344061 l
258.26581 231.307779 l
259.15885 231.16265 l
259.163851 231.126367 l
259.951825 230.944956 l
260.177144 230.763544 l
260.247701 230.654697 l
260.434029 230.582132 l
261.145382 230.364439 l
262.408901 229.566227 l
263.659205 229.348533 l
263.779838 229.167122 l
264.383475 229.021992 l
264.821147 228.695451 l
265.675558 228.477757 l
266.862566 228.260063 l
267.014025 228.114934 l
269.013756 227.534417 l
269.514138 227.389288 l
269.66396 227.280441 l
270.28599 226.9539 l
270.307817 226.917617 l
270.675124 226.772488 l
273.460756 225.756583 l
273.483038 225.7203 l
274.433431 225.502606 l
275.367359 225.067218 l
275.964318 224.885807 l
275.966788 224.849524 l
277.325195 224.486701 l
277.409373 224.377854 l
277.840899 224.196443 l
278.055728 224.015031 l
278.876161 223.724772 l
279.226022 223.470796 l
279.227303 223.434514 l
279.76309 223.325667 l
280.584091 223.180537 l
280.659497 223.144255 l
281.200558 222.999126 l
282.381384 222.527455 l
282.633754 222.382326 l
283.246381 222.200914 l
283.335732 222.092067 l
284.198002 221.584115 l
284.243785 221.547832 l
284.832115 221.402703 l
284.911059 221.330138 l
285.597658 221.221292 l
286.122517 221.076162 l
287.380532 220.56821 l
287.538649 220.42308 l
288.778716 219.878845 l
289.253689 219.697434 l
289.26017 219.624869 l
289.489454 219.47974 l
289.99991 219.008069 l
290.73734 218.826658 l
290.832259 218.754093 l
291.101478 218.500117 l
291.236077 218.39127 l
291.531743 218.24614 l
291.622751 218.173576 l
294.60547 216.903694 l
294.624377 216.83113 l
294.979486 216.649718 l
295.189423 216.432024 l
295.741018 216.032918 l
296.162374 215.778942 l
296.340968 215.633813 l
297.006631 215.379836 l
297.824895 215.162142 l
298.271747 214.908166 l
298.875722 214.545343 l
298.925621 214.436496 l
299.501615 214.255084 l
299.725634 214.109955 l
300.081638 213.964826 l
300.176779 213.892261 l
300.997689 213.56572 l
301.716306 213.166614 l
302.486016 212.658662 l
302.925206 212.47725 l
303.042596 212.295838 l
303.071443 212.259556 l
303.677995 212.041862 l
304.286828 211.679039 l
305.132913 211.461345 l
305.379719 211.316216 l
305.512971 211.243651 l
305.783488 211.062239 l
305.977792 210.91711 l
306.799681 210.44544 l
306.948496 210.30031 l
306.977642 210.227746 l
307.304477 210.082616 l
307.702662 209.756075 l
308.374528 209.502099 l
308.678982 209.284405 l
308.729401 209.21184 l
309.121187 209.066711 l
309.282633 208.994147 l
309.611633 208.812735 l
309.747393 208.703888 l
309.763715 208.667606 l
310.528038 208.449912 l
310.777621 208.304782 l
311.4472 207.833112 l
311.965593 207.542853 l
313.142234 206.70836 l
313.735635 206.09156 l
314.019752 205.910149 l
314.22178 205.692455 l
314.349512 205.61989 l
314.991211 205.00309 l
315.111157 204.857961 l
316.50527 204.05975 l
316.944859 203.878338 l
316.948524 203.842056 l
317.295727 203.660644 l
317.299255 203.624362 l
317.661049 203.44295 l
318.077123 203.007562 l
318.496158 202.535892 l
318.751687 202.35448 l
319.340631 201.88281 l
319.468468 201.773963 l
319.894673 201.556269 l
319.968654 201.447422 l
320.414064 201.120881 l
320.54522 200.866905 l
320.66578 200.685493 l
321.991578 199.415612 l
322.075998 199.306765 l
322.41308 199.125353 l
322.460129 198.980224 l
322.721298 198.835094 l
322.840821 198.544836 l
323.175296 198.363424 l
323.316179 198.14573 l
323.359172 198.073165 l
323.902536 197.891754 l
324.300723 197.492648 l
324.504253 197.093542 l
324.705947 196.912131 l
324.931693 196.694437 l
325.337771 196.404178 l
325.887847 195.714814 l
326.197453 195.460838 l
326.27677 195.315708 l
326.489887 195.170579 l
326.6248 194.88032 l
326.84642 194.698909 l
326.892063 194.626344 l
327.233653 194.40865 l
327.258697 194.372368 l
327.554974 194.227238 l
328.782115 192.84851 l
329.169356 192.086581 l
329.264872 191.977734 l
329.52485 191.687475 l
330.230084 190.780417 l
330.387171 190.490159 l
330.565787 190.236182 l
330.64245 189.945924 l
331.277764 189.5831 l
331.404222 189.474253 l
331.563289 189.183995 l
331.957241 188.63976 l
332.394683 188.385783 l
332.454189 188.204372 l
332.848742 188.02296 l
332.964962 187.768984 l
333.109651 187.623854 l
333.4108 187.224749 l
333.524912 186.970773 l
333.618043 186.789361 l
333.691774 186.644232 l
334.090304 186.499102 l
334.195217 186.208844 l
334.36831 185.954867 l
334.465413 185.84602 l
334.6912 185.664609 l
334.867869 185.410632 l
335.675877 184.43101 l
335.947627 184.28588 l
337.449029 182.326634 l
337.509404 182.217787 l
337.766039 181.963811 l
338.017024 181.564705 l
338.223088 181.1656 l
338.819288 180.149695 l
338.975208 179.786871 l
339.563066 178.98866 l
339.706476 178.734684 l
339.9309 178.51699 l
340.03649 178.226731 l
340.149603 178.081602 l
340.288499 177.936473 l
340.807838 177.174544 l
340.918275 176.95685 l
340.921917 176.920567 l
341.252764 176.739156 l
342.79165 174.344522 l
342.918999 174.126828 l
343.621696 172.639252 l
343.69757 172.494123 l
343.825527 172.022453 l
344.29755 171.369371 l
344.395829 171.187959 l
344.488863 170.861418 l
345.120878 169.700384 l
345.208343 169.518972 l
345.320834 169.33756 l
345.554512 168.902173 l
345.724475 168.357938 l
345.913722 168.140244 l
346.099608 167.813703 l
346.200792 167.632291 l
346.371248 167.269468 l
346.603295 166.616386 l
346.795587 166.362409 l
346.984898 166.144716 l
347.198537 165.818175 l
347.32938 165.419069 l
347.652462 164.765987 l
347.784217 164.439446 l
347.932491 164.294317 l
348.04235 164.004058 l
348.77075 162.951871 l
348.922088 162.407636 l
349.179274 162.044812 l
349.276196 161.827118 l
349.470643 161.428013 l
349.60308 161.174036 l
349.834277 160.666084 l
349.92592 160.44839 l
350.019059 160.158131 l
350.145074 159.97672 l
350.680278 158.670556 l
350.754024 158.525426 l
350.876052 158.344015 l
351.04872 158.017474 l
351.155756 157.872344 l
351.38362 157.436956 l
351.785427 156.348487 l
351.917941 156.167075 l
352.026057 155.949381 l
352.448233 154.860911 l
352.904032 153.845006 l
353.015717 153.663594 l
353.098962 153.373336 l
353.214125 153.083077 l
353.405756 152.720254 l
353.581198 152.248583 l
353.684075 151.994607 l
353.941055 151.196396 l
354.138087 150.615879 l
354.296201 150.253055 l
354.460693 149.599973 l
354.75361 148.874327 l
354.834838 148.692915 l
354.961127 148.221245 l
356.400914 144.520447 l
356.492864 144.375318 l
356.600857 144.121342 l
356.733789 143.93993 l
357.013788 142.960307 l
357.198712 142.524919 l
359.339451 135.84897 l
359.423978 135.631276 l
359.650883 134.978195 l
359.707249 134.724218 l
359.80934 134.43396 l
359.969746 133.81716 l
361.505598 128.338528 l
361.620638 128.04827 l
361.990348 126.451847 l
362.128893 125.726201 l
362.235366 125.544789 l
362.348842 125.145683 l
362.39682 124.927989 l
362.52115 124.456319 l
364.008679 117.562676 l
364.118028 116.83703 l
364.210228 116.619336 l
364.811267 113.789314 l
365.095307 112.555715 l
365.354498 110.886728 l
365.46154 110.415058 l
365.612303 109.399152 l
365.820211 107.657601 l
366.013728 106.968236 l
366.165982 106.424001 l
366.29976 105.879766 l
366.414703 105.262967 l
366.459581 105.00899 l
366.836035 102.795768 l
366.886006 102.469227 l
367.616959 97.280854 l
367.751952 96.373796 l
368.02588 94.450833 l
368.143773 93.797751 l
368.288754 92.346458 l
368.462153 91.511964 l
368.552359 91.004011 l
368.663618 89.951824 l
368.920731 87.956296 l
369.053535 87.230649 l
371.064128 71.411553 l
371.18822 70.069107 l
372.09564 59.075561 l
372.159538 58.749021 l
372.627388 53.088977 l
372.658066 52.435895 l
373.192591 44.236089 l
373.297034 42.276843 l
373.563222 36.399106 l
373.581818 36.036282 l
373.581818 36.036282 l
stroke
grestore
0.750 0.750 0.000 setrgbcolor
gsave
334.8 217.4 54 36 clipbox
69.218182 252.267184 m
69.876721 252.302894 l
69.87739 252.32085 l
79.398423 252.553524 l
84.943498 252.534604 l
86.595748 252.516111 l
92.149402 252.515649 l
113.613281 252.31318 l
115.753654 252.294526 l
116.154809 252.257964 l
118.671838 252.202685 l
119.41554 252.165866 l
142.280975 251.889593 l
143.082834 251.852847 l
153.219107 251.539684 l
154.275461 251.484374 l
157.854937 251.31792 l
161.283145 251.133041 l
162.209065 251.040485 l
164.874972 250.910775 l
166.313374 250.81759 l
169.250912 250.668544 l
170.204673 250.594167 l
172.717595 250.463886 l
175.868785 250.296156 l
179.157849 250.183643 l
182.454258 250.052855 l
186.046531 249.80955 l
186.118204 249.790812 l
188.990479 249.622027 l
195.352181 249.170672 l
197.159772 249.03868 l
198.140402 248.925419 l
200.735857 248.75531 l
203.439748 248.547044 l
203.446934 248.528091 l
210.900606 247.938013 l
216.586432 247.268977 l
218.382534 247.134688 l
223.353512 246.518734 l
224.987729 246.286876 l
226.867228 246.111404 l
229.466984 245.645442 l
231.977099 245.392238 l
233.687792 245.138464 l
233.718976 245.118919 l
236.778252 244.903704 l
237.475596 244.688078 l
239.286195 244.490142 l
239.787184 244.41148 l
241.356436 244.232689 l
241.376757 244.212981 l
243.97398 243.857642 l
244.638512 243.719153 l
248.03109 243.382119 l
248.0887 243.342402 l
253.826177 242.405049 l
254.140684 242.304875 l
256.265859 242.084185 l
257.603144 241.822819 l
259.163851 241.661681 l
260.144297 241.500317 l
260.434029 241.358936 l
261.248194 241.176905 l
262.408901 240.791667 l
263.721408 240.629075 l
263.779838 240.568044 l
264.478869 240.425511 l
268.035516 239.79217 l
268.036882 239.771682 l
269.83412 239.443374 l
278.960231 237.432864 l
279.106047 237.349206 l
283.848839 236.424997 l
284.243785 236.213929 l
286.074906 236.00248 l
286.601218 235.833046 l
287.411625 235.599675 l
288.258649 235.323275 l
289.956998 234.768522 l
289.99991 234.72574 l
290.832259 234.575883 l
294.180956 233.669129 l
294.904636 233.366481 l
295.266389 233.149831 l
295.853919 232.932786 l
296.272098 232.780618 l
296.411218 232.715343 l
297.006631 232.584687 l
297.945267 232.388433 l
298.925621 232.016849 l
299.687556 231.863507 l
299.725634 231.819659 l
300.313542 231.666063 l
300.508648 231.578206 l
301.441545 231.38029 l
301.557092 231.314246 l
302.010673 231.137949 l
302.284005 231.027631 l
302.486016 230.939304 l
302.933783 230.784575 l
303.042596 230.718201 l
303.26682 230.673932 l
304.281075 230.363588 l
304.286828 230.34139 l
305.359604 230.141423 l
305.606971 230.007926 l
306.247851 229.785103 l
308.179074 229.02441 l
308.678982 228.8672 l
308.729401 228.822246 l
309.437323 228.664773 l
309.653445 228.529634 l
311.005181 228.100695 l
311.4472 227.964925 l
312.213664 227.692929 l
312.328362 227.624835 l
312.864417 227.443064 l
312.978339 227.374829 l
313.32063 227.055897 l
313.609014 226.918955 l
314.997721 226.16302 l
315.111157 226.094066 l
316.948524 225.448619 l
317.464577 225.286724 l
317.89697 225.008694 l
318.133568 224.869443 l
318.250218 224.730034 l
320.759622 223.374222 l
320.805653 223.280167 l
321.168985 223.068282 l
321.991578 222.596125 l
322.075998 222.525146 l
322.438095 222.359371 l
322.460129 222.311966 l
322.736995 222.169642 l
323.621503 221.646392 l
324.061177 221.503305 l
324.41287 221.216638 l
324.649497 221.001204 l
325.622545 220.424893 l
326.123336 220.015062 l
326.489887 219.797549 l
326.6248 219.603887 l
326.856111 219.458445 l
327.258697 219.26426 l
327.591178 219.142741 l
327.713856 218.972418 l
328.552989 218.435614 l
328.682131 218.337767 l
328.851083 218.166353 l
329.042875 217.871958 l
329.170121 217.699911 l
330.317985 216.761841 l
330.64245 216.265322 l
331.283698 215.991409 l
331.404222 215.941544 l
331.585031 215.716906 l
331.662901 215.566928 l
331.937554 215.416773 l
331.957241 215.366682 l
332.406657 215.166122 l
332.454189 215.065724 l
332.885422 214.914979 l
333.054633 214.688528 l
333.377862 214.436446 l
333.533083 214.158582 l
334.192403 213.702593 l
334.285298 213.626438 l
334.560313 213.37226 l
334.704662 213.244982 l
335.161108 212.913471 l
336.058599 212.170864 l
336.386226 212.016687 l
336.812955 211.656224 l
337.007455 211.475617 l
337.160742 211.346457 l
337.324676 211.191295 l
338.895446 209.262269 l
339.166085 208.867751 l
339.706476 208.339873 l
339.959007 208.128126 l
340.706829 207.27771 l
340.918275 207.037538 l
340.921917 207.010825 l
341.341514 206.823684 l
342.080809 205.910923 l
342.427008 205.560257 l
342.701955 205.208661 l
342.817226 205.046071 l
342.976708 204.774646 l
343.545636 203.902348 l
343.621696 203.820277 l
343.699555 203.683379 l
343.953786 203.106874 l
344.356604 202.831472 l
344.519981 202.389649 l
344.792526 202.140483 l
344.976489 201.946367 l
345.162436 201.501619 l
345.528944 201.027459 l
345.724475 200.551627 l
345.922574 200.355209 l
346.184854 200.017826 l
346.948636 198.858725 l
347.221767 198.517596 l
347.445772 198.032864 l
347.584061 197.86137 l
347.783286 197.517734 l
347.89358 197.460378 l
348.304584 196.885484 l
348.541729 196.683699 l
348.774118 196.279237 l
348.886822 195.931605 l
349.305212 195.350257 l
349.434969 195.117029 l
349.612234 194.854175 l
349.67413 194.707928 l
349.823147 194.532228 l
349.934669 194.209529 l
350.290917 193.620868 l
350.440422 193.296036 l
350.754024 192.733165 l
350.876052 192.584662 l
351.04872 192.316956 l
351.185828 192.168008 l
352.244411 190.126382 l
352.367322 189.914515 l
352.645159 189.276992 l
353.047693 188.606 l
353.749889 187.099965 l
353.876241 186.883504 l
354.75361 184.606292 l
354.836166 184.417498 l
356.600857 180.426881 l
356.733789 180.264942 l
357.013788 179.387344 l
357.209786 178.962903 l
357.513918 178.110303 l
357.635328 177.94577 l
357.748405 177.550136 l
357.891688 177.186531 l
359.191925 173.194581 l
359.377717 172.820091 l
359.777933 171.622239 l
359.866133 171.312662 l
359.967326 170.967936 l
360.102175 170.553215 l
360.864831 168.251593 l
360.962648 168.005411 l
361.092045 167.299821 l
361.287815 166.697479 l
361.966316 163.939022 l
362.106254 163.105338 l
362.393525 162.303651 l
362.557943 161.461047 l
362.664165 161.203688 l
363.029669 159.724814 l
363.164849 159.166588 l
363.434141 157.74341 l
363.494455 157.442136 l
363.610275 157.026936 l
363.722145 156.686409 l
364.118028 153.858246 l
364.210228 153.626702 l
364.823046 150.546195 l
365.007559 149.638062 l
366.016579 142.969099 l
366.12813 142.556009 l
366.528628 140.307215 l
366.932821 137.345851 l
368.666295 122.406161 l
368.778294 120.955747 l
368.81848 120.720677 l
369.161645 117.970611 l
369.430231 115.031305 l
369.681709 112.782193 l
369.794388 111.69645 l
369.90555 110.703682 l
370.684616 102.142615 l
370.816203 100.202168 l
370.945173 98.826347 l
371.093554 96.420828 l
371.147477 95.61206 l
371.53023 89.125812 l
371.983297 79.729491 l
372.09564 77.723289 l
372.159538 77.188785 l
372.893952 61.158912 l
372.917433 60.384514 l
373.031396 56.665785 l
373.141446 53.481563 l
373.281684 48.475488 l
373.343974 46.342479 l
373.581818 36.072553 l
373.581818 36.072553 l
stroke
grestore
1.000 setlinewidth
[] 0 setdash
1.000 0.000 0.000 setrgbcolor
gsave
334.8 217.4 54 36 clipbox
/o {
gsave
newpath
translate
1.0 setlinewidth
1 setlinejoin
0 setlinecap
0 -3 m
0.795609 -3 1.55874 -2.683901 2.12132 -2.12132 c
2.683901 -1.55874 3 -0.795609 3 0 c
3 0.795609 2.683901 1.55874 2.12132 2.12132 c
1.55874 2.683901 0.795609 3 0 3 c
-0.795609 3 -1.55874 2.683901 -2.12132 2.12132 c
-2.683901 1.55874 -3 0.795609 -3 0 c
-3 -0.795609 -2.683901 -1.55874 -2.12132 -2.12132 c
-1.55874 -2.683901 -0.795609 -3 0 -3 c
cl

gsave
1.000 0.000 0.000 setrgbcolor
fill
grestore
stroke
grestore
} bind def
97.8238 252.406 o
98.1456 252.388 o
grestore
0.800 setlinewidth
0 setlinejoin
2 setlinecap
[] 0 setdash
0.000 setgray
gsave
54 36 m
54 253.44 l
stroke
grestore
gsave
388.8 36 m
388.8 253.44 l
stroke
grestore
gsave
54 36 m
388.8 36 l
stroke
grestore
gsave
54 253.44 m
388.8 253.44 l
stroke
grestore
/DejaVuSans findfont
12.000 scalefont
setfont
gsave
106.017188 259.440000 translate
0.000000 rotate
0.000000 0.000000 m /P glyphshow
7.236328 0.000000 m /r glyphshow
12.169922 0.000000 m /e glyphshow
19.552734 0.000000 m /c glyphshow
26.150391 0.000000 m /i glyphshow
29.484375 0.000000 m /s glyphshow
35.736328 0.000000 m /i glyphshow
39.070312 0.000000 m /o glyphshow
46.412109 0.000000 m /n glyphshow
54.017578 0.000000 m /hyphen glyphshow
58.347656 0.000000 m /R glyphshow
66.685547 0.000000 m /e glyphshow
74.068359 0.000000 m /c glyphshow
80.666016 0.000000 m /a glyphshow
88.019531 0.000000 m /l glyphshow
91.353516 0.000000 m /l glyphshow
94.687500 0.000000 m /hyphen glyphshow
99.017578 0.000000 m /F glyphshow
105.919922 0.000000 m /one glyphshow
113.554688 0.000000 m /space glyphshow
117.369141 0.000000 m /v glyphshow
124.470703 0.000000 m /s glyphshow
130.722656 0.000000 m /space glyphshow
134.537109 0.000000 m /T glyphshow
141.867188 0.000000 m /h glyphshow
149.472656 0.000000 m /r glyphshow
154.406250 0.000000 m /e glyphshow
161.789062 0.000000 m /s glyphshow
168.041016 0.000000 m /h glyphshow
175.646484 0.000000 m /o glyphshow
182.988281 0.000000 m /l glyphshow
186.322266 0.000000 m /d glyphshow
193.939453 0.000000 m /space glyphshow
197.753906 0.000000 m /C glyphshow
206.132812 0.000000 m /h glyphshow
213.738281 0.000000 m /a glyphshow
221.091797 0.000000 m /r glyphshow
226.025391 0.000000 m /t glyphshow
grestore
1.000 setlinewidth
0 setlinecap
0.800 setgray
gsave
61 41 m
138.046875 41 l
139.380208 41 140.046875 41.666667 140.046875 43 c
140.046875 86.015625 l
140.046875 87.348958 139.380208 88.015625 138.046875 88.015625 c
61 88.015625 l
59.666667 88.015625 59 87.348958 59 86.015625 c
59 43 l
59 41.666667 59.666667 41 61 41 c
cl
gsave
1.000 setgray
fill
grestore
stroke
grestore
1.500 setlinewidth
1 setlinejoin
[5.55 2.4] 0 setdash
0.000 0.000 1.000 setrgbcolor
gsave
63 79.921875 m
83 79.921875 l
stroke
grestore
0.000 setgray
/DejaVuSans findfont
10.000 scalefont
setfont
gsave
91.000000 76.421875 translate
0.000000 rotate
0.000000 0.000000 m /P glyphshow
6.030273 0.000000 m /r glyphshow
10.141602 0.000000 m /e glyphshow
16.293945 0.000000 m /c glyphshow
21.791992 0.000000 m /i glyphshow
24.570312 0.000000 m /s glyphshow
29.780273 0.000000 m /i glyphshow
32.558594 0.000000 m /o glyphshow
38.676758 0.000000 m /n glyphshow
grestore
1.000 0.000 0.000 setrgbcolor
gsave
63 65.25 m
83 65.25 l
stroke
grestore
0.000 setgray
gsave
91.000000 61.750000 translate
0.000000 rotate
0.000000 0.000000 m /R glyphshow
6.948242 0.000000 m /e glyphshow
13.100586 0.000000 m /c glyphshow
18.598633 0.000000 m /a glyphshow
24.726562 0.000000 m /l glyphshow
27.504883 0.000000 m /l glyphshow
grestore
0.750 0.750 0.000 setrgbcolor
gsave
63 50.578125 m
83 50.578125 l
stroke
grestore
0.000 setgray
gsave
91.000000 47.078125 translate
0.000000 rotate
0.000000 0.000000 m /F glyphshow
5.751953 0.000000 m /one glyphshow
12.114258 0.000000 m /hyphen glyphshow
15.722656 0.000000 m /s glyphshow
20.932617 0.000000 m /c glyphshow
26.430664 0.000000 m /o glyphshow
32.548828 0.000000 m /r glyphshow
36.660156 0.000000 m /e glyphshow
grestore

end
showpage
