%!PS-Adobe-3.0 EPSF-3.0
%%Title: MultinomialNB-prec-rec-thresh.eps
%%Creator: matplotlib version 3.0.3, http://matplotlib.org/
%%CreationDate: Thu May 16 19:08:05 2019
%%Orientation: portrait
%%BoundingBox: 90 252 522 540
%%EndComments
%%BeginProlog
/mpldict 8 dict def
mpldict begin
/m { moveto } bind def
/l { lineto } bind def
/r { rlineto } bind def
/c { curveto } bind def
/cl { closepath } bind def
/box {
m
1 index 0 r
0 exch r
neg 0 r
cl
} bind def
/clipbox {
box
clip
newpath
} bind def
%!PS-Adobe-3.0 Resource-Font
%%Title: DejaVu Sans
%%Copyright: Copyright (c) 2003 by Bitstream, Inc. All Rights Reserved. Copyright (c) 2006 by Tavmjong Bah. All Rights Reserved. DejaVu changes are in public domain 
%%Creator: Converted from TrueType to type 3 by PPR
25 dict begin
/_d{bind def}bind def
/_m{moveto}_d
/_l{lineto}_d
/_cl{closepath eofill}_d
/_c{curveto}_d
/_sc{7 -1 roll{setcachedevice}{pop pop pop pop pop pop}ifelse}_d
/_e{exec}_d
/FontName /DejaVuSans def
/PaintType 0 def
/FontMatrix[.001 0 0 .001 0 0]def
/FontBBox[-1021 -463 1793 1232]def
/FontType 3 def
/Encoding [ /space /comma /hyphen /period /zero /one /two /four /six /eight /C /F /P /R /T /a /c /d /e /h /i /l /n /o /r /s /t /v ] def
/FontInfo 10 dict dup begin
/FamilyName (DejaVu Sans) def
/FullName (DejaVu Sans) def
/Notice (Copyright (c) 2003 by Bitstream, Inc. All Rights Reserved. Copyright (c) 2006 by Tavmjong Bah. All Rights Reserved. DejaVu changes are in public domain ) def
/Weight (Book) def
/Version (Version 2.35) def
/ItalicAngle 0.0 def
/isFixedPitch false def
/UnderlinePosition -130 def
/UnderlineThickness 90 def
end readonly def
/CharStrings 29 dict dup begin
/.notdef 0 def
/space{318 0 0 0 0 0 _sc
}_d
/comma{318 0 77 -115 220 124 _sc
117 124 _m
220 124 _l
220 40 _l
140 -115 _l
77 -115 _l
117 40 _l
117 124 _l
_cl}_d
/hyphen{361 0 49 234 312 314 _sc
49 314 _m
312 314 _l
312 234 _l
49 234 _l
49 314 _l
_cl}_d
/period{318 0 107 0 210 124 _sc
107 124 _m
210 124 _l
210 0 _l
107 0 _l
107 124 _l
_cl}_d
/zero{636 0 66 -13 570 742 _sc
318 664 _m
267 664 229 639 203 589 _c
177 539 165 464 165 364 _c
165 264 177 189 203 139 _c
229 89 267 64 318 64 _c
369 64 407 89 433 139 _c
458 189 471 264 471 364 _c
471 464 458 539 433 589 _c
407 639 369 664 318 664 _c
318 742 _m
399 742 461 709 505 645 _c
548 580 570 486 570 364 _c
570 241 548 147 505 83 _c
461 19 399 -13 318 -13 _c
236 -13 173 19 130 83 _c
87 147 66 241 66 364 _c
66 486 87 580 130 645 _c
173 709 236 742 318 742 _c
_cl}_d
/one{636 0 110 0 544 729 _sc
124 83 _m
285 83 _l
285 639 _l
110 604 _l
110 694 _l
284 729 _l
383 729 _l
383 83 _l
544 83 _l
544 0 _l
124 0 _l
124 83 _l
_cl}_d
/two{{636 0 73 0 536 742 _sc
192 83 _m
536 83 _l
536 0 _l
73 0 _l
73 83 _l
110 121 161 173 226 239 _c
290 304 331 346 348 365 _c
380 400 402 430 414 455 _c
426 479 433 504 433 528 _c
433 566 419 598 392 622 _c
365 646 330 659 286 659 _c
255 659 222 653 188 643 _c
154 632 117 616 78 594 _c
78 694 _l
118 710 155 722 189 730 _c
223 738 255 742 284 742 _c
}_e{359 742 419 723 464 685 _c
509 647 532 597 532 534 _c
532 504 526 475 515 449 _c
504 422 484 390 454 354 _c
446 344 420 317 376 272 _c
332 227 271 164 192 83 _c
_cl}_e}_d
/four{636 0 49 0 580 729 _sc
378 643 _m
129 254 _l
378 254 _l
378 643 _l
352 729 _m
476 729 _l
476 254 _l
580 254 _l
580 172 _l
476 172 _l
476 0 _l
378 0 _l
378 172 _l
49 172 _l
49 267 _l
352 729 _l
_cl}_d
/six{{636 0 70 -13 573 742 _sc
330 404 _m
286 404 251 388 225 358 _c
199 328 186 286 186 234 _c
186 181 199 139 225 109 _c
251 79 286 64 330 64 _c
374 64 409 79 435 109 _c
461 139 474 181 474 234 _c
474 286 461 328 435 358 _c
409 388 374 404 330 404 _c
526 713 _m
526 623 _l
501 635 476 644 451 650 _c
425 656 400 659 376 659 _c
310 659 260 637 226 593 _c
}_e{192 549 172 482 168 394 _c
187 422 211 444 240 459 _c
269 474 301 482 336 482 _c
409 482 467 459 509 415 _c
551 371 573 310 573 234 _c
573 159 550 99 506 54 _c
462 9 403 -13 330 -13 _c
246 -13 181 19 137 83 _c
92 147 70 241 70 364 _c
70 479 97 571 152 639 _c
206 707 280 742 372 742 _c
396 742 421 739 447 735 _c
472 730 498 723 526 713 _c
_cl}_e}_d
/eight{{636 0 68 -13 568 742 _sc
318 346 _m
271 346 234 333 207 308 _c
180 283 167 249 167 205 _c
167 161 180 126 207 101 _c
234 76 271 64 318 64 _c
364 64 401 76 428 102 _c
455 127 469 161 469 205 _c
469 249 455 283 429 308 _c
402 333 365 346 318 346 _c
219 388 _m
177 398 144 418 120 447 _c
96 476 85 511 85 553 _c
85 611 105 657 147 691 _c
188 725 245 742 318 742 _c
}_e{390 742 447 725 489 691 _c
530 657 551 611 551 553 _c
551 511 539 476 515 447 _c
491 418 459 398 417 388 _c
464 377 501 355 528 323 _c
554 291 568 251 568 205 _c
568 134 546 80 503 43 _c
459 5 398 -13 318 -13 _c
237 -13 175 5 132 43 _c
89 80 68 134 68 205 _c
68 251 81 291 108 323 _c
134 355 171 377 219 388 _c
183 544 _m
183 506 194 476 218 455 _c
}_e{242 434 275 424 318 424 _c
360 424 393 434 417 455 _c
441 476 453 506 453 544 _c
453 582 441 611 417 632 _c
393 653 360 664 318 664 _c
275 664 242 653 218 632 _c
194 611 183 582 183 544 _c
_cl}_e}_d
/C{{698 0 56 -13 644 742 _sc
644 673 _m
644 569 _l
610 599 575 622 537 638 _c
499 653 460 661 418 661 _c
334 661 270 635 226 584 _c
182 533 160 460 160 364 _c
160 268 182 194 226 143 _c
270 92 334 67 418 67 _c
460 67 499 74 537 90 _c
575 105 610 128 644 159 _c
644 56 _l
609 32 572 15 534 4 _c
496 -7 455 -13 412 -13 _c
302 -13 215 20 151 87 _c
}_e{87 154 56 246 56 364 _c
56 481 87 573 151 641 _c
215 708 302 742 412 742 _c
456 742 497 736 535 725 _c
573 713 610 696 644 673 _c
_cl}_e}_d
/F{575 0 98 0 517 729 _sc
98 729 _m
517 729 _l
517 646 _l
197 646 _l
197 431 _l
486 431 _l
486 348 _l
197 348 _l
197 0 _l
98 0 _l
98 729 _l
_cl}_d
/P{603 0 98 0 569 729 _sc
197 648 _m
197 374 _l
321 374 _l
367 374 402 385 427 409 _c
452 433 465 467 465 511 _c
465 555 452 588 427 612 _c
402 636 367 648 321 648 _c
197 648 _l
98 729 _m
321 729 _l
402 729 464 710 506 673 _c
548 636 569 582 569 511 _c
569 439 548 384 506 348 _c
464 311 402 293 321 293 _c
197 293 _l
197 0 _l
98 0 _l
98 729 _l
_cl}_d
/R{{695 0 98 0 666 729 _sc
444 342 _m
465 334 486 319 506 296 _c
526 272 546 240 566 199 _c
666 0 _l
560 0 _l
467 187 _l
443 235 419 268 397 284 _c
374 300 343 308 304 308 _c
197 308 _l
197 0 _l
98 0 _l
98 729 _l
321 729 _l
404 729 466 711 507 677 _c
548 642 569 589 569 519 _c
569 473 558 434 537 404 _c
515 374 484 353 444 342 _c
197 648 _m
197 389 _l
321 389 _l
}_e{368 389 404 400 428 422 _c
452 444 465 476 465 519 _c
465 561 452 593 428 615 _c
404 637 368 648 321 648 _c
197 648 _l
_cl}_e}_d
/T{611 0 -2 0 614 729 _sc
-2 729 _m
614 729 _l
614 646 _l
355 646 _l
355 0 _l
256 0 _l
256 646 _l
-2 646 _l
-2 729 _l
_cl}_d
/a{{613 0 60 -13 522 560 _sc
343 275 _m
270 275 220 266 192 250 _c
164 233 150 205 150 165 _c
150 133 160 107 181 89 _c
202 70 231 61 267 61 _c
317 61 357 78 387 114 _c
417 149 432 196 432 255 _c
432 275 _l
343 275 _l
522 312 _m
522 0 _l
432 0 _l
432 83 _l
411 49 385 25 355 10 _c
325 -5 287 -13 243 -13 _c
187 -13 142 2 109 33 _c
76 64 60 106 60 159 _c
}_e{60 220 80 266 122 298 _c
163 329 224 345 306 345 _c
432 345 _l
432 354 _l
432 395 418 427 391 450 _c
364 472 326 484 277 484 _c
245 484 215 480 185 472 _c
155 464 127 453 100 439 _c
100 522 _l
132 534 164 544 195 550 _c
226 556 256 560 286 560 _c
365 560 424 539 463 498 _c
502 457 522 395 522 312 _c
_cl}_e}_d
/c{{550 0 55 -13 488 560 _sc
488 526 _m
488 442 _l
462 456 437 466 411 473 _c
385 480 360 484 334 484 _c
276 484 230 465 198 428 _c
166 391 150 339 150 273 _c
150 206 166 154 198 117 _c
230 80 276 62 334 62 _c
360 62 385 65 411 72 _c
437 79 462 90 488 104 _c
488 21 _l
462 9 436 0 410 -5 _c
383 -10 354 -13 324 -13 _c
242 -13 176 12 128 64 _c
}_e{79 115 55 185 55 273 _c
55 362 79 432 128 483 _c
177 534 244 560 330 560 _c
358 560 385 557 411 551 _c
437 545 463 537 488 526 _c
_cl}_e}_d
/d{{635 0 55 -13 544 760 _sc
454 464 _m
454 760 _l
544 760 _l
544 0 _l
454 0 _l
454 82 _l
435 49 411 25 382 10 _c
353 -5 319 -13 279 -13 _c
213 -13 159 13 117 65 _c
75 117 55 187 55 273 _c
55 359 75 428 117 481 _c
159 533 213 560 279 560 _c
319 560 353 552 382 536 _c
411 520 435 496 454 464 _c
148 273 _m
148 207 161 155 188 117 _c
215 79 253 61 301 61 _c
}_e{348 61 385 79 413 117 _c
440 155 454 207 454 273 _c
454 339 440 390 413 428 _c
385 466 348 485 301 485 _c
253 485 215 466 188 428 _c
161 390 148 339 148 273 _c
_cl}_e}_d
/e{{615 0 55 -13 562 560 _sc
562 296 _m
562 252 _l
149 252 _l
153 190 171 142 205 110 _c
238 78 284 62 344 62 _c
378 62 412 66 444 74 _c
476 82 509 95 541 113 _c
541 28 _l
509 14 476 3 442 -3 _c
408 -9 373 -13 339 -13 _c
251 -13 182 12 131 62 _c
80 112 55 181 55 268 _c
55 357 79 428 127 481 _c
175 533 241 560 323 560 _c
397 560 455 536 498 489 _c
}_e{540 441 562 377 562 296 _c
472 322 _m
471 371 457 410 431 440 _c
404 469 368 484 324 484 _c
274 484 234 469 204 441 _c
174 413 156 373 152 322 _c
472 322 _l
_cl}_e}_d
/h{634 0 91 0 549 760 _sc
549 330 _m
549 0 _l
459 0 _l
459 327 _l
459 379 448 417 428 443 _c
408 469 378 482 338 482 _c
289 482 251 466 223 435 _c
195 404 181 362 181 309 _c
181 0 _l
91 0 _l
91 760 _l
181 760 _l
181 462 _l
202 494 227 519 257 535 _c
286 551 320 560 358 560 _c
420 560 468 540 500 501 _c
532 462 549 405 549 330 _c
_cl}_d
/i{278 0 94 0 184 760 _sc
94 547 _m
184 547 _l
184 0 _l
94 0 _l
94 547 _l
94 760 _m
184 760 _l
184 646 _l
94 646 _l
94 760 _l
_cl}_d
/l{278 0 94 0 184 760 _sc
94 760 _m
184 760 _l
184 0 _l
94 0 _l
94 760 _l
_cl}_d
/n{634 0 91 0 549 560 _sc
549 330 _m
549 0 _l
459 0 _l
459 327 _l
459 379 448 417 428 443 _c
408 469 378 482 338 482 _c
289 482 251 466 223 435 _c
195 404 181 362 181 309 _c
181 0 _l
91 0 _l
91 547 _l
181 547 _l
181 462 _l
202 494 227 519 257 535 _c
286 551 320 560 358 560 _c
420 560 468 540 500 501 _c
532 462 549 405 549 330 _c
_cl}_d
/o{612 0 55 -13 557 560 _sc
306 484 _m
258 484 220 465 192 427 _c
164 389 150 338 150 273 _c
150 207 163 156 191 118 _c
219 80 257 62 306 62 _c
354 62 392 80 420 118 _c
448 156 462 207 462 273 _c
462 337 448 389 420 427 _c
392 465 354 484 306 484 _c
306 560 _m
384 560 445 534 490 484 _c
534 433 557 363 557 273 _c
557 183 534 113 490 63 _c
445 12 384 -13 306 -13 _c
227 -13 165 12 121 63 _c
77 113 55 183 55 273 _c
55 363 77 433 121 484 _c
165 534 227 560 306 560 _c
_cl}_d
/r{411 0 91 0 411 560 _sc
411 463 _m
401 469 390 473 378 476 _c
366 478 353 480 339 480 _c
288 480 249 463 222 430 _c
194 397 181 350 181 288 _c
181 0 _l
91 0 _l
91 547 _l
181 547 _l
181 462 _l
199 495 224 520 254 536 _c
284 552 321 560 365 560 _c
371 560 378 559 386 559 _c
393 558 401 557 411 555 _c
411 463 _l
_cl}_d
/s{{521 0 54 -13 472 560 _sc
443 531 _m
443 446 _l
417 458 391 468 364 475 _c
336 481 308 485 279 485 _c
234 485 200 478 178 464 _c
156 450 145 430 145 403 _c
145 382 153 366 169 354 _c
185 342 217 330 265 320 _c
296 313 _l
360 299 405 279 432 255 _c
458 230 472 195 472 151 _c
472 100 452 60 412 31 _c
372 1 316 -13 246 -13 _c
216 -13 186 -10 154 -5 _c
}_e{122 0 89 8 54 20 _c
54 113 _l
87 95 120 82 152 74 _c
184 65 216 61 248 61 _c
290 61 323 68 346 82 _c
368 96 380 117 380 144 _c
380 168 371 187 355 200 _c
339 213 303 226 247 238 _c
216 245 _l
160 257 119 275 95 299 _c
70 323 58 356 58 399 _c
58 450 76 490 112 518 _c
148 546 200 560 268 560 _c
301 560 332 557 362 552 _c
391 547 418 540 443 531 _c
}_e{_cl}_e}_d
/t{392 0 27 0 368 702 _sc
183 702 _m
183 547 _l
368 547 _l
368 477 _l
183 477 _l
183 180 _l
183 135 189 106 201 94 _c
213 81 238 75 276 75 _c
368 75 _l
368 0 _l
276 0 _l
206 0 158 13 132 39 _c
106 65 93 112 93 180 _c
93 477 _l
27 477 _l
27 547 _l
93 547 _l
93 702 _l
183 702 _l
_cl}_d
/v{592 0 30 0 562 547 _sc
30 547 _m
125 547 _l
296 88 _l
467 547 _l
562 547 _l
357 0 _l
235 0 _l
30 547 _l
_cl}_d
end readonly def

/BuildGlyph
 {exch begin
 CharStrings exch
 2 copy known not{pop /.notdef}if
 true 3 1 roll get exec
 end}_d

/BuildChar {
 1 index /Encoding get exch get
 1 index /BuildGlyph get exec
}_d

FontName currentdict end definefont pop
end
%%EndProlog
mpldict begin
90 252 translate
432 288 0 0 clipbox
gsave
0 0 m
432 0 l
432 288 l
0 288 l
cl
1.000 setgray
fill
grestore
gsave
54 36 m
388.8 36 l
388.8 253.44 l
54 253.44 l
cl
1.000 setgray
fill
grestore
0.800 setlinewidth
1 setlinejoin
0 setlinecap
[] 0 setdash
0.000 setgray
gsave
/o {
gsave
newpath
translate
0.8 setlinewidth
1 setlinejoin
0 setlinecap
0 0 m
0 -3.5 l

gsave
0.000 setgray
fill
grestore
stroke
grestore
} bind def
69.1501 36 o
grestore
/DejaVuSans findfont
10.000 scalefont
setfont
gsave
61.197005 21.406250 translate
0.000000 rotate
0.000000 0.000000 m /zero glyphshow
6.362305 0.000000 m /period glyphshow
9.541016 0.000000 m /zero glyphshow
grestore
gsave
/o {
gsave
newpath
translate
0.8 setlinewidth
1 setlinejoin
0 setlinecap
0 0 m
0 -3.5 l

gsave
0.000 setgray
fill
grestore
stroke
grestore
} bind def
130.037 36 o
grestore
gsave
122.084175 21.406250 translate
0.000000 rotate
0.000000 0.000000 m /zero glyphshow
6.362305 0.000000 m /period glyphshow
9.541016 0.000000 m /two glyphshow
grestore
gsave
/o {
gsave
newpath
translate
0.8 setlinewidth
1 setlinejoin
0 setlinecap
0 0 m
0 -3.5 l

gsave
0.000 setgray
fill
grestore
stroke
grestore
} bind def
190.924 36 o
grestore
gsave
182.971345 21.406250 translate
0.000000 rotate
0.000000 0.000000 m /zero glyphshow
6.362305 0.000000 m /period glyphshow
9.541016 0.000000 m /four glyphshow
grestore
gsave
/o {
gsave
newpath
translate
0.8 setlinewidth
1 setlinejoin
0 setlinecap
0 0 m
0 -3.5 l

gsave
0.000 setgray
fill
grestore
stroke
grestore
} bind def
251.812 36 o
grestore
gsave
243.858515 21.406250 translate
0.000000 rotate
0.000000 0.000000 m /zero glyphshow
6.362305 0.000000 m /period glyphshow
9.541016 0.000000 m /six glyphshow
grestore
gsave
/o {
gsave
newpath
translate
0.8 setlinewidth
1 setlinejoin
0 setlinecap
0 0 m
0 -3.5 l

gsave
0.000 setgray
fill
grestore
stroke
grestore
} bind def
312.699 36 o
grestore
gsave
304.745686 21.406250 translate
0.000000 rotate
0.000000 0.000000 m /zero glyphshow
6.362305 0.000000 m /period glyphshow
9.541016 0.000000 m /eight glyphshow
grestore
gsave
/o {
gsave
newpath
translate
0.8 setlinewidth
1 setlinejoin
0 setlinecap
0 0 m
0 -3.5 l

gsave
0.000 setgray
fill
grestore
stroke
grestore
} bind def
373.586 36 o
grestore
gsave
365.632856 21.406250 translate
0.000000 rotate
0.000000 0.000000 m /one glyphshow
6.362305 0.000000 m /period glyphshow
9.541016 0.000000 m /zero glyphshow
grestore
gsave
196.634375 7.734375 translate
0.000000 rotate
0.000000 0.000000 m /T glyphshow
6.108398 0.000000 m /h glyphshow
12.446289 0.000000 m /r glyphshow
16.557617 0.000000 m /e glyphshow
22.709961 0.000000 m /s glyphshow
27.919922 0.000000 m /h glyphshow
34.257812 0.000000 m /o glyphshow
40.375977 0.000000 m /l glyphshow
43.154297 0.000000 m /d glyphshow
grestore
gsave
/o {
gsave
newpath
translate
0.8 setlinewidth
1 setlinejoin
0 setlinecap
0 0 m
-3.5 0 l

gsave
0.000 setgray
fill
grestore
stroke
grestore
} bind def
54 36 o
grestore
gsave
31.093750 32.203125 translate
0.000000 rotate
0.000000 0.000000 m /zero glyphshow
6.362305 0.000000 m /period glyphshow
9.541016 0.000000 m /zero glyphshow
grestore
gsave
/o {
gsave
newpath
translate
0.8 setlinewidth
1 setlinejoin
0 setlinecap
0 0 m
-3.5 0 l

gsave
0.000 setgray
fill
grestore
stroke
grestore
} bind def
54 79.488 o
grestore
gsave
31.093750 75.691125 translate
0.000000 rotate
0.000000 0.000000 m /zero glyphshow
6.362305 0.000000 m /period glyphshow
9.541016 0.000000 m /two glyphshow
grestore
gsave
/o {
gsave
newpath
translate
0.8 setlinewidth
1 setlinejoin
0 setlinecap
0 0 m
-3.5 0 l

gsave
0.000 setgray
fill
grestore
stroke
grestore
} bind def
54 122.976 o
grestore
gsave
31.093750 119.179125 translate
0.000000 rotate
0.000000 0.000000 m /zero glyphshow
6.362305 0.000000 m /period glyphshow
9.541016 0.000000 m /four glyphshow
grestore
gsave
/o {
gsave
newpath
translate
0.8 setlinewidth
1 setlinejoin
0 setlinecap
0 0 m
-3.5 0 l

gsave
0.000 setgray
fill
grestore
stroke
grestore
} bind def
54 166.464 o
grestore
gsave
31.093750 162.667125 translate
0.000000 rotate
0.000000 0.000000 m /zero glyphshow
6.362305 0.000000 m /period glyphshow
9.541016 0.000000 m /six glyphshow
grestore
gsave
/o {
gsave
newpath
translate
0.8 setlinewidth
1 setlinejoin
0 setlinecap
0 0 m
-3.5 0 l

gsave
0.000 setgray
fill
grestore
stroke
grestore
} bind def
54 209.952 o
grestore
gsave
31.093750 206.155125 translate
0.000000 rotate
0.000000 0.000000 m /zero glyphshow
6.362305 0.000000 m /period glyphshow
9.541016 0.000000 m /eight glyphshow
grestore
gsave
/o {
gsave
newpath
translate
0.8 setlinewidth
1 setlinejoin
0 setlinecap
0 0 m
-3.5 0 l

gsave
0.000 setgray
fill
grestore
stroke
grestore
} bind def
54 253.44 o
grestore
gsave
31.093750 249.643125 translate
0.000000 rotate
0.000000 0.000000 m /one glyphshow
6.362305 0.000000 m /period glyphshow
9.541016 0.000000 m /zero glyphshow
grestore
gsave
25.015625 94.618437 translate
90.000000 rotate
0.000000 0.000000 m /P glyphshow
6.030273 0.000000 m /r glyphshow
10.141602 0.000000 m /e glyphshow
16.293945 0.000000 m /c glyphshow
21.791992 0.000000 m /i glyphshow
24.570312 0.000000 m /s glyphshow
29.780273 0.000000 m /i glyphshow
32.558594 0.000000 m /o glyphshow
38.676758 0.000000 m /n glyphshow
45.014648 0.000000 m /comma glyphshow
48.193359 0.000000 m /space glyphshow
51.372070 0.000000 m /R glyphshow
58.320312 0.000000 m /e glyphshow
64.472656 0.000000 m /c glyphshow
69.970703 0.000000 m /a glyphshow
76.098633 0.000000 m /l glyphshow
78.876953 0.000000 m /l glyphshow
81.655273 0.000000 m /comma glyphshow
84.833984 0.000000 m /space glyphshow
88.012695 0.000000 m /F glyphshow
93.764648 0.000000 m /one glyphshow
grestore
1.500 setlinewidth
[5.55 2.4] 0 setdash
0.000 0.000 1.000 setrgbcolor
gsave
334.8 217.4 54 36 clipbox
69.218182 251.071451 m
70.638574 251.177618 l
70.67915 251.248716 l
77.268475 251.639404 l
77.312181 251.675123 l
78.330243 251.781804 l
78.39707 251.817582 l
81.133283 251.96008 l
89.436362 252.066543 l
89.839912 252.102241 l
89.972752 252.138181 l
95.010046 252.353162 l
97.088786 252.461194 l
98.190559 252.497131 l
102.668444 252.60481 l
105.167668 252.749484 l
111.202405 252.857246 l
111.266456 252.893577 l
115.458021 252.965559 l
151.58261 253.068625 l
156.750978 253.141984 l
193.48718 253.210229 l
193.576685 253.24849 l
201.705691 253.324135 l
202.046852 253.362729 l
373.581818 253.44 l
373.581818 253.44 l
stroke
grestore
1.000 0.000 0.000 setrgbcolor
gsave
334.8 217.4 54 36 clipbox
69.218182 253.44 m
70.67915 253.403718 l
76.808947 253.294871 l
77.684829 253.222306 l
80.311572 253.077177 l
84.45313 252.96833 l
84.668716 252.932047 l
91.374892 252.8232 l
110.859832 252.061271 l
112.141245 252.024989 l
114.44691 251.916142 l
115.31308 251.734731 l
115.458021 251.698448 l
117.60023 251.480754 l
117.761355 251.444472 l
127.301538 250.863955 l
127.333326 250.827672 l
133.962286 250.17459 l
136.84908 250.029461 l
136.919799 249.993179 l
141.573665 249.521508 l
141.587443 249.485226 l
144.089687 249.23125 l
144.112286 249.194967 l
145.766414 249.013556 l
145.76704 248.977273 l
147.079508 248.868426 l
153.286689 247.779957 l
153.35255 247.707392 l
156.750978 247.489698 l
160.09418 247.018028 l
162.355699 246.836616 l
162.650887 246.727769 l
165.329453 246.401228 l
165.620063 246.328663 l
167.036116 246.147252 l
167.258826 246.074687 l
168.771216 245.929558 l
169.009275 245.856993 l
170.405746 245.711864 l
170.515378 245.639299 l
178.648796 244.4057 l
178.690556 244.369418 l
180.012556 244.188006 l
181.231873 243.93403 l
182.643913 243.752618 l
184.766825 243.135818 l
184.880138 243.026971 l
185.869345 242.84556 l
186.024285 242.772995 l
186.939125 242.627866 l
186.947037 242.591584 l
187.660328 242.482737 l
189.326538 242.301325 l
189.953733 242.22876 l
195.234877 241.466831 l
195.261557 241.430549 l
195.568321 241.28542 l
195.88207 241.249137 l
197.015717 240.886314 l
197.230825 240.777467 l
200.594414 240.378361 l
200.601741 240.342079 l
203.16272 239.870409 l
203.566974 239.688997 l
204.999962 239.507586 l
205.503132 239.398739 l
206.139834 239.253609 l
206.45652 239.072198 l
208.034576 238.854504 l
209.541131 238.527963 l
210.94909 238.346551 l
210.999491 238.273986 l
212.133997 238.02001 l
212.462687 237.911163 l
215.553658 237.475775 l
216.767243 237.149234 l
217.403143 237.004105 l
217.663908 236.895258 l
219.476513 236.532435 l
219.490404 236.496152 l
220.388495 236.278458 l
220.523003 236.133329 l
221.64972 235.734223 l
222.112899 235.443965 l
223.092902 235.262553 l
227.926034 233.956389 l
228.748639 233.629848 l
229.107958 233.448437 l
229.188489 233.375872 l
229.914316 233.121896 l
229.963709 233.085613 l
230.554536 232.940484 l
230.641586 232.831637 l
231.336625 232.650225 l
231.535225 232.577661 l
237.287533 231.126367 l
237.483387 231.01752 l
238.04443 230.872391 l
238.53292 230.582132 l
238.934752 230.400721 l
239.314801 230.219309 l
240.732257 229.856486 l
240.761093 229.820204 l
241.455212 229.60251 l
241.605215 229.493663 l
242.625925 229.275969 l
243.215889 229.130839 l
243.32747 229.058275 l
243.734357 228.913145 l
247.061829 227.89724 l
248.322285 227.244158 l
248.698781 227.099029 l
248.705761 227.062747 l
253.004541 225.684018 l
253.690922 225.176065 l
254.759392 224.77696 l
256.934825 223.942466 l
257.083378 223.833619 l
257.360308 223.652208 l
257.378653 223.615925 l
257.66178 223.470796 l
257.738546 223.361949 l
258.341506 223.180537 l
259.375364 222.853996 l
259.444799 222.745149 l
259.919531 222.563738 l
260.499069 222.382326 l
261.413806 222.092067 l
261.481573 221.98322 l
261.945533 221.801809 l
262.061701 221.656679 l
263.68204 221.402703 l
264.171449 221.076162 l
264.214559 221.003598 l
264.917811 220.749621 l
264.923669 220.713339 l
265.583437 220.42308 l
266.106919 220.060257 l
267.880501 219.189481 l
268.037191 219.116916 l
269.063987 218.717811 l
269.174173 218.608964 l
269.678432 218.427552 l
269.738168 218.24614 l
270.411319 217.955882 l
270.560659 217.883317 l
271.275454 217.556776 l
271.28661 217.520494 l
271.64011 217.339082 l
272.045672 217.048824 l
272.414469 216.939977 l
272.914182 216.794847 l
273.088772 216.686 l
273.517859 216.504589 l
273.547388 216.395742 l
273.81321 216.21433 l
273.833025 216.105483 l
275.717561 215.524966 l
275.908936 215.452401 l
276.878325 215.234707 l
277.240124 215.089578 l
277.65928 214.944449 l
278.151391 214.799319 l
278.302828 214.690472 l
278.712904 214.509061 l
278.748299 214.472778 l
279.094487 214.327649 l
280.733862 213.674567 l
280.922343 213.529438 l
281.179592 213.239179 l
281.927281 213.021485 l
281.939576 212.985203 l
282.443964 212.767509 l
282.831578 212.513532 l
283.119826 212.368403 l
283.119849 212.332121 l
283.447373 212.150709 l
283.492519 212.114427 l
284.014315 211.933015 l
284.947299 211.570192 l
285.215832 211.38878 l
286.881401 210.699416 l
287.424244 210.554287 l
288.017743 210.118899 l
288.617452 209.574664 l
289.2119 209.393252 l
289.906644 209.102993 l
290.21635 208.812735 l
290.876319 208.522476 l
291.402367 208.232218 l
291.859484 208.050806 l
291.951413 207.941959 l
292.41654 207.760547 l
292.821161 207.579136 l
293.332507 206.962336 l
293.409827 206.853489 l
293.889438 206.56323 l
293.993416 206.418101 l
294.276865 206.272972 l
294.311896 205.801302 l
294.983789 205.438478 l
296.605822 204.350008 l
296.620179 204.313726 l
297.149931 204.05975 l
297.854191 203.551797 l
298.364401 203.261538 l
298.547175 203.007562 l
298.928469 202.608457 l
299.250091 202.463327 l
299.408031 202.318198 l
300.369369 201.810245 l
301.769644 201.084599 l
302.018303 200.830622 l
303.575817 200.104976 l
303.592447 199.996129 l
303.733122 199.850999 l
303.803142 199.778435 l
304.260959 199.597023 l
304.518065 199.2342 l
304.940036 199.052788 l
305.158447 198.76253 l
305.412052 198.581118 l
305.555821 198.399706 l
306.087196 197.928036 l
306.447977 197.67406 l
306.763141 197.347519 l
307.001769 197.166107 l
307.332551 197.020978 l
307.428613 196.875848 l
307.59696 196.658155 l
307.619406 196.621872 l
308.427689 196.404178 l
308.588491 196.186484 l
309.177238 195.932508 l
309.277303 195.751096 l
309.737771 195.460838 l
309.868936 195.351991 l
310.089112 195.170579 l
310.467974 194.844038 l
310.59064 194.771473 l
311.308711 194.009544 l
311.648383 193.755568 l
311.828855 193.574157 l
312.100168 193.356463 l
312.396138 192.993639 l
313.043086 192.739663 l
313.161114 192.594534 l
313.414798 192.413122 l
313.517411 192.340557 l
314.625215 191.252087 l
314.722275 191.034393 l
315.030616 190.816699 l
315.442345 190.526441 l
315.730319 190.1999 l
315.839969 189.982206 l
315.950235 189.873359 l
316.235115 189.72823 l
316.385769 189.5831 l
317.079633 188.893736 l
317.554338 188.567195 l
317.841502 188.313219 l
318.653727 187.515008 l
318.794111 187.261031 l
318.941582 187.115902 l
319.077875 186.861926 l
319.916105 186.317691 l
320.208262 185.882303 l
320.386049 185.700891 l
320.589823 185.519479 l
321.220798 184.648703 l
321.283132 184.503574 l
321.407179 184.358445 l
321.566536 184.177033 l
321.828488 183.959339 l
322.010303 183.850492 l
323.008131 182.762022 l
323.087334 182.653175 l
323.638428 182.326634 l
323.953415 182.072658 l
324.077427 181.891246 l
325.695647 179.714307 l
325.698033 179.678024 l
326.079017 179.496613 l
327.029306 178.263014 l
327.154292 178.081602 l
327.272124 177.90019 l
327.445813 177.682496 l
327.665913 177.392238 l
327.951518 177.174544 l
328.138855 176.95685 l
328.359975 176.630309 l
328.437633 176.485179 l
328.605857 176.231203 l
328.763131 175.940944 l
329.570455 175.106451 l
329.99353 174.925039 l
330.244194 174.417087 l
331.056124 173.546311 l
331.343611 172.965793 l
331.622647 172.784382 l
331.692136 172.711817 l
331.834968 172.566688 l
332.29037 172.1313 l
332.460827 171.949888 l
332.63581 171.768477 l
332.726739 171.587065 l
332.956977 171.369371 l
333.09953 171.115395 l
333.144781 170.861418 l
333.340583 170.716289 l
333.760112 170.317183 l
334.125313 169.990642 l
334.209859 169.845513 l
334.450848 169.518972 l
334.580298 169.264996 l
334.668031 169.119867 l
335.506635 167.995114 l
335.640265 167.813703 l
335.84202 167.523444 l
336.170281 167.160621 l
336.684105 166.362409 l
336.934838 166.144716 l
337.018743 166.035869 l
337.242165 165.818175 l
337.633373 165.237657 l
338.045779 164.838552 l
338.148992 164.729705 l
340.295845 161.645707 l
340.494138 161.39173 l
340.896732 160.520954 l
341.052782 160.339543 l
341.171243 159.97672 l
341.24148 159.795308 l
341.369103 159.613896 l
342.494215 157.436956 l
342.744553 157.219262 l
342.908604 156.929004 l
343.096166 156.747592 l
343.200654 156.602463 l
343.327342 156.457334 l
343.758977 155.840534 l
343.856633 155.695405 l
344.415498 154.824629 l
344.510395 154.752064 l
344.746717 154.425523 l
344.917752 154.098982 l
345.038969 153.845006 l
345.766729 152.284866 l
345.909304 152.139736 l
347.51571 148.838044 l
347.61996 148.547786 l
348.03586 147.785857 l
348.139237 147.386751 l
348.244359 147.20534 l
348.374493 147.023928 l
348.574828 146.624822 l
348.770262 146.189434 l
348.858535 146.044305 l
348.975316 145.645199 l
349.144716 145.427505 l
349.238351 145.246094 l
349.375388 145.0284 l
349.631433 144.447883 l
349.882018 144.012495 l
350.091973 143.540824 l
350.824423 142.125813 l
351.258584 141.436449 l
351.449555 140.964779 l
351.574139 140.710803 l
351.77586 140.275415 l
351.880307 139.912591 l
353.208097 137.155134 l
353.298314 136.973723 l
353.400204 136.792311 l
353.499701 136.610899 l
353.677831 135.9941 l
353.877577 135.667559 l
354.556398 133.853442 l
354.714877 133.490619 l
354.832725 133.018949 l
355.016012 132.692408 l
355.1476 132.474714 l
355.279173 132.148173 l
355.860366 130.987138 l
356.132861 129.971233 l
358.222121 124.31119 l
358.716901 122.75105 l
358.806529 122.60592 l
358.917153 122.388226 l
359.023106 122.13425 l
359.364994 120.719239 l
360.876428 114.950349 l
360.940834 114.768937 l
361.230986 113.535338 l
361.314276 113.208797 l
361.996382 110.124799 l
362.06758 109.943387 l
364.315381 100.074594 l
364.443627 99.566641 l
364.554322 99.058688 l
364.649035 98.732148 l
364.752552 98.478171 l
365.189964 96.301231 l
365.49738 94.886221 l
365.673976 94.015445 l
365.873457 93.072104 l
365.973647 92.781845 l
366.079577 92.201328 l
366.181012 91.657093 l
366.313741 91.040294 l
366.440288 90.242082 l
366.573209 89.589001 l
366.686198 89.153613 l
366.857893 88.355401 l
366.936865 88.101425 l
367.234528 86.432438 l
367.321398 85.960768 l
367.47174 85.307686 l
367.530988 85.089992 l
367.661268 84.255498 l
368.301162 80.663547 l
369.026853 75.729151 l
369.086775 75.40261 l
369.277591 73.84247 l
369.34456 73.588493 l
369.852409 69.706284 l
369.948595 69.343461 l
370.062795 68.799226 l
370.139406 68.581532 l
373.121487 40.934397 l
373.543197 36.290259 l
373.581818 36.036282 l
373.581818 36.036282 l
stroke
grestore
0.750 0.750 0.000 setrgbcolor
gsave
334.8 217.4 54 36 clipbox
69.218182 252.24924 m
70.651846 252.302894 l
70.67915 252.32085 l
82.405752 252.499015 l
88.503403 252.462335 l
98.190559 252.551305 l
103.399366 252.550563 l
105.167668 252.568497 l
118.833517 252.16544 l
118.865665 252.147123 l
127.333326 251.908476 l
135.879625 251.540642 l
141.493591 251.282059 l
142.191034 251.226638 l
148.943839 250.800364 l
150.66393 250.614674 l
161.144478 250.035311 l
163.089716 249.885675 l
164.898778 249.791431 l
168.771216 249.510028 l
169.009275 249.472454 l
171.097944 249.322028 l
177.254139 248.869523 l
177.288695 248.850628 l
178.648796 248.718276 l
178.690556 248.699356 l
180.578983 248.528929 l
180.589768 248.509976 l
184.468354 248.149263 l
185.470557 247.958944 l
186.947037 247.768299 l
187.660328 247.711042 l
190.366286 247.539094 l
191.745308 247.443453 l
194.609064 247.289203 l
198.926258 246.748963 l
201.481033 246.556146 l
206.176981 246.05199 l
206.45652 245.97441 l
208.407535 245.799658 l
209.541131 245.683006 l
211.637837 245.506429 l
211.753702 245.467451 l
215.835801 245.076923 l
215.912911 245.018227 l
217.663908 244.822354 l
220.286712 244.508248 l
222.108274 244.05519 l
222.112899 244.03545 l
223.89304 243.837868 l
225.710706 243.620129 l
227.091469 243.421822 l
227.328986 243.362262 l
229.08321 242.9644 l
229.188489 242.9046 l
230.560055 242.645106 l
230.641586 242.605132 l
231.943095 242.405049 l
234.036946 242.124342 l
235.026899 241.963629 l
235.302681 241.923415 l
236.791746 241.762419 l
240.077646 241.035126 l
240.990573 240.893171 l
243.215889 240.547693 l
243.32747 240.50698 l
243.921408 240.364372 l
245.360832 240.16034 l
247.193831 239.79217 l
250.533537 239.072911 l
252.682596 238.701259 l
254.869109 238.058392 l
255.394316 237.912736 l
256.948072 237.579121 l
257.378653 237.411955 l
258.111892 237.223607 l
258.541238 237.118838 l
259.433788 236.930016 l
259.444799 236.909017 l
260.675717 236.677779 l
262.056495 236.298402 l
262.061701 236.277289 l
263.772629 236.065954 l
265.583437 235.557194 l
266.305672 235.259398 l
267.252481 235.067559 l
267.33665 235.003544 l
267.831032 234.854038 l
268.160582 234.768522 l
268.846316 234.597302 l
270.411319 234.103661 l
270.560659 234.060638 l
271.512669 233.780608 l
271.514461 233.759039 l
272.045672 233.564749 l
272.414469 233.499914 l
273.088772 233.348496 l
273.547388 233.175211 l
273.827094 233.023378 l
273.833025 233.001672 l
278.125926 232.239451 l
278.302828 232.152029 l
279.094487 231.933193 l
280.922343 231.450339 l
281.430478 231.230214 l
282.484257 230.96553 l
282.579152 230.921359 l
282.831578 230.832968 l
283.405725 230.678128 l
283.492519 230.589558 l
284.28138 230.412221 l
284.980839 230.234623 l
285.068513 230.167956 l
285.614181 229.989997 l
285.638247 229.967734 l
286.647815 229.811775 l
286.678498 229.744873 l
287.562232 229.543946 l
288.150552 229.275521 l
289.2119 228.916692 l
289.969966 228.691881 l
290.031494 228.624357 l
290.855404 228.399003 l
291.013465 228.331315 l
291.870139 228.060184 l
291.951413 228.014937 l
292.73204 227.829003 l
293.198419 227.602128 l
293.993416 227.078705 l
294.276865 226.987445 l
294.311896 226.690378 l
295.377225 226.323761 l
296.597341 225.794817 l
296.620179 225.748713 l
297.197632 225.541034 l
298.783259 224.776521 l
298.884912 224.706784 l
299.642428 224.310857 l
300.369369 224.147458 l
301.859277 223.609047 l
301.923077 223.538647 l
303.577376 223.021147 l
303.746771 222.856033 l
305.412052 222.050915 l
305.555821 221.932074 l
306.193371 221.551019 l
306.628485 221.360054 l
307.001769 221.120935 l
307.36556 220.977244 l
307.619406 220.761397 l
308.446069 220.56922 l
308.731194 220.424893 l
309.186387 220.2804 l
309.41494 220.111614 l
309.757181 219.966758 l
309.868936 219.918436 l
310.317644 219.724961 l
310.808266 219.288549 l
311.394541 218.996764 l
311.421613 218.948068 l
311.813564 218.753093 l
312.021673 218.606663 l
312.288454 218.41116 l
313.809004 217.724503 l
316.130551 216.190677 l
316.416571 215.991409 l
316.556249 215.891658 l
316.860417 215.691922 l
317.079633 215.541914 l
317.683413 215.241369 l
317.841502 215.14103 l
318.757127 214.486902 l
318.794111 214.41121 l
318.981436 214.259693 l
319.987764 213.677213 l
320.104886 213.575642 l
320.754618 213.066582 l
320.942487 212.887935 l
321.16717 212.734612 l
321.283132 212.478667 l
321.424887 212.350505 l
321.566536 212.247883 l
321.850075 212.068099 l
322.058813 211.965253 l
322.481552 211.733551 l
322.940598 211.372299 l
323.03307 211.191295 l
324.192143 210.516779 l
324.310144 210.360624 l
324.565184 210.178205 l
324.6982 210.021643 l
325.357985 209.393511 l
325.928651 208.94675 l
326.22764 208.709611 l
326.325728 208.551279 l
326.575557 208.41919 l
326.812807 208.101633 l
327.154292 207.862961 l
327.272124 207.730178 l
327.462646 207.544056 l
328.355886 206.823684 l
328.498931 206.609483 l
328.674721 206.368091 l
328.921833 206.09936 l
329.430598 205.776161 l
329.570455 205.668253 l
330.004958 205.506225 l
330.322227 205.073183 l
330.610507 204.828975 l
330.712369 204.747473 l
331.156194 204.257408 l
331.236076 204.120958 l
331.888032 203.71077 l
331.905834 203.655983 l
332.275246 203.491487 l
332.460827 203.299318 l
332.638021 203.134383 l
333.09953 202.665959 l
333.144781 202.472601 l
333.427566 202.306645 l
334.040826 201.890854 l
334.255973 201.668571 l
334.529167 201.334459 l
335.020711 200.747761 l
335.158693 200.551627 l
335.312141 200.439423 l
335.60721 200.214735 l
335.74055 199.961514 l
336.130993 199.707818 l
336.477338 199.198999 l
337.018743 198.74511 l
337.259715 198.546056 l
337.48352 198.261188 l
338.030395 197.832767 l
338.430756 197.31688 l
338.940431 196.856675 l
338.987274 196.683699 l
339.178859 196.510504 l
339.27324 196.279237 l
339.499931 196.04758 l
339.625947 195.902595 l
339.993025 195.612167 l
340.352567 195.233692 l
340.552358 194.941849 l
340.767918 194.532228 l
341.03336 194.268257 l
341.171243 193.915511 l
341.245349 193.738801 l
342.695331 191.690301 l
342.865798 191.480789 l
342.994163 191.390902 l
343.191968 191.18094 l
343.327342 191.030774 l
343.960789 190.307727 l
344.08653 190.096134 l
344.412186 189.702328 l
344.510395 189.611293 l
344.746717 189.337833 l
344.917752 189.063841 l
345.058713 188.819844 l
345.212097 188.544842 l
345.484819 188.177338 l
345.61964 187.870353 l
345.928326 187.377787 l
346.1392 187.223509 l
347.823861 183.91283 l
347.891971 183.786385 l
348.03586 183.659828 l
348.139237 183.311221 l
348.248706 183.120715 l
348.770262 182.260306 l
348.863398 182.100406 l
348.975316 181.780073 l
349.144716 181.587532 l
349.238351 181.426886 l
349.375388 181.233874 l
349.631433 180.717916 l
349.882018 180.329739 l
350.091973 179.908041 l
350.955207 178.438815 l
351.104793 178.307499 l
351.780014 176.888365 l
352.201589 175.923477 l
352.313553 175.756476 l
353.669355 173.024475 l
353.852255 172.717794 l
353.944356 172.410481 l
354.049888 171.999743 l
354.353227 171.519118 l
354.461539 171.209327 l
354.604592 170.829823 l
354.919351 169.998467 l
355.125085 169.720324 l
355.243188 169.406797 l
355.480995 169.02271 l
355.688236 168.602589 l
355.78213 168.462288 l
355.854945 168.251593 l
356.111706 167.299821 l
356.557545 166.057095 l
356.677331 165.914421 l
356.869185 165.557151 l
357.015243 164.983775 l
357.141518 164.768203 l
357.349461 164.155763 l
357.800315 162.814298 l
357.85751 162.632118 l
358.065877 162.157441 l
358.214296 161.6813 l
358.510774 160.724598 l
358.56912 160.50298 l
359.141591 158.868047 l
359.721649 156.307177 l
360.507438 153.35614 l
360.876428 151.840235 l
360.932248 151.683939 l
362.582555 143.668972 l
362.717165 142.927837 l
363.650052 139.086768 l
363.780161 138.1124 l
363.873509 137.644373 l
364.021181 136.661503 l
364.6226 133.415823 l
364.767865 132.978296 l
365.08912 130.950974 l
365.157814 130.729146 l
365.249981 129.972761 l
365.516067 128.539813 l
365.587949 128.134624 l
365.801692 126.640687 l
365.912014 126.276557 l
365.990014 125.865989 l
366.254609 124.121639 l
366.545023 122.173037 l
366.62954 121.659065 l
367.061805 119.351022 l
367.249582 117.82719 l
367.55048 115.903721 l
367.624811 115.371087 l
370.332286 89.684177 l
370.471338 87.553652 l
372.175386 62.507101 l
372.320535 59.801792 l
372.357581 59.282426 l
372.579148 56.006418 l
372.665907 54.814253 l
372.780558 52.543589 l
373.172258 44.536823 l
373.430846 38.883342 l
373.508668 37.518537 l
373.581818 36.072553 l
373.581818 36.072553 l
stroke
grestore
1.000 setlinewidth
[] 0 setdash
1.000 0.000 0.000 setrgbcolor
gsave
334.8 217.4 54 36 clipbox
/o {
gsave
newpath
translate
1.0 setlinewidth
1 setlinejoin
0 setlinecap
0 -3 m
0.795609 -3 1.55874 -2.683901 2.12132 -2.12132 c
2.683901 -1.55874 3 -0.795609 3 0 c
3 0.795609 2.683901 1.55874 2.12132 2.12132 c
1.55874 2.683901 0.795609 3 0 3 c
-0.795609 3 -1.55874 2.683901 -2.12132 2.12132 c
-2.683901 1.55874 -3 0.795609 -3 0 c
-3 -0.795609 -2.683901 -1.55874 -2.12132 -2.12132 c
-1.55874 -2.683901 -0.795609 -3 0 -3 c
cl

gsave
1.000 0.000 0.000 setrgbcolor
fill
grestore
stroke
grestore
} bind def
99.3775 252.515 o
99.7643 252.533 o
grestore
0.800 setlinewidth
0 setlinejoin
2 setlinecap
[] 0 setdash
0.000 setgray
gsave
54 36 m
54 253.44 l
stroke
grestore
gsave
388.8 36 m
388.8 253.44 l
stroke
grestore
gsave
54 36 m
388.8 36 l
stroke
grestore
gsave
54 253.44 m
388.8 253.44 l
stroke
grestore
/DejaVuSans findfont
12.000 scalefont
setfont
gsave
106.017188 259.440000 translate
0.000000 rotate
0.000000 0.000000 m /P glyphshow
7.236328 0.000000 m /r glyphshow
12.169922 0.000000 m /e glyphshow
19.552734 0.000000 m /c glyphshow
26.150391 0.000000 m /i glyphshow
29.484375 0.000000 m /s glyphshow
35.736328 0.000000 m /i glyphshow
39.070312 0.000000 m /o glyphshow
46.412109 0.000000 m /n glyphshow
54.017578 0.000000 m /hyphen glyphshow
58.347656 0.000000 m /R glyphshow
66.685547 0.000000 m /e glyphshow
74.068359 0.000000 m /c glyphshow
80.666016 0.000000 m /a glyphshow
88.019531 0.000000 m /l glyphshow
91.353516 0.000000 m /l glyphshow
94.687500 0.000000 m /hyphen glyphshow
99.017578 0.000000 m /F glyphshow
105.919922 0.000000 m /one glyphshow
113.554688 0.000000 m /space glyphshow
117.369141 0.000000 m /v glyphshow
124.470703 0.000000 m /s glyphshow
130.722656 0.000000 m /space glyphshow
134.537109 0.000000 m /T glyphshow
141.867188 0.000000 m /h glyphshow
149.472656 0.000000 m /r glyphshow
154.406250 0.000000 m /e glyphshow
161.789062 0.000000 m /s glyphshow
168.041016 0.000000 m /h glyphshow
175.646484 0.000000 m /o glyphshow
182.988281 0.000000 m /l glyphshow
186.322266 0.000000 m /d glyphshow
193.939453 0.000000 m /space glyphshow
197.753906 0.000000 m /C glyphshow
206.132812 0.000000 m /h glyphshow
213.738281 0.000000 m /a glyphshow
221.091797 0.000000 m /r glyphshow
226.025391 0.000000 m /t glyphshow
grestore
1.000 setlinewidth
0 setlinecap
0.800 setgray
gsave
61 41 m
138.046875 41 l
139.380208 41 140.046875 41.666667 140.046875 43 c
140.046875 86.015625 l
140.046875 87.348958 139.380208 88.015625 138.046875 88.015625 c
61 88.015625 l
59.666667 88.015625 59 87.348958 59 86.015625 c
59 43 l
59 41.666667 59.666667 41 61 41 c
cl
gsave
1.000 setgray
fill
grestore
stroke
grestore
1.500 setlinewidth
1 setlinejoin
[5.55 2.4] 0 setdash
0.000 0.000 1.000 setrgbcolor
gsave
63 79.921875 m
83 79.921875 l
stroke
grestore
0.000 setgray
/DejaVuSans findfont
10.000 scalefont
setfont
gsave
91.000000 76.421875 translate
0.000000 rotate
0.000000 0.000000 m /P glyphshow
6.030273 0.000000 m /r glyphshow
10.141602 0.000000 m /e glyphshow
16.293945 0.000000 m /c glyphshow
21.791992 0.000000 m /i glyphshow
24.570312 0.000000 m /s glyphshow
29.780273 0.000000 m /i glyphshow
32.558594 0.000000 m /o glyphshow
38.676758 0.000000 m /n glyphshow
grestore
1.000 0.000 0.000 setrgbcolor
gsave
63 65.25 m
83 65.25 l
stroke
grestore
0.000 setgray
gsave
91.000000 61.750000 translate
0.000000 rotate
0.000000 0.000000 m /R glyphshow
6.948242 0.000000 m /e glyphshow
13.100586 0.000000 m /c glyphshow
18.598633 0.000000 m /a glyphshow
24.726562 0.000000 m /l glyphshow
27.504883 0.000000 m /l glyphshow
grestore
0.750 0.750 0.000 setrgbcolor
gsave
63 50.578125 m
83 50.578125 l
stroke
grestore
0.000 setgray
gsave
91.000000 47.078125 translate
0.000000 rotate
0.000000 0.000000 m /F glyphshow
5.751953 0.000000 m /one glyphshow
12.114258 0.000000 m /hyphen glyphshow
15.722656 0.000000 m /s glyphshow
20.932617 0.000000 m /c glyphshow
26.430664 0.000000 m /o glyphshow
32.548828 0.000000 m /r glyphshow
36.660156 0.000000 m /e glyphshow
grestore

end
showpage
