%!PS-Adobe-3.0 EPSF-3.0
%%Title: roc.eps
%%Creator: matplotlib version 3.0.3, http://matplotlib.org/
%%CreationDate: Thu May 16 19:08:06 2019
%%Orientation: portrait
%%BoundingBox: 90 252 522 540
%%EndComments
%%BeginProlog
/mpldict 8 dict def
mpldict begin
/m { moveto } bind def
/l { lineto } bind def
/r { rlineto } bind def
/c { curveto } bind def
/cl { closepath } bind def
/box {
m
1 index 0 r
0 exch r
neg 0 r
cl
} bind def
/clipbox {
box
clip
newpath
} bind def
%!PS-Adobe-3.0 Resource-Font
%%Title: DejaVu Sans
%%Copyright: Copyright (c) 2003 by Bitstream, Inc. All Rights Reserved. Copyright (c) 2006 by Tavmjong Bah. All Rights Reserved. DejaVu changes are in public domain 
%%Creator: Converted from TrueType to type 3 by PPR
25 dict begin
/_d{bind def}bind def
/_m{moveto}_d
/_l{lineto}_d
/_cl{closepath eofill}_d
/_c{curveto}_d
/_sc{7 -1 roll{setcachedevice}{pop pop pop pop pop pop}ifelse}_d
/_e{exec}_d
/FontName /DejaVuSans def
/PaintType 0 def
/FontMatrix[.001 0 0 .001 0 0]def
/FontBBox[-1021 -463 1793 1232]def
/FontType 3 def
/Encoding [ /space /parenleft /parenright /period /zero /one /two /four /six /eight /nine /equal /B /C /D /F /G /L /M /N /P /R /S /T /a /c /e /f /g /i /l /m /n /o /r /s /t /u /v ] def
/FontInfo 10 dict dup begin
/FamilyName (DejaVu Sans) def
/FullName (DejaVu Sans) def
/Notice (Copyright (c) 2003 by Bitstream, Inc. All Rights Reserved. Copyright (c) 2006 by Tavmjong Bah. All Rights Reserved. DejaVu changes are in public domain ) def
/Weight (Book) def
/Version (Version 2.35) def
/ItalicAngle 0.0 def
/isFixedPitch false def
/UnderlinePosition -130 def
/UnderlineThickness 90 def
end readonly def
/CharStrings 40 dict dup begin
/.notdef 0 def
/space{318 0 0 0 0 0 _sc
}_d
/parenleft{390 0 86 -131 310 759 _sc
310 759 _m
266 683 234 609 213 536 _c
191 463 181 389 181 314 _c
181 238 191 164 213 91 _c
234 17 266 -56 310 -131 _c
232 -131 _l
183 -54 146 20 122 94 _c
98 168 86 241 86 314 _c
86 386 98 459 122 533 _c
146 607 182 682 232 759 _c
310 759 _l
_cl}_d
/parenright{390 0 80 -131 304 759 _sc
80 759 _m
158 759 _l
206 682 243 607 267 533 _c
291 459 304 386 304 314 _c
304 241 291 168 267 94 _c
243 20 206 -54 158 -131 _c
80 -131 _l
123 -56 155 17 177 91 _c
198 164 209 238 209 314 _c
209 389 198 463 177 536 _c
155 609 123 683 80 759 _c
_cl}_d
/period{318 0 107 0 210 124 _sc
107 124 _m
210 124 _l
210 0 _l
107 0 _l
107 124 _l
_cl}_d
/zero{636 0 66 -13 570 742 _sc
318 664 _m
267 664 229 639 203 589 _c
177 539 165 464 165 364 _c
165 264 177 189 203 139 _c
229 89 267 64 318 64 _c
369 64 407 89 433 139 _c
458 189 471 264 471 364 _c
471 464 458 539 433 589 _c
407 639 369 664 318 664 _c
318 742 _m
399 742 461 709 505 645 _c
548 580 570 486 570 364 _c
570 241 548 147 505 83 _c
461 19 399 -13 318 -13 _c
236 -13 173 19 130 83 _c
87 147 66 241 66 364 _c
66 486 87 580 130 645 _c
173 709 236 742 318 742 _c
_cl}_d
/one{636 0 110 0 544 729 _sc
124 83 _m
285 83 _l
285 639 _l
110 604 _l
110 694 _l
284 729 _l
383 729 _l
383 83 _l
544 83 _l
544 0 _l
124 0 _l
124 83 _l
_cl}_d
/two{{636 0 73 0 536 742 _sc
192 83 _m
536 83 _l
536 0 _l
73 0 _l
73 83 _l
110 121 161 173 226 239 _c
290 304 331 346 348 365 _c
380 400 402 430 414 455 _c
426 479 433 504 433 528 _c
433 566 419 598 392 622 _c
365 646 330 659 286 659 _c
255 659 222 653 188 643 _c
154 632 117 616 78 594 _c
78 694 _l
118 710 155 722 189 730 _c
223 738 255 742 284 742 _c
}_e{359 742 419 723 464 685 _c
509 647 532 597 532 534 _c
532 504 526 475 515 449 _c
504 422 484 390 454 354 _c
446 344 420 317 376 272 _c
332 227 271 164 192 83 _c
_cl}_e}_d
/four{636 0 49 0 580 729 _sc
378 643 _m
129 254 _l
378 254 _l
378 643 _l
352 729 _m
476 729 _l
476 254 _l
580 254 _l
580 172 _l
476 172 _l
476 0 _l
378 0 _l
378 172 _l
49 172 _l
49 267 _l
352 729 _l
_cl}_d
/six{{636 0 70 -13 573 742 _sc
330 404 _m
286 404 251 388 225 358 _c
199 328 186 286 186 234 _c
186 181 199 139 225 109 _c
251 79 286 64 330 64 _c
374 64 409 79 435 109 _c
461 139 474 181 474 234 _c
474 286 461 328 435 358 _c
409 388 374 404 330 404 _c
526 713 _m
526 623 _l
501 635 476 644 451 650 _c
425 656 400 659 376 659 _c
310 659 260 637 226 593 _c
}_e{192 549 172 482 168 394 _c
187 422 211 444 240 459 _c
269 474 301 482 336 482 _c
409 482 467 459 509 415 _c
551 371 573 310 573 234 _c
573 159 550 99 506 54 _c
462 9 403 -13 330 -13 _c
246 -13 181 19 137 83 _c
92 147 70 241 70 364 _c
70 479 97 571 152 639 _c
206 707 280 742 372 742 _c
396 742 421 739 447 735 _c
472 730 498 723 526 713 _c
_cl}_e}_d
/eight{{636 0 68 -13 568 742 _sc
318 346 _m
271 346 234 333 207 308 _c
180 283 167 249 167 205 _c
167 161 180 126 207 101 _c
234 76 271 64 318 64 _c
364 64 401 76 428 102 _c
455 127 469 161 469 205 _c
469 249 455 283 429 308 _c
402 333 365 346 318 346 _c
219 388 _m
177 398 144 418 120 447 _c
96 476 85 511 85 553 _c
85 611 105 657 147 691 _c
188 725 245 742 318 742 _c
}_e{390 742 447 725 489 691 _c
530 657 551 611 551 553 _c
551 511 539 476 515 447 _c
491 418 459 398 417 388 _c
464 377 501 355 528 323 _c
554 291 568 251 568 205 _c
568 134 546 80 503 43 _c
459 5 398 -13 318 -13 _c
237 -13 175 5 132 43 _c
89 80 68 134 68 205 _c
68 251 81 291 108 323 _c
134 355 171 377 219 388 _c
183 544 _m
183 506 194 476 218 455 _c
}_e{242 434 275 424 318 424 _c
360 424 393 434 417 455 _c
441 476 453 506 453 544 _c
453 582 441 611 417 632 _c
393 653 360 664 318 664 _c
275 664 242 653 218 632 _c
194 611 183 582 183 544 _c
_cl}_e}_d
/nine{{636 0 63 -13 566 742 _sc
110 15 _m
110 105 _l
134 93 159 84 185 78 _c
210 72 235 69 260 69 _c
324 69 374 90 408 134 _c
442 178 462 244 468 334 _c
448 306 424 284 396 269 _c
367 254 335 247 300 247 _c
226 247 168 269 126 313 _c
84 357 63 417 63 494 _c
63 568 85 628 129 674 _c
173 719 232 742 306 742 _c
390 742 455 709 499 645 _c
543 580 566 486 566 364 _c
}_e{566 248 538 157 484 89 _c
429 21 356 -13 264 -13 _c
239 -13 214 -10 189 -6 _c
163 -2 137 5 110 15 _c
306 324 _m
350 324 385 339 411 369 _c
437 399 450 441 450 494 _c
450 546 437 588 411 618 _c
385 648 350 664 306 664 _c
262 664 227 648 201 618 _c
175 588 162 546 162 494 _c
162 441 175 399 201 369 _c
227 339 262 324 306 324 _c
_cl}_e}_d
/equal{838 0 106 172 732 454 _sc
106 454 _m
732 454 _l
732 372 _l
106 372 _l
106 454 _l
106 255 _m
732 255 _l
732 172 _l
106 172 _l
106 255 _l
_cl}_d
/B{{686 0 98 0 615 729 _sc
197 348 _m
197 81 _l
355 81 _l
408 81 447 92 473 114 _c
498 136 511 169 511 215 _c
511 260 498 293 473 315 _c
447 337 408 348 355 348 _c
197 348 _l
197 648 _m
197 428 _l
343 428 _l
391 428 426 437 450 455 _c
474 473 486 500 486 538 _c
486 574 474 602 450 620 _c
426 638 391 648 343 648 _c
197 648 _l
98 729 _m
350 729 _l
}_e{425 729 483 713 524 682 _c
564 650 585 606 585 549 _c
585 504 574 468 553 442 _c
532 416 502 399 462 393 _c
510 382 548 360 575 327 _c
601 294 615 253 615 204 _c
615 138 592 88 548 53 _c
504 17 441 0 360 0 _c
98 0 _l
98 729 _l
_cl}_e}_d
/C{{698 0 56 -13 644 742 _sc
644 673 _m
644 569 _l
610 599 575 622 537 638 _c
499 653 460 661 418 661 _c
334 661 270 635 226 584 _c
182 533 160 460 160 364 _c
160 268 182 194 226 143 _c
270 92 334 67 418 67 _c
460 67 499 74 537 90 _c
575 105 610 128 644 159 _c
644 56 _l
609 32 572 15 534 4 _c
496 -7 455 -13 412 -13 _c
302 -13 215 20 151 87 _c
}_e{87 154 56 246 56 364 _c
56 481 87 573 151 641 _c
215 708 302 742 412 742 _c
456 742 497 736 535 725 _c
573 713 610 696 644 673 _c
_cl}_e}_d
/D{770 0 98 0 711 729 _sc
197 648 _m
197 81 _l
316 81 _l
416 81 490 103 537 149 _c
583 195 607 267 607 365 _c
607 463 583 534 537 580 _c
490 625 416 648 316 648 _c
197 648 _l
98 729 _m
301 729 _l
442 729 546 699 612 641 _c
678 582 711 490 711 365 _c
711 239 677 147 611 88 _c
545 29 441 0 301 0 _c
98 0 _l
98 729 _l
_cl}_d
/F{575 0 98 0 517 729 _sc
98 729 _m
517 729 _l
517 646 _l
197 646 _l
197 431 _l
486 431 _l
486 348 _l
197 348 _l
197 0 _l
98 0 _l
98 729 _l
_cl}_d
/G{{775 0 56 -13 693 742 _sc
595 104 _m
595 300 _l
434 300 _l
434 381 _l
693 381 _l
693 68 _l
655 40 613 20 567 7 _c
521 -6 472 -13 420 -13 _c
306 -13 216 20 152 86 _c
88 152 56 245 56 364 _c
56 482 88 575 152 642 _c
216 708 306 742 420 742 _c
467 742 512 736 555 724 _c
598 712 638 695 674 673 _c
674 568 _l
637 598 598 621 557 637 _c
516 653 473 661 428 661 _c
}_e{338 661 271 636 227 586 _c
182 536 160 462 160 364 _c
160 265 182 191 227 141 _c
271 91 338 67 428 67 _c
462 67 493 70 521 76 _c
549 82 573 91 595 104 _c
_cl}_e}_d
/L{557 0 98 0 552 729 _sc
98 729 _m
197 729 _l
197 83 _l
552 83 _l
552 0 _l
98 0 _l
98 729 _l
_cl}_d
/M{863 0 98 0 765 729 _sc
98 729 _m
245 729 _l
431 233 _l
618 729 _l
765 729 _l
765 0 _l
669 0 _l
669 640 _l
481 140 _l
382 140 _l
194 640 _l
194 0 _l
98 0 _l
98 729 _l
_cl}_d
/N{748 0 98 0 650 729 _sc
98 729 _m
231 729 _l
554 119 _l
554 729 _l
650 729 _l
650 0 _l
517 0 _l
194 610 _l
194 0 _l
98 0 _l
98 729 _l
_cl}_d
/P{603 0 98 0 569 729 _sc
197 648 _m
197 374 _l
321 374 _l
367 374 402 385 427 409 _c
452 433 465 467 465 511 _c
465 555 452 588 427 612 _c
402 636 367 648 321 648 _c
197 648 _l
98 729 _m
321 729 _l
402 729 464 710 506 673 _c
548 636 569 582 569 511 _c
569 439 548 384 506 348 _c
464 311 402 293 321 293 _c
197 293 _l
197 0 _l
98 0 _l
98 729 _l
_cl}_d
/R{{695 0 98 0 666 729 _sc
444 342 _m
465 334 486 319 506 296 _c
526 272 546 240 566 199 _c
666 0 _l
560 0 _l
467 187 _l
443 235 419 268 397 284 _c
374 300 343 308 304 308 _c
197 308 _l
197 0 _l
98 0 _l
98 729 _l
321 729 _l
404 729 466 711 507 677 _c
548 642 569 589 569 519 _c
569 473 558 434 537 404 _c
515 374 484 353 444 342 _c
197 648 _m
197 389 _l
321 389 _l
}_e{368 389 404 400 428 422 _c
452 444 465 476 465 519 _c
465 561 452 593 428 615 _c
404 637 368 648 321 648 _c
197 648 _l
_cl}_e}_d
/S{{635 0 66 -13 579 742 _sc
535 705 _m
535 609 _l
497 627 462 640 429 649 _c
395 657 363 662 333 662 _c
279 662 237 651 208 631 _c
179 610 165 580 165 542 _c
165 510 174 485 194 469 _c
213 452 250 439 304 429 _c
364 417 _l
437 403 491 378 526 343 _c
561 307 579 260 579 201 _c
579 130 555 77 508 41 _c
460 5 391 -13 300 -13 _c
265 -13 228 -9 189 -2 _c
}_e{150 5 110 16 69 32 _c
69 134 _l
109 111 148 94 186 83 _c
224 71 262 66 300 66 _c
356 66 399 77 430 99 _c
460 121 476 152 476 194 _c
476 230 465 258 443 278 _c
421 298 385 313 335 323 _c
275 335 _l
201 349 148 372 115 404 _c
82 435 66 478 66 534 _c
66 598 88 649 134 686 _c
179 723 242 742 322 742 _c
356 742 390 739 426 733 _c
461 727 497 717 535 705 _c
}_e{_cl}_e}_d
/T{611 0 -2 0 614 729 _sc
-2 729 _m
614 729 _l
614 646 _l
355 646 _l
355 0 _l
256 0 _l
256 646 _l
-2 646 _l
-2 729 _l
_cl}_d
/a{{613 0 60 -13 522 560 _sc
343 275 _m
270 275 220 266 192 250 _c
164 233 150 205 150 165 _c
150 133 160 107 181 89 _c
202 70 231 61 267 61 _c
317 61 357 78 387 114 _c
417 149 432 196 432 255 _c
432 275 _l
343 275 _l
522 312 _m
522 0 _l
432 0 _l
432 83 _l
411 49 385 25 355 10 _c
325 -5 287 -13 243 -13 _c
187 -13 142 2 109 33 _c
76 64 60 106 60 159 _c
}_e{60 220 80 266 122 298 _c
163 329 224 345 306 345 _c
432 345 _l
432 354 _l
432 395 418 427 391 450 _c
364 472 326 484 277 484 _c
245 484 215 480 185 472 _c
155 464 127 453 100 439 _c
100 522 _l
132 534 164 544 195 550 _c
226 556 256 560 286 560 _c
365 560 424 539 463 498 _c
502 457 522 395 522 312 _c
_cl}_e}_d
/c{{550 0 55 -13 488 560 _sc
488 526 _m
488 442 _l
462 456 437 466 411 473 _c
385 480 360 484 334 484 _c
276 484 230 465 198 428 _c
166 391 150 339 150 273 _c
150 206 166 154 198 117 _c
230 80 276 62 334 62 _c
360 62 385 65 411 72 _c
437 79 462 90 488 104 _c
488 21 _l
462 9 436 0 410 -5 _c
383 -10 354 -13 324 -13 _c
242 -13 176 12 128 64 _c
}_e{79 115 55 185 55 273 _c
55 362 79 432 128 483 _c
177 534 244 560 330 560 _c
358 560 385 557 411 551 _c
437 545 463 537 488 526 _c
_cl}_e}_d
/e{{615 0 55 -13 562 560 _sc
562 296 _m
562 252 _l
149 252 _l
153 190 171 142 205 110 _c
238 78 284 62 344 62 _c
378 62 412 66 444 74 _c
476 82 509 95 541 113 _c
541 28 _l
509 14 476 3 442 -3 _c
408 -9 373 -13 339 -13 _c
251 -13 182 12 131 62 _c
80 112 55 181 55 268 _c
55 357 79 428 127 481 _c
175 533 241 560 323 560 _c
397 560 455 536 498 489 _c
}_e{540 441 562 377 562 296 _c
472 322 _m
471 371 457 410 431 440 _c
404 469 368 484 324 484 _c
274 484 234 469 204 441 _c
174 413 156 373 152 322 _c
472 322 _l
_cl}_e}_d
/f{352 0 23 0 371 760 _sc
371 760 _m
371 685 _l
285 685 _l
253 685 230 678 218 665 _c
205 652 199 629 199 595 _c
199 547 _l
347 547 _l
347 477 _l
199 477 _l
199 0 _l
109 0 _l
109 477 _l
23 477 _l
23 547 _l
109 547 _l
109 585 _l
109 645 123 690 151 718 _c
179 746 224 760 286 760 _c
371 760 _l
_cl}_d
/g{{635 0 55 -207 544 560 _sc
454 280 _m
454 344 440 395 414 431 _c
387 467 349 485 301 485 _c
253 485 215 467 188 431 _c
161 395 148 344 148 280 _c
148 215 161 165 188 129 _c
215 93 253 75 301 75 _c
349 75 387 93 414 129 _c
440 165 454 215 454 280 _c
544 68 _m
544 -24 523 -93 482 -139 _c
440 -184 377 -207 292 -207 _c
260 -207 231 -204 203 -200 _c
175 -195 147 -188 121 -178 _c
}_e{121 -91 _l
147 -105 173 -115 199 -122 _c
225 -129 251 -133 278 -133 _c
336 -133 380 -117 410 -87 _c
439 -56 454 -10 454 52 _c
454 96 _l
435 64 411 40 382 24 _c
353 8 319 0 279 0 _c
211 0 157 25 116 76 _c
75 127 55 195 55 280 _c
55 364 75 432 116 483 _c
157 534 211 560 279 560 _c
319 560 353 552 382 536 _c
411 520 435 496 454 464 _c
454 547 _l
544 547 _l
}_e{544 68 _l
_cl}_e}_d
/i{278 0 94 0 184 760 _sc
94 547 _m
184 547 _l
184 0 _l
94 0 _l
94 547 _l
94 760 _m
184 760 _l
184 646 _l
94 646 _l
94 760 _l
_cl}_d
/l{278 0 94 0 184 760 _sc
94 760 _m
184 760 _l
184 0 _l
94 0 _l
94 760 _l
_cl}_d
/m{{974 0 91 0 889 560 _sc
520 442 _m
542 482 569 511 600 531 _c
631 550 668 560 711 560 _c
767 560 811 540 842 500 _c
873 460 889 403 889 330 _c
889 0 _l
799 0 _l
799 327 _l
799 379 789 418 771 444 _c
752 469 724 482 686 482 _c
639 482 602 466 575 435 _c
548 404 535 362 535 309 _c
535 0 _l
445 0 _l
445 327 _l
445 379 435 418 417 444 _c
398 469 369 482 331 482 _c
}_e{285 482 248 466 221 435 _c
194 404 181 362 181 309 _c
181 0 _l
91 0 _l
91 547 _l
181 547 _l
181 462 _l
201 495 226 520 255 536 _c
283 552 317 560 357 560 _c
397 560 430 550 458 530 _c
486 510 506 480 520 442 _c
_cl}_e}_d
/n{634 0 91 0 549 560 _sc
549 330 _m
549 0 _l
459 0 _l
459 327 _l
459 379 448 417 428 443 _c
408 469 378 482 338 482 _c
289 482 251 466 223 435 _c
195 404 181 362 181 309 _c
181 0 _l
91 0 _l
91 547 _l
181 547 _l
181 462 _l
202 494 227 519 257 535 _c
286 551 320 560 358 560 _c
420 560 468 540 500 501 _c
532 462 549 405 549 330 _c
_cl}_d
/o{612 0 55 -13 557 560 _sc
306 484 _m
258 484 220 465 192 427 _c
164 389 150 338 150 273 _c
150 207 163 156 191 118 _c
219 80 257 62 306 62 _c
354 62 392 80 420 118 _c
448 156 462 207 462 273 _c
462 337 448 389 420 427 _c
392 465 354 484 306 484 _c
306 560 _m
384 560 445 534 490 484 _c
534 433 557 363 557 273 _c
557 183 534 113 490 63 _c
445 12 384 -13 306 -13 _c
227 -13 165 12 121 63 _c
77 113 55 183 55 273 _c
55 363 77 433 121 484 _c
165 534 227 560 306 560 _c
_cl}_d
/r{411 0 91 0 411 560 _sc
411 463 _m
401 469 390 473 378 476 _c
366 478 353 480 339 480 _c
288 480 249 463 222 430 _c
194 397 181 350 181 288 _c
181 0 _l
91 0 _l
91 547 _l
181 547 _l
181 462 _l
199 495 224 520 254 536 _c
284 552 321 560 365 560 _c
371 560 378 559 386 559 _c
393 558 401 557 411 555 _c
411 463 _l
_cl}_d
/s{{521 0 54 -13 472 560 _sc
443 531 _m
443 446 _l
417 458 391 468 364 475 _c
336 481 308 485 279 485 _c
234 485 200 478 178 464 _c
156 450 145 430 145 403 _c
145 382 153 366 169 354 _c
185 342 217 330 265 320 _c
296 313 _l
360 299 405 279 432 255 _c
458 230 472 195 472 151 _c
472 100 452 60 412 31 _c
372 1 316 -13 246 -13 _c
216 -13 186 -10 154 -5 _c
}_e{122 0 89 8 54 20 _c
54 113 _l
87 95 120 82 152 74 _c
184 65 216 61 248 61 _c
290 61 323 68 346 82 _c
368 96 380 117 380 144 _c
380 168 371 187 355 200 _c
339 213 303 226 247 238 _c
216 245 _l
160 257 119 275 95 299 _c
70 323 58 356 58 399 _c
58 450 76 490 112 518 _c
148 546 200 560 268 560 _c
301 560 332 557 362 552 _c
391 547 418 540 443 531 _c
}_e{_cl}_e}_d
/t{392 0 27 0 368 702 _sc
183 702 _m
183 547 _l
368 547 _l
368 477 _l
183 477 _l
183 180 _l
183 135 189 106 201 94 _c
213 81 238 75 276 75 _c
368 75 _l
368 0 _l
276 0 _l
206 0 158 13 132 39 _c
106 65 93 112 93 180 _c
93 477 _l
27 477 _l
27 547 _l
93 547 _l
93 702 _l
183 702 _l
_cl}_d
/u{634 0 85 -13 543 560 _sc
85 216 _m
85 547 _l
175 547 _l
175 219 _l
175 167 185 129 205 103 _c
225 77 255 64 296 64 _c
344 64 383 79 411 110 _c
439 141 453 183 453 237 _c
453 547 _l
543 547 _l
543 0 _l
453 0 _l
453 84 _l
431 50 405 26 377 10 _c
348 -5 315 -13 277 -13 _c
214 -13 166 6 134 45 _c
101 83 85 140 85 216 _c
311 560 _m
311 560 _l
_cl}_d
/v{592 0 30 0 562 547 _sc
30 547 _m
125 547 _l
296 88 _l
467 547 _l
562 547 _l
357 0 _l
235 0 _l
30 547 _l
_cl}_d
end readonly def

/BuildGlyph
 {exch begin
 CharStrings exch
 2 copy known not{pop /.notdef}if
 true 3 1 roll get exec
 end}_d

/BuildChar {
 1 index /Encoding get exch get
 1 index /BuildGlyph get exec
}_d

FontName currentdict end definefont pop
end
%%EndProlog
mpldict begin
90 252 translate
432 288 0 0 clipbox
gsave
0 0 m
432 0 l
432 288 l
0 288 l
cl
1.000 setgray
fill
grestore
gsave
54 36 m
388.8 36 l
388.8 253.44 l
54 253.44 l
cl
1.000 setgray
fill
grestore
0.800 setlinewidth
1 setlinejoin
0 setlinecap
[] 0 setdash
0.000 setgray
gsave
/o {
gsave
newpath
translate
0.8 setlinewidth
1 setlinejoin
0 setlinecap
0 0 m
0 -3.5 l

gsave
0.000 setgray
fill
grestore
stroke
grestore
} bind def
54 36 o
grestore
/DejaVuSans findfont
10.000 scalefont
setfont
gsave
46.046875 21.406250 translate
0.000000 rotate
0.000000 0.000000 m /zero glyphshow
6.362305 0.000000 m /period glyphshow
9.541016 0.000000 m /zero glyphshow
grestore
gsave
/o {
gsave
newpath
translate
0.8 setlinewidth
1 setlinejoin
0 setlinecap
0 0 m
0 -3.5 l

gsave
0.000 setgray
fill
grestore
stroke
grestore
} bind def
120.96 36 o
grestore
gsave
113.006875 21.406250 translate
0.000000 rotate
0.000000 0.000000 m /zero glyphshow
6.362305 0.000000 m /period glyphshow
9.541016 0.000000 m /two glyphshow
grestore
gsave
/o {
gsave
newpath
translate
0.8 setlinewidth
1 setlinejoin
0 setlinecap
0 0 m
0 -3.5 l

gsave
0.000 setgray
fill
grestore
stroke
grestore
} bind def
187.92 36 o
grestore
gsave
179.966875 21.406250 translate
0.000000 rotate
0.000000 0.000000 m /zero glyphshow
6.362305 0.000000 m /period glyphshow
9.541016 0.000000 m /four glyphshow
grestore
gsave
/o {
gsave
newpath
translate
0.8 setlinewidth
1 setlinejoin
0 setlinecap
0 0 m
0 -3.5 l

gsave
0.000 setgray
fill
grestore
stroke
grestore
} bind def
254.88 36 o
grestore
gsave
246.926875 21.406250 translate
0.000000 rotate
0.000000 0.000000 m /zero glyphshow
6.362305 0.000000 m /period glyphshow
9.541016 0.000000 m /six glyphshow
grestore
gsave
/o {
gsave
newpath
translate
0.8 setlinewidth
1 setlinejoin
0 setlinecap
0 0 m
0 -3.5 l

gsave
0.000 setgray
fill
grestore
stroke
grestore
} bind def
321.84 36 o
grestore
gsave
313.886875 21.406250 translate
0.000000 rotate
0.000000 0.000000 m /zero glyphshow
6.362305 0.000000 m /period glyphshow
9.541016 0.000000 m /eight glyphshow
grestore
gsave
/o {
gsave
newpath
translate
0.8 setlinewidth
1 setlinejoin
0 setlinecap
0 0 m
0 -3.5 l

gsave
0.000 setgray
fill
grestore
stroke
grestore
} bind def
388.8 36 o
grestore
gsave
380.846875 21.406250 translate
0.000000 rotate
0.000000 0.000000 m /one glyphshow
6.362305 0.000000 m /period glyphshow
9.541016 0.000000 m /zero glyphshow
grestore
gsave
174.150000 7.734375 translate
0.000000 rotate
0.000000 0.000000 m /F glyphshow
5.751953 0.000000 m /a glyphshow
11.879883 0.000000 m /l glyphshow
14.658203 0.000000 m /s glyphshow
19.868164 0.000000 m /e glyphshow
26.020508 0.000000 m /space glyphshow
29.199219 0.000000 m /P glyphshow
35.229492 0.000000 m /o glyphshow
41.347656 0.000000 m /s glyphshow
46.557617 0.000000 m /i glyphshow
49.335938 0.000000 m /t glyphshow
53.256836 0.000000 m /i glyphshow
56.035156 0.000000 m /v glyphshow
61.953125 0.000000 m /e glyphshow
68.105469 0.000000 m /space glyphshow
71.284180 0.000000 m /R glyphshow
78.232422 0.000000 m /a glyphshow
84.360352 0.000000 m /t glyphshow
88.281250 0.000000 m /e glyphshow
grestore
gsave
/o {
gsave
newpath
translate
0.8 setlinewidth
1 setlinejoin
0 setlinecap
0 0 m
-3.5 0 l

gsave
0.000 setgray
fill
grestore
stroke
grestore
} bind def
54 36 o
grestore
gsave
31.093750 32.203125 translate
0.000000 rotate
0.000000 0.000000 m /zero glyphshow
6.362305 0.000000 m /period glyphshow
9.541016 0.000000 m /zero glyphshow
grestore
gsave
/o {
gsave
newpath
translate
0.8 setlinewidth
1 setlinejoin
0 setlinecap
0 0 m
-3.5 0 l

gsave
0.000 setgray
fill
grestore
stroke
grestore
} bind def
54 79.488 o
grestore
gsave
31.093750 75.691125 translate
0.000000 rotate
0.000000 0.000000 m /zero glyphshow
6.362305 0.000000 m /period glyphshow
9.541016 0.000000 m /two glyphshow
grestore
gsave
/o {
gsave
newpath
translate
0.8 setlinewidth
1 setlinejoin
0 setlinecap
0 0 m
-3.5 0 l

gsave
0.000 setgray
fill
grestore
stroke
grestore
} bind def
54 122.976 o
grestore
gsave
31.093750 119.179125 translate
0.000000 rotate
0.000000 0.000000 m /zero glyphshow
6.362305 0.000000 m /period glyphshow
9.541016 0.000000 m /four glyphshow
grestore
gsave
/o {
gsave
newpath
translate
0.8 setlinewidth
1 setlinejoin
0 setlinecap
0 0 m
-3.5 0 l

gsave
0.000 setgray
fill
grestore
stroke
grestore
} bind def
54 166.464 o
grestore
gsave
31.093750 162.667125 translate
0.000000 rotate
0.000000 0.000000 m /zero glyphshow
6.362305 0.000000 m /period glyphshow
9.541016 0.000000 m /six glyphshow
grestore
gsave
/o {
gsave
newpath
translate
0.8 setlinewidth
1 setlinejoin
0 setlinecap
0 0 m
-3.5 0 l

gsave
0.000 setgray
fill
grestore
stroke
grestore
} bind def
54 209.952 o
grestore
gsave
31.093750 206.155125 translate
0.000000 rotate
0.000000 0.000000 m /zero glyphshow
6.362305 0.000000 m /period glyphshow
9.541016 0.000000 m /eight glyphshow
grestore
gsave
/o {
gsave
newpath
translate
0.8 setlinewidth
1 setlinejoin
0 setlinecap
0 0 m
-3.5 0 l

gsave
0.000 setgray
fill
grestore
stroke
grestore
} bind def
54 253.44 o
grestore
gsave
31.093750 249.643125 translate
0.000000 rotate
0.000000 0.000000 m /one glyphshow
6.362305 0.000000 m /period glyphshow
9.541016 0.000000 m /zero glyphshow
grestore
gsave
25.015625 99.134062 translate
90.000000 rotate
0.000000 0.000000 m /T glyphshow
6.092773 0.000000 m /r glyphshow
10.204102 0.000000 m /u glyphshow
16.541992 0.000000 m /e glyphshow
22.694336 0.000000 m /space glyphshow
25.873047 0.000000 m /P glyphshow
31.903320 0.000000 m /o glyphshow
38.021484 0.000000 m /s glyphshow
43.231445 0.000000 m /i glyphshow
46.009766 0.000000 m /t glyphshow
49.930664 0.000000 m /i glyphshow
52.708984 0.000000 m /v glyphshow
58.626953 0.000000 m /e glyphshow
64.779297 0.000000 m /space glyphshow
67.958008 0.000000 m /R glyphshow
74.906250 0.000000 m /a glyphshow
81.034180 0.000000 m /t glyphshow
84.955078 0.000000 m /e glyphshow
grestore
1.500 setlinewidth
2 setlinecap
0.122 0.467 0.706 setrgbcolor
gsave
334.8 217.4 54 36 clipbox
54 36.009057 m
54 81.259619 l
55.43691 81.259619 l
55.43691 196.188438 l
56.87382 196.188438 l
56.87382 206.16059 l
58.31073 206.16059 l
58.31073 207.618825 l
59.747639 207.618825 l
59.747639 215.154547 l
61.184549 215.154547 l
61.184549 217.382657 l
62.621459 217.382657 l
62.621459 218.750318 l
64.058369 218.750318 l
64.058369 221.476583 l
65.495279 221.476583 l
65.495279 222.364204 l
66.932189 222.364204 l
66.932189 226.050549 l
68.369099 226.050549 l
68.369099 226.920055 l
69.806009 226.920055 l
69.806009 228.333003 l
71.242918 228.333003 l
71.242918 229.220624 l
72.679828 229.220624 l
72.679828 229.872754 l
75.553648 229.963327 l
75.553648 232.644305 l
76.990558 232.644305 l
76.990558 233.024714 l
78.427468 233.024714 l
78.427468 233.133403 l
78.427468 233.984794 l
79.864378 233.984794 l
79.864378 235.09885 l
81.301288 235.09885 l
81.301288 236.0227 l
82.738197 236.0227 l
82.738197 236.529912 l
84.175107 236.529912 l
84.175107 236.98278 l
85.612017 236.98278 l
85.612017 237.562451 l
87.048927 237.562451 l
87.048927 239.817733 l
89.922747 239.926421 l
89.922747 240.750641 l
91.359657 240.750641 l
91.359657 241.149165 l
92.796567 241.149165 l
92.796567 241.312197 l
94.233476 241.312197 l
94.233476 241.846581 l
95.670386 241.846581 l
95.670386 242.335679 l
98.544206 242.371908 l
98.544206 242.770432 l
101.418026 242.861006 l
101.418026 242.987809 l
102.854936 242.987809 l
102.854936 243.938831 l
104.291845 243.938831 l
104.291845 244.273953 l
107.165665 244.346412 l
107.165665 244.373584 l
107.165665 244.554732 l
108.602575 244.554732 l
108.602575 245.569156 l
112.913305 245.659729 l
112.913305 246.429605 l
114.350215 246.429605 l
114.350215 246.683211 l
117.224034 246.728498 l
117.224034 247.317226 l
118.660944 247.317226 l
118.660944 247.462144 l
121.534764 247.50743 l
121.534764 247.570832 l
121.534764 247.643291 l
122.971674 247.643291 l
122.971674 248.096159 l
128.719313 248.19579 l
128.719313 248.304478 l
130.156223 248.304478 l
130.156223 248.449396 l
133.030043 248.530912 l
133.030043 248.703002 l
135.903863 248.793575 l
135.903863 248.866034 l
137.340773 248.866034 l
137.340773 249.101525 l
138.777682 249.101525 l
138.777682 249.273615 l
145.962232 249.382303 l
145.962232 249.472877 l
150.272961 249.490992 l
150.272961 249.617795 l
154.583691 249.717426 l
154.583691 249.753655 l
158.894421 249.853286 l
158.894421 249.925745 l
160.33133 249.925745 l
160.33133 250.061605 l
161.76824 250.061605 l
161.76824 250.351441 l
163.20515 250.351441 l
163.20515 250.478244 l
167.51588 250.577875 l
167.51588 250.650334 l
170.3897 250.713735 l
170.3897 250.885825 l
171.826609 250.885825 l
171.826609 251.057915 l
174.700429 251.085087 l
174.700429 251.193775 l
180.448069 251.284349 l
180.448069 251.356808 l
181.884979 251.356808 l
181.884979 251.574184 l
184.758798 251.583242 l
184.758798 251.646643 l
184.758798 251.700987 l
186.195708 251.700987 l
186.195708 251.927421 l
191.943348 252.008937 l
191.943348 252.072339 l
197.690987 252.17197 l
197.690987 252.226314 l
206.312446 252.316888 l
206.312446 252.362174 l
219.244635 252.470863 l
219.244635 252.561436 l
232.176824 252.661067 l
232.176824 252.679182 l
236.487554 252.769755 l
236.487554 252.860329 l
246.545923 252.923731 l
246.545923 252.978075 l
260.915021 253.068648 l
260.915021 253.104878 l
283.905579 253.204509 l
283.905579 253.231681 l
308.333047 253.340369 l
308.333047 253.349426 l
388.8 253.430943 l
388.8 253.44 l
stroke
grestore
1.000 0.498 0.055 setrgbcolor
gsave
334.8 217.4 54 36 clipbox
54 36.009057 m
54 125.061004 l
55.43691 125.061004 l
55.43691 218.442368 l
56.87382 218.442368 l
56.87382 226.947227 l
58.31073 226.947227 l
58.31073 231.349103 l
59.747639 231.349103 l
59.747639 232.227667 l
61.184549 232.227667 l
61.184549 235.225653 l
62.621459 235.225653 l
62.621459 237.444705 l
64.058369 237.444705 l
64.058369 237.553394 l
64.058369 238.169294 l
65.495279 238.169294 l
65.495279 241.058591 l
66.932189 241.058591 l
66.932189 241.094821 l
66.932189 241.366541 l
68.369099 241.366541 l
68.369099 242.534941 l
69.806009 242.534941 l
69.806009 243.313873 l
71.242918 243.313873 l
71.242918 244.110921 l
72.679828 244.110921 l
72.679828 244.545674 l
74.116738 244.545674 l
74.116738 245.297435 l
75.553648 245.297435 l
75.553648 245.659729 l
76.990558 245.659729 l
76.990558 246.538293 l
78.427468 246.538293 l
78.427468 246.710383 l
79.864378 246.710383 l
79.864378 247.02739 l
82.738197 247.02739 l
82.738197 247.172308 l
84.175107 247.172308 l
84.175107 247.326283 l
87.048927 247.380627 l
87.048927 247.815381 l
88.485837 247.815381 l
88.485837 248.114273 l
89.922747 248.114273 l
89.922747 248.376937 l
91.359657 248.376937 l
91.359657 248.621485 l
94.233476 248.712059 l
94.233476 248.784518 l
95.670386 248.784518 l
95.670386 249.128697 l
97.107296 249.128697 l
97.107296 249.246443 l
98.544206 249.246443 l
98.544206 249.364189 l
99.981116 249.364189 l
99.981116 249.545336 l
104.291845 249.617795 l
104.291845 249.663082 l
108.602575 249.753655 l
108.602575 250.125007 l
110.039485 250.125007 l
110.039485 250.505416 l
111.476395 250.505416 l
111.476395 250.659391 l
114.350215 250.659391 l
114.350215 250.822423 l
117.224034 250.90394 l
117.224034 251.166603 l
120.097854 251.266234 l
120.097854 251.329636 l
122.971674 251.38398 l
122.971674 251.565127 l
127.282403 251.637586 l
127.282403 251.710045 l
133.030043 251.782503 l
133.030043 251.845905 l
138.777682 251.954593 l
138.777682 251.963651 l
143.088412 252.072339 l
143.088412 252.108568 l
145.962232 252.162912 l
145.962232 252.181027 l
145.962232 252.253486 l
151.709871 252.316888 l
151.709871 252.380289 l
167.51588 252.488977 l
167.51588 252.498035 l
174.700429 252.570494 l
174.700429 252.61578 l
181.884979 252.706354 l
181.884979 252.805985 l
194.817167 252.914673 l
194.817167 252.950903 l
209.186266 253.059591 l
209.186266 253.077706 l
226.429185 253.186394 l
226.429185 253.195451 l
252.293562 253.30414 l
252.293562 253.313197 l
378.741631 253.421885 l
378.741631 253.430943 l
388.8 253.44 l
388.8 253.44 l
stroke
grestore
0.173 0.627 0.173 setrgbcolor
gsave
334.8 217.4 54 36 clipbox
54 36.009057 m
54 195.264588 l
55.43691 195.264588 l
55.43691 206.939523 l
56.87382 206.939523 l
56.87382 208.923084 l
58.31073 208.923084 l
58.31073 211.513489 l
59.747639 211.513489 l
59.747639 218.369909 l
61.184549 218.369909 l
61.184549 232.100864 l
62.621459 232.100864 l
62.621459 236.15856 l
65.495279 236.176675 l
65.495279 237.906631 l
66.932189 237.906631 l
66.932189 238.821424 l
68.369099 238.821424 l
68.369099 240.306831 l
69.806009 240.306831 l
69.806009 241.248796 l
71.242918 241.248796 l
71.242918 241.765065 l
72.679828 241.765065 l
72.679828 243.929774 l
74.116738 243.929774 l
74.116738 244.35547 l
75.553648 244.35547 l
75.553648 244.527559 l
76.990558 244.527559 l
76.990558 244.744936 l
78.427468 244.744936 l
78.427468 245.134402 l
79.864378 245.134402 l
79.864378 245.496697 l
81.301288 245.496697 l
81.301288 246.2394 l
82.738197 246.2394 l
82.738197 246.746612 l
85.612017 246.837186 l
85.612017 246.89153 l
87.048927 246.89153 l
87.048927 247.036448 l
88.485837 247.036448 l
88.485837 247.081734 l
88.485837 247.561774 l
89.922747 247.561774 l
89.922747 248.232019 l
91.359657 248.232019 l
91.359657 249.047181 l
94.233476 249.137755 l
94.233476 249.509107 l
98.544206 249.617795 l
98.544206 249.681196 l
99.981116 249.681196 l
99.981116 249.916688 l
104.291845 250.007261 l
104.291845 250.125007 l
105.728755 250.125007 l
105.728755 250.351441 l
110.039485 250.405785 l
110.039485 250.849596 l
114.350215 250.876768 l
114.350215 250.967341 l
118.660944 251.066972 l
118.660944 251.085087 l
121.534764 251.121316 l
121.534764 251.248119 l
125.845494 251.338693 l
125.845494 251.474553 l
128.719313 251.51984 l
128.719313 251.737217 l
131.593133 251.764389 l
131.593133 251.882134 l
133.030043 251.882134 l
133.030043 252.036109 l
141.651502 252.144798 l
141.651502 252.162912 l
144.525322 252.244429 l
144.525322 252.280658 l
150.272961 252.389346 l
150.272961 252.452748 l
157.457511 252.543322 l
157.457511 252.579551 l
160.33133 252.597666 l
160.33133 252.715411 l
173.263519 252.8241 l
173.263519 252.896559 l
179.011159 252.969017 l
179.011159 253.014304 l
200.564807 253.113935 l
200.564807 253.13205 l
226.429185 253.231681 l
226.429185 253.249795 l
292.527039 253.358484 l
292.527039 253.367541 l
388.8 253.421885 l
388.8 253.44 l
stroke
grestore
0 setlinecap
[5.55 2.4] 0 setdash
0.000 setgray
gsave
334.8 217.4 54 36 clipbox
54 36 m
388.8 253.44 l
stroke
grestore
0.800 setlinewidth
0 setlinejoin
2 setlinecap
[] 0 setdash
gsave
54 36 m
54 253.44 l
stroke
grestore
gsave
388.8 36 m
388.8 253.44 l
stroke
grestore
gsave
54 36 m
388.8 36 l
stroke
grestore
gsave
54 253.44 m
388.8 253.44 l
stroke
grestore
1.000 setlinewidth
0 setlinecap
0.800 setgray
gsave
185.6125 41 m
381.8 41 l
383.133333 41 383.8 41.666667 383.8 43 c
383.8 86.015625 l
383.8 87.348958 383.133333 88.015625 381.8 88.015625 c
185.6125 88.015625 l
184.279167 88.015625 183.6125 87.348958 183.6125 86.015625 c
183.6125 43 l
183.6125 41.666667 184.279167 41 185.6125 41 c
cl
gsave
1.000 setgray
fill
grestore
stroke
grestore
1.500 setlinewidth
1 setlinejoin
2 setlinecap
[] 0 setdash
0.122 0.467 0.706 setrgbcolor
gsave
187.6125 79.921875 m
207.6125 79.921875 l
stroke
grestore
0.000 setgray
gsave
215.612500 76.421875 translate
0.000000 rotate
0.000000 0.000000 m /S glyphshow
6.347656 0.000000 m /G glyphshow
14.096680 0.000000 m /D glyphshow
21.796875 0.000000 m /C glyphshow
28.779297 0.000000 m /l glyphshow
31.557617 0.000000 m /a glyphshow
37.685547 0.000000 m /s glyphshow
42.895508 0.000000 m /s glyphshow
48.105469 0.000000 m /i glyphshow
50.883789 0.000000 m /f glyphshow
54.404297 0.000000 m /i glyphshow
57.182617 0.000000 m /e glyphshow
63.334961 0.000000 m /r glyphshow
67.446289 0.000000 m /space glyphshow
70.625000 0.000000 m /parenleft glyphshow
74.526367 0.000000 m /a glyphshow
80.654297 0.000000 m /r glyphshow
84.765625 0.000000 m /e glyphshow
90.917969 0.000000 m /a glyphshow
97.045898 0.000000 m /space glyphshow
100.224609 0.000000 m /equal glyphshow
108.603516 0.000000 m /space glyphshow
111.782227 0.000000 m /zero glyphshow
118.144531 0.000000 m /period glyphshow
121.323242 0.000000 m /nine glyphshow
127.685547 0.000000 m /eight glyphshow
134.047852 0.000000 m /parenright glyphshow
grestore
1.000 0.498 0.055 setrgbcolor
gsave
187.6125 65.25 m
207.6125 65.25 l
stroke
grestore
0.000 setgray
gsave
215.612500 61.750000 translate
0.000000 rotate
0.000000 0.000000 m /L glyphshow
5.571289 0.000000 m /o glyphshow
11.689453 0.000000 m /g glyphshow
18.037109 0.000000 m /i glyphshow
20.815430 0.000000 m /s glyphshow
26.025391 0.000000 m /t glyphshow
29.946289 0.000000 m /i glyphshow
32.724609 0.000000 m /c glyphshow
38.222656 0.000000 m /R glyphshow
45.170898 0.000000 m /e glyphshow
51.323242 0.000000 m /g glyphshow
57.670898 0.000000 m /r glyphshow
61.782227 0.000000 m /e glyphshow
67.934570 0.000000 m /s glyphshow
73.144531 0.000000 m /s glyphshow
78.354492 0.000000 m /i glyphshow
81.132812 0.000000 m /o glyphshow
87.250977 0.000000 m /n glyphshow
93.588867 0.000000 m /space glyphshow
96.767578 0.000000 m /parenleft glyphshow
100.668945 0.000000 m /a glyphshow
106.796875 0.000000 m /r glyphshow
110.908203 0.000000 m /e glyphshow
117.060547 0.000000 m /a glyphshow
123.188477 0.000000 m /space glyphshow
126.367188 0.000000 m /equal glyphshow
134.746094 0.000000 m /space glyphshow
137.924805 0.000000 m /zero glyphshow
144.287109 0.000000 m /period glyphshow
147.465820 0.000000 m /nine glyphshow
153.828125 0.000000 m /nine glyphshow
160.190430 0.000000 m /parenright glyphshow
grestore
0.173 0.627 0.173 setrgbcolor
gsave
187.6125 50.578125 m
207.6125 50.578125 l
stroke
grestore
0.000 setgray
gsave
215.612500 47.078125 translate
0.000000 rotate
0.000000 0.000000 m /M glyphshow
8.627930 0.000000 m /u glyphshow
14.965820 0.000000 m /l glyphshow
17.744141 0.000000 m /t glyphshow
21.665039 0.000000 m /i glyphshow
24.443359 0.000000 m /n glyphshow
30.781250 0.000000 m /o glyphshow
36.899414 0.000000 m /m glyphshow
46.640625 0.000000 m /i glyphshow
49.418945 0.000000 m /a glyphshow
55.546875 0.000000 m /l glyphshow
58.325195 0.000000 m /N glyphshow
65.805664 0.000000 m /B glyphshow
72.666016 0.000000 m /space glyphshow
75.844727 0.000000 m /parenleft glyphshow
79.746094 0.000000 m /a glyphshow
85.874023 0.000000 m /r glyphshow
89.985352 0.000000 m /e glyphshow
96.137695 0.000000 m /a glyphshow
102.265625 0.000000 m /space glyphshow
105.444336 0.000000 m /equal glyphshow
113.823242 0.000000 m /space glyphshow
117.001953 0.000000 m /zero glyphshow
123.364258 0.000000 m /period glyphshow
126.542969 0.000000 m /nine glyphshow
132.905273 0.000000 m /nine glyphshow
139.267578 0.000000 m /parenright glyphshow
grestore

end
showpage
