%!PS-Adobe-3.0 EPSF-3.0
%%Title: SGDClassifier-prec-rec-thresh.eps
%%Creator: matplotlib version 3.0.3, http://matplotlib.org/
%%CreationDate: Thu May 16 19:08:03 2019
%%Orientation: portrait
%%BoundingBox: 90 252 522 540
%%EndComments
%%BeginProlog
/mpldict 8 dict def
mpldict begin
/m { moveto } bind def
/l { lineto } bind def
/r { rlineto } bind def
/c { curveto } bind def
/cl { closepath } bind def
/box {
m
1 index 0 r
0 exch r
neg 0 r
cl
} bind def
/clipbox {
box
clip
newpath
} bind def
%!PS-Adobe-3.0 Resource-Font
%%Title: DejaVu Sans
%%Copyright: Copyright (c) 2003 by Bitstream, Inc. All Rights Reserved. Copyright (c) 2006 by Tavmjong Bah. All Rights Reserved. DejaVu changes are in public domain 
%%Creator: Converted from TrueType to type 3 by PPR
25 dict begin
/_d{bind def}bind def
/_m{moveto}_d
/_l{lineto}_d
/_cl{closepath eofill}_d
/_c{curveto}_d
/_sc{7 -1 roll{setcachedevice}{pop pop pop pop pop pop}ifelse}_d
/_e{exec}_d
/FontName /DejaVuSans def
/PaintType 0 def
/FontMatrix[.001 0 0 .001 0 0]def
/FontBBox[-1021 -463 1793 1232]def
/FontType 3 def
/Encoding [ /space /comma /hyphen /period /zero /one /two /four /six /eight /C /F /P /R /T /a /c /d /e /h /i /l /n /o /r /s /t /v ] def
/FontInfo 10 dict dup begin
/FamilyName (DejaVu Sans) def
/FullName (DejaVu Sans) def
/Notice (Copyright (c) 2003 by Bitstream, Inc. All Rights Reserved. Copyright (c) 2006 by Tavmjong Bah. All Rights Reserved. DejaVu changes are in public domain ) def
/Weight (Book) def
/Version (Version 2.35) def
/ItalicAngle 0.0 def
/isFixedPitch false def
/UnderlinePosition -130 def
/UnderlineThickness 90 def
end readonly def
/CharStrings 29 dict dup begin
/.notdef 0 def
/space{318 0 0 0 0 0 _sc
}_d
/comma{318 0 77 -115 220 124 _sc
117 124 _m
220 124 _l
220 40 _l
140 -115 _l
77 -115 _l
117 40 _l
117 124 _l
_cl}_d
/hyphen{361 0 49 234 312 314 _sc
49 314 _m
312 314 _l
312 234 _l
49 234 _l
49 314 _l
_cl}_d
/period{318 0 107 0 210 124 _sc
107 124 _m
210 124 _l
210 0 _l
107 0 _l
107 124 _l
_cl}_d
/zero{636 0 66 -13 570 742 _sc
318 664 _m
267 664 229 639 203 589 _c
177 539 165 464 165 364 _c
165 264 177 189 203 139 _c
229 89 267 64 318 64 _c
369 64 407 89 433 139 _c
458 189 471 264 471 364 _c
471 464 458 539 433 589 _c
407 639 369 664 318 664 _c
318 742 _m
399 742 461 709 505 645 _c
548 580 570 486 570 364 _c
570 241 548 147 505 83 _c
461 19 399 -13 318 -13 _c
236 -13 173 19 130 83 _c
87 147 66 241 66 364 _c
66 486 87 580 130 645 _c
173 709 236 742 318 742 _c
_cl}_d
/one{636 0 110 0 544 729 _sc
124 83 _m
285 83 _l
285 639 _l
110 604 _l
110 694 _l
284 729 _l
383 729 _l
383 83 _l
544 83 _l
544 0 _l
124 0 _l
124 83 _l
_cl}_d
/two{{636 0 73 0 536 742 _sc
192 83 _m
536 83 _l
536 0 _l
73 0 _l
73 83 _l
110 121 161 173 226 239 _c
290 304 331 346 348 365 _c
380 400 402 430 414 455 _c
426 479 433 504 433 528 _c
433 566 419 598 392 622 _c
365 646 330 659 286 659 _c
255 659 222 653 188 643 _c
154 632 117 616 78 594 _c
78 694 _l
118 710 155 722 189 730 _c
223 738 255 742 284 742 _c
}_e{359 742 419 723 464 685 _c
509 647 532 597 532 534 _c
532 504 526 475 515 449 _c
504 422 484 390 454 354 _c
446 344 420 317 376 272 _c
332 227 271 164 192 83 _c
_cl}_e}_d
/four{636 0 49 0 580 729 _sc
378 643 _m
129 254 _l
378 254 _l
378 643 _l
352 729 _m
476 729 _l
476 254 _l
580 254 _l
580 172 _l
476 172 _l
476 0 _l
378 0 _l
378 172 _l
49 172 _l
49 267 _l
352 729 _l
_cl}_d
/six{{636 0 70 -13 573 742 _sc
330 404 _m
286 404 251 388 225 358 _c
199 328 186 286 186 234 _c
186 181 199 139 225 109 _c
251 79 286 64 330 64 _c
374 64 409 79 435 109 _c
461 139 474 181 474 234 _c
474 286 461 328 435 358 _c
409 388 374 404 330 404 _c
526 713 _m
526 623 _l
501 635 476 644 451 650 _c
425 656 400 659 376 659 _c
310 659 260 637 226 593 _c
}_e{192 549 172 482 168 394 _c
187 422 211 444 240 459 _c
269 474 301 482 336 482 _c
409 482 467 459 509 415 _c
551 371 573 310 573 234 _c
573 159 550 99 506 54 _c
462 9 403 -13 330 -13 _c
246 -13 181 19 137 83 _c
92 147 70 241 70 364 _c
70 479 97 571 152 639 _c
206 707 280 742 372 742 _c
396 742 421 739 447 735 _c
472 730 498 723 526 713 _c
_cl}_e}_d
/eight{{636 0 68 -13 568 742 _sc
318 346 _m
271 346 234 333 207 308 _c
180 283 167 249 167 205 _c
167 161 180 126 207 101 _c
234 76 271 64 318 64 _c
364 64 401 76 428 102 _c
455 127 469 161 469 205 _c
469 249 455 283 429 308 _c
402 333 365 346 318 346 _c
219 388 _m
177 398 144 418 120 447 _c
96 476 85 511 85 553 _c
85 611 105 657 147 691 _c
188 725 245 742 318 742 _c
}_e{390 742 447 725 489 691 _c
530 657 551 611 551 553 _c
551 511 539 476 515 447 _c
491 418 459 398 417 388 _c
464 377 501 355 528 323 _c
554 291 568 251 568 205 _c
568 134 546 80 503 43 _c
459 5 398 -13 318 -13 _c
237 -13 175 5 132 43 _c
89 80 68 134 68 205 _c
68 251 81 291 108 323 _c
134 355 171 377 219 388 _c
183 544 _m
183 506 194 476 218 455 _c
}_e{242 434 275 424 318 424 _c
360 424 393 434 417 455 _c
441 476 453 506 453 544 _c
453 582 441 611 417 632 _c
393 653 360 664 318 664 _c
275 664 242 653 218 632 _c
194 611 183 582 183 544 _c
_cl}_e}_d
/C{{698 0 56 -13 644 742 _sc
644 673 _m
644 569 _l
610 599 575 622 537 638 _c
499 653 460 661 418 661 _c
334 661 270 635 226 584 _c
182 533 160 460 160 364 _c
160 268 182 194 226 143 _c
270 92 334 67 418 67 _c
460 67 499 74 537 90 _c
575 105 610 128 644 159 _c
644 56 _l
609 32 572 15 534 4 _c
496 -7 455 -13 412 -13 _c
302 -13 215 20 151 87 _c
}_e{87 154 56 246 56 364 _c
56 481 87 573 151 641 _c
215 708 302 742 412 742 _c
456 742 497 736 535 725 _c
573 713 610 696 644 673 _c
_cl}_e}_d
/F{575 0 98 0 517 729 _sc
98 729 _m
517 729 _l
517 646 _l
197 646 _l
197 431 _l
486 431 _l
486 348 _l
197 348 _l
197 0 _l
98 0 _l
98 729 _l
_cl}_d
/P{603 0 98 0 569 729 _sc
197 648 _m
197 374 _l
321 374 _l
367 374 402 385 427 409 _c
452 433 465 467 465 511 _c
465 555 452 588 427 612 _c
402 636 367 648 321 648 _c
197 648 _l
98 729 _m
321 729 _l
402 729 464 710 506 673 _c
548 636 569 582 569 511 _c
569 439 548 384 506 348 _c
464 311 402 293 321 293 _c
197 293 _l
197 0 _l
98 0 _l
98 729 _l
_cl}_d
/R{{695 0 98 0 666 729 _sc
444 342 _m
465 334 486 319 506 296 _c
526 272 546 240 566 199 _c
666 0 _l
560 0 _l
467 187 _l
443 235 419 268 397 284 _c
374 300 343 308 304 308 _c
197 308 _l
197 0 _l
98 0 _l
98 729 _l
321 729 _l
404 729 466 711 507 677 _c
548 642 569 589 569 519 _c
569 473 558 434 537 404 _c
515 374 484 353 444 342 _c
197 648 _m
197 389 _l
321 389 _l
}_e{368 389 404 400 428 422 _c
452 444 465 476 465 519 _c
465 561 452 593 428 615 _c
404 637 368 648 321 648 _c
197 648 _l
_cl}_e}_d
/T{611 0 -2 0 614 729 _sc
-2 729 _m
614 729 _l
614 646 _l
355 646 _l
355 0 _l
256 0 _l
256 646 _l
-2 646 _l
-2 729 _l
_cl}_d
/a{{613 0 60 -13 522 560 _sc
343 275 _m
270 275 220 266 192 250 _c
164 233 150 205 150 165 _c
150 133 160 107 181 89 _c
202 70 231 61 267 61 _c
317 61 357 78 387 114 _c
417 149 432 196 432 255 _c
432 275 _l
343 275 _l
522 312 _m
522 0 _l
432 0 _l
432 83 _l
411 49 385 25 355 10 _c
325 -5 287 -13 243 -13 _c
187 -13 142 2 109 33 _c
76 64 60 106 60 159 _c
}_e{60 220 80 266 122 298 _c
163 329 224 345 306 345 _c
432 345 _l
432 354 _l
432 395 418 427 391 450 _c
364 472 326 484 277 484 _c
245 484 215 480 185 472 _c
155 464 127 453 100 439 _c
100 522 _l
132 534 164 544 195 550 _c
226 556 256 560 286 560 _c
365 560 424 539 463 498 _c
502 457 522 395 522 312 _c
_cl}_e}_d
/c{{550 0 55 -13 488 560 _sc
488 526 _m
488 442 _l
462 456 437 466 411 473 _c
385 480 360 484 334 484 _c
276 484 230 465 198 428 _c
166 391 150 339 150 273 _c
150 206 166 154 198 117 _c
230 80 276 62 334 62 _c
360 62 385 65 411 72 _c
437 79 462 90 488 104 _c
488 21 _l
462 9 436 0 410 -5 _c
383 -10 354 -13 324 -13 _c
242 -13 176 12 128 64 _c
}_e{79 115 55 185 55 273 _c
55 362 79 432 128 483 _c
177 534 244 560 330 560 _c
358 560 385 557 411 551 _c
437 545 463 537 488 526 _c
_cl}_e}_d
/d{{635 0 55 -13 544 760 _sc
454 464 _m
454 760 _l
544 760 _l
544 0 _l
454 0 _l
454 82 _l
435 49 411 25 382 10 _c
353 -5 319 -13 279 -13 _c
213 -13 159 13 117 65 _c
75 117 55 187 55 273 _c
55 359 75 428 117 481 _c
159 533 213 560 279 560 _c
319 560 353 552 382 536 _c
411 520 435 496 454 464 _c
148 273 _m
148 207 161 155 188 117 _c
215 79 253 61 301 61 _c
}_e{348 61 385 79 413 117 _c
440 155 454 207 454 273 _c
454 339 440 390 413 428 _c
385 466 348 485 301 485 _c
253 485 215 466 188 428 _c
161 390 148 339 148 273 _c
_cl}_e}_d
/e{{615 0 55 -13 562 560 _sc
562 296 _m
562 252 _l
149 252 _l
153 190 171 142 205 110 _c
238 78 284 62 344 62 _c
378 62 412 66 444 74 _c
476 82 509 95 541 113 _c
541 28 _l
509 14 476 3 442 -3 _c
408 -9 373 -13 339 -13 _c
251 -13 182 12 131 62 _c
80 112 55 181 55 268 _c
55 357 79 428 127 481 _c
175 533 241 560 323 560 _c
397 560 455 536 498 489 _c
}_e{540 441 562 377 562 296 _c
472 322 _m
471 371 457 410 431 440 _c
404 469 368 484 324 484 _c
274 484 234 469 204 441 _c
174 413 156 373 152 322 _c
472 322 _l
_cl}_e}_d
/h{634 0 91 0 549 760 _sc
549 330 _m
549 0 _l
459 0 _l
459 327 _l
459 379 448 417 428 443 _c
408 469 378 482 338 482 _c
289 482 251 466 223 435 _c
195 404 181 362 181 309 _c
181 0 _l
91 0 _l
91 760 _l
181 760 _l
181 462 _l
202 494 227 519 257 535 _c
286 551 320 560 358 560 _c
420 560 468 540 500 501 _c
532 462 549 405 549 330 _c
_cl}_d
/i{278 0 94 0 184 760 _sc
94 547 _m
184 547 _l
184 0 _l
94 0 _l
94 547 _l
94 760 _m
184 760 _l
184 646 _l
94 646 _l
94 760 _l
_cl}_d
/l{278 0 94 0 184 760 _sc
94 760 _m
184 760 _l
184 0 _l
94 0 _l
94 760 _l
_cl}_d
/n{634 0 91 0 549 560 _sc
549 330 _m
549 0 _l
459 0 _l
459 327 _l
459 379 448 417 428 443 _c
408 469 378 482 338 482 _c
289 482 251 466 223 435 _c
195 404 181 362 181 309 _c
181 0 _l
91 0 _l
91 547 _l
181 547 _l
181 462 _l
202 494 227 519 257 535 _c
286 551 320 560 358 560 _c
420 560 468 540 500 501 _c
532 462 549 405 549 330 _c
_cl}_d
/o{612 0 55 -13 557 560 _sc
306 484 _m
258 484 220 465 192 427 _c
164 389 150 338 150 273 _c
150 207 163 156 191 118 _c
219 80 257 62 306 62 _c
354 62 392 80 420 118 _c
448 156 462 207 462 273 _c
462 337 448 389 420 427 _c
392 465 354 484 306 484 _c
306 560 _m
384 560 445 534 490 484 _c
534 433 557 363 557 273 _c
557 183 534 113 490 63 _c
445 12 384 -13 306 -13 _c
227 -13 165 12 121 63 _c
77 113 55 183 55 273 _c
55 363 77 433 121 484 _c
165 534 227 560 306 560 _c
_cl}_d
/r{411 0 91 0 411 560 _sc
411 463 _m
401 469 390 473 378 476 _c
366 478 353 480 339 480 _c
288 480 249 463 222 430 _c
194 397 181 350 181 288 _c
181 0 _l
91 0 _l
91 547 _l
181 547 _l
181 462 _l
199 495 224 520 254 536 _c
284 552 321 560 365 560 _c
371 560 378 559 386 559 _c
393 558 401 557 411 555 _c
411 463 _l
_cl}_d
/s{{521 0 54 -13 472 560 _sc
443 531 _m
443 446 _l
417 458 391 468 364 475 _c
336 481 308 485 279 485 _c
234 485 200 478 178 464 _c
156 450 145 430 145 403 _c
145 382 153 366 169 354 _c
185 342 217 330 265 320 _c
296 313 _l
360 299 405 279 432 255 _c
458 230 472 195 472 151 _c
472 100 452 60 412 31 _c
372 1 316 -13 246 -13 _c
216 -13 186 -10 154 -5 _c
}_e{122 0 89 8 54 20 _c
54 113 _l
87 95 120 82 152 74 _c
184 65 216 61 248 61 _c
290 61 323 68 346 82 _c
368 96 380 117 380 144 _c
380 168 371 187 355 200 _c
339 213 303 226 247 238 _c
216 245 _l
160 257 119 275 95 299 _c
70 323 58 356 58 399 _c
58 450 76 490 112 518 _c
148 546 200 560 268 560 _c
301 560 332 557 362 552 _c
391 547 418 540 443 531 _c
}_e{_cl}_e}_d
/t{392 0 27 0 368 702 _sc
183 702 _m
183 547 _l
368 547 _l
368 477 _l
183 477 _l
183 180 _l
183 135 189 106 201 94 _c
213 81 238 75 276 75 _c
368 75 _l
368 0 _l
276 0 _l
206 0 158 13 132 39 _c
106 65 93 112 93 180 _c
93 477 _l
27 477 _l
27 547 _l
93 547 _l
93 702 _l
183 702 _l
_cl}_d
/v{592 0 30 0 562 547 _sc
30 547 _m
125 547 _l
296 88 _l
467 547 _l
562 547 _l
357 0 _l
235 0 _l
30 547 _l
_cl}_d
end readonly def

/BuildGlyph
 {exch begin
 CharStrings exch
 2 copy known not{pop /.notdef}if
 true 3 1 roll get exec
 end}_d

/BuildChar {
 1 index /Encoding get exch get
 1 index /BuildGlyph get exec
}_d

FontName currentdict end definefont pop
end
%%EndProlog
mpldict begin
90 252 translate
432 288 0 0 clipbox
gsave
0 0 m
432 0 l
432 288 l
0 288 l
cl
1.000 setgray
fill
grestore
gsave
54 36 m
388.8 36 l
388.8 253.44 l
54 253.44 l
cl
1.000 setgray
fill
grestore
0.800 setlinewidth
1 setlinejoin
0 setlinecap
[] 0 setdash
0.000 setgray
gsave
/o {
gsave
newpath
translate
0.8 setlinewidth
1 setlinejoin
0 setlinecap
0 0 m
0 -3.5 l

gsave
0.000 setgray
fill
grestore
stroke
grestore
} bind def
67.3419 36 o
grestore
/DejaVuSans findfont
10.000 scalefont
setfont
gsave
59.388760 21.406250 translate
0.000000 rotate
0.000000 0.000000 m /zero glyphshow
6.362305 0.000000 m /period glyphshow
9.541016 0.000000 m /zero glyphshow
grestore
gsave
/o {
gsave
newpath
translate
0.8 setlinewidth
1 setlinejoin
0 setlinecap
0 0 m
0 -3.5 l

gsave
0.000 setgray
fill
grestore
stroke
grestore
} bind def
128.663 36 o
grestore
gsave
120.709556 21.406250 translate
0.000000 rotate
0.000000 0.000000 m /zero glyphshow
6.362305 0.000000 m /period glyphshow
9.541016 0.000000 m /two glyphshow
grestore
gsave
/o {
gsave
newpath
translate
0.8 setlinewidth
1 setlinejoin
0 setlinecap
0 0 m
0 -3.5 l

gsave
0.000 setgray
fill
grestore
stroke
grestore
} bind def
189.983 36 o
grestore
gsave
182.030353 21.406250 translate
0.000000 rotate
0.000000 0.000000 m /zero glyphshow
6.362305 0.000000 m /period glyphshow
9.541016 0.000000 m /four glyphshow
grestore
gsave
/o {
gsave
newpath
translate
0.8 setlinewidth
1 setlinejoin
0 setlinecap
0 0 m
0 -3.5 l

gsave
0.000 setgray
fill
grestore
stroke
grestore
} bind def
251.304 36 o
grestore
gsave
243.351149 21.406250 translate
0.000000 rotate
0.000000 0.000000 m /zero glyphshow
6.362305 0.000000 m /period glyphshow
9.541016 0.000000 m /six glyphshow
grestore
gsave
/o {
gsave
newpath
translate
0.8 setlinewidth
1 setlinejoin
0 setlinecap
0 0 m
0 -3.5 l

gsave
0.000 setgray
fill
grestore
stroke
grestore
} bind def
312.625 36 o
grestore
gsave
304.671946 21.406250 translate
0.000000 rotate
0.000000 0.000000 m /zero glyphshow
6.362305 0.000000 m /period glyphshow
9.541016 0.000000 m /eight glyphshow
grestore
gsave
/o {
gsave
newpath
translate
0.8 setlinewidth
1 setlinejoin
0 setlinecap
0 0 m
0 -3.5 l

gsave
0.000 setgray
fill
grestore
stroke
grestore
} bind def
373.946 36 o
grestore
gsave
365.992742 21.406250 translate
0.000000 rotate
0.000000 0.000000 m /one glyphshow
6.362305 0.000000 m /period glyphshow
9.541016 0.000000 m /zero glyphshow
grestore
gsave
196.634375 7.734375 translate
0.000000 rotate
0.000000 0.000000 m /T glyphshow
6.108398 0.000000 m /h glyphshow
12.446289 0.000000 m /r glyphshow
16.557617 0.000000 m /e glyphshow
22.709961 0.000000 m /s glyphshow
27.919922 0.000000 m /h glyphshow
34.257812 0.000000 m /o glyphshow
40.375977 0.000000 m /l glyphshow
43.154297 0.000000 m /d glyphshow
grestore
gsave
/o {
gsave
newpath
translate
0.8 setlinewidth
1 setlinejoin
0 setlinecap
0 0 m
-3.5 0 l

gsave
0.000 setgray
fill
grestore
stroke
grestore
} bind def
54 36 o
grestore
gsave
31.093750 32.203125 translate
0.000000 rotate
0.000000 0.000000 m /zero glyphshow
6.362305 0.000000 m /period glyphshow
9.541016 0.000000 m /zero glyphshow
grestore
gsave
/o {
gsave
newpath
translate
0.8 setlinewidth
1 setlinejoin
0 setlinecap
0 0 m
-3.5 0 l

gsave
0.000 setgray
fill
grestore
stroke
grestore
} bind def
54 79.488 o
grestore
gsave
31.093750 75.691125 translate
0.000000 rotate
0.000000 0.000000 m /zero glyphshow
6.362305 0.000000 m /period glyphshow
9.541016 0.000000 m /two glyphshow
grestore
gsave
/o {
gsave
newpath
translate
0.8 setlinewidth
1 setlinejoin
0 setlinecap
0 0 m
-3.5 0 l

gsave
0.000 setgray
fill
grestore
stroke
grestore
} bind def
54 122.976 o
grestore
gsave
31.093750 119.179125 translate
0.000000 rotate
0.000000 0.000000 m /zero glyphshow
6.362305 0.000000 m /period glyphshow
9.541016 0.000000 m /four glyphshow
grestore
gsave
/o {
gsave
newpath
translate
0.8 setlinewidth
1 setlinejoin
0 setlinecap
0 0 m
-3.5 0 l

gsave
0.000 setgray
fill
grestore
stroke
grestore
} bind def
54 166.464 o
grestore
gsave
31.093750 162.667125 translate
0.000000 rotate
0.000000 0.000000 m /zero glyphshow
6.362305 0.000000 m /period glyphshow
9.541016 0.000000 m /six glyphshow
grestore
gsave
/o {
gsave
newpath
translate
0.8 setlinewidth
1 setlinejoin
0 setlinecap
0 0 m
-3.5 0 l

gsave
0.000 setgray
fill
grestore
stroke
grestore
} bind def
54 209.952 o
grestore
gsave
31.093750 206.155125 translate
0.000000 rotate
0.000000 0.000000 m /zero glyphshow
6.362305 0.000000 m /period glyphshow
9.541016 0.000000 m /eight glyphshow
grestore
gsave
/o {
gsave
newpath
translate
0.8 setlinewidth
1 setlinejoin
0 setlinecap
0 0 m
-3.5 0 l

gsave
0.000 setgray
fill
grestore
stroke
grestore
} bind def
54 253.44 o
grestore
gsave
31.093750 249.643125 translate
0.000000 rotate
0.000000 0.000000 m /one glyphshow
6.362305 0.000000 m /period glyphshow
9.541016 0.000000 m /zero glyphshow
grestore
gsave
25.015625 94.618437 translate
90.000000 rotate
0.000000 0.000000 m /P glyphshow
6.030273 0.000000 m /r glyphshow
10.141602 0.000000 m /e glyphshow
16.293945 0.000000 m /c glyphshow
21.791992 0.000000 m /i glyphshow
24.570312 0.000000 m /s glyphshow
29.780273 0.000000 m /i glyphshow
32.558594 0.000000 m /o glyphshow
38.676758 0.000000 m /n glyphshow
45.014648 0.000000 m /comma glyphshow
48.193359 0.000000 m /space glyphshow
51.372070 0.000000 m /R glyphshow
58.320312 0.000000 m /e glyphshow
64.472656 0.000000 m /c glyphshow
69.970703 0.000000 m /a glyphshow
76.098633 0.000000 m /l glyphshow
78.876953 0.000000 m /l glyphshow
81.655273 0.000000 m /comma glyphshow
84.833984 0.000000 m /space glyphshow
88.012695 0.000000 m /F glyphshow
93.764648 0.000000 m /one glyphshow
grestore
1.500 setlinewidth
[5.55 2.4] 0 setdash
0.000 0.000 1.000 setrgbcolor
gsave
334.8 217.4 54 36 clipbox
69.218182 251.071451 m
75.231884 251.177245 l
91.098179 251.390036 l
94.788477 251.568 l
136.823944 252.206812 l
142.413924 252.312614 l
148.222753 252.383759 l
160.667338 252.487761 l
162.464943 252.523614 l
167.397749 252.631809 l
170.274718 252.704287 l
177.01272 252.774367 l
178.214144 252.810919 l
184.820604 252.919097 l
185.272033 252.95589 l
195.919724 253.025972 l
196.022966 253.06335 l
209.640257 253.13261 l
210.619335 253.17051 l
223.037134 253.242686 l
223.182617 253.282034 l
247.589317 253.354309 l
247.701723 253.397112 l
373.581818 253.44 l
373.581818 253.44 l
stroke
grestore
1.000 0.000 0.000 setrgbcolor
gsave
334.8 217.4 54 36 clipbox
69.218182 253.44 m
87.063901 253.367435 l
98.300469 253.258588 l
99.106686 253.186024 l
103.668423 253.113459 l
118.977271 253.004612 l
131.645553 252.569224 l
133.699598 252.460377 l
136.635044 252.315248 l
137.583753 252.206401 l
139.347349 252.097554 l
139.783318 252.024989 l
141.482651 251.87986 l
143.702304 251.771013 l
148.222753 251.553319 l
150.364003 251.335625 l
150.534078 251.26306 l
153.818832 251.081649 l
154.127991 251.009084 l
155.040419 250.936519 l
158.362344 250.718825 l
170.385141 249.70292 l
170.930294 249.594073 l
172.972047 249.303814 l
174.364341 249.049838 l
181.633237 247.997651 l
182.24685 247.816239 l
183.440259 247.707392 l
185.172618 247.417133 l
185.941787 247.163157 l
188.581109 246.800334 l
188.758324 246.691487 l
190.468685 246.292381 l
191.522975 246.110969 l
192.074153 246.002122 l
193.953609 245.893275 l
195.185383 245.639299 l
195.50662 245.457888 l
195.939086 245.167629 l
196.104841 245.0225 l
196.886066 244.804806 l
196.965195 244.768523 l
197.881687 244.587112 l
198.367565 244.514547 l
198.801102 244.4057 l
198.826796 244.260571 l
199.346167 244.079159 l
200.310426 243.680053 l
200.78246 243.534924 l
200.809073 243.462359 l
203.309403 242.954407 l
203.996446 242.809277 l
204.001573 242.772995 l
205.59101 242.37389 l
205.666453 242.337607 l
206.141492 242.192478 l
206.237441 242.119913 l
209.640257 241.031443 l
210.044076 240.922596 l
210.864898 240.523491 l
211.456307 240.378361 l
212.340921 240.05182 l
212.604945 239.870409 l
212.613622 239.797844 l
213.45447 239.616433 l
213.569878 239.507586 l
214.202408 239.289892 l
214.313837 239.144762 l
214.956978 238.854504 l
214.95721 238.818221 l
216.057575 238.564245 l
216.788063 238.419116 l
218.563722 237.475775 l
220.065987 236.750128 l
220.754283 236.568717 l
222.52085 235.84307 l
223.105014 235.697941 l
223.490407 235.516529 l
224.383503 235.226271 l
224.563833 235.081141 l
228.303612 233.19446 l
228.512523 233.013049 l
228.801276 232.867919 l
228.924538 232.759072 l
232.928617 230.582132 l
232.982564 230.473285 l
233.384604 230.255592 l
233.677887 230.037898 l
234.306239 229.747639 l
234.525875 229.493663 l
235.336157 229.167122 l
235.964295 228.768016 l
236.352745 228.477757 l
236.452848 228.405193 l
236.787342 228.151216 l
237.08862 228.006087 l
238.08505 227.244158 l
238.500037 227.062747 l
238.844801 226.663641 l
239.118014 226.518512 l
239.27655 226.3371 l
239.54334 226.191971 l
239.711215 226.010559 l
239.854299 225.901712 l
240.511923 225.647736 l
240.752266 225.502606 l
240.784799 225.430042 l
241.017779 225.284912 l
241.338278 224.958371 l
241.872878 224.77696 l
241.934811 224.63183 l
242.258552 224.377854 l
242.422185 224.123878 l
242.840462 223.942466 l
243.156785 223.652208 l
243.81554 223.434514 l
244.115741 223.07169 l
244.257343 222.853996 l
244.898242 222.491173 l
245.217936 222.309761 l
246.706223 221.293856 l
246.870133 221.003598 l
247.079838 220.785904 l
247.158004 220.604492 l
247.385443 220.386798 l
247.531419 220.132822 l
247.701723 219.915128 l
247.981592 219.588587 l
248.405104 219.225763 l
248.471469 219.116916 l
248.989893 218.86294 l
249.120088 218.681528 l
250.013909 218.101011 l
250.150608 217.955882 l
250.993922 217.593059 l
251.323305 217.266518 l
251.689496 216.903694 l
252.13539 216.613436 l
252.598439 216.141765 l
253.08686 215.74266 l
253.24873 215.524966 l
253.469071 215.162142 l
253.809179 214.908166 l
254.417937 214.255084 l
254.716352 213.964826 l
255.216242 213.747132 l
255.296143 213.638285 l
255.564655 213.493155 l
255.68806 213.384308 l
255.973839 213.166614 l
256.810692 212.47725 l
257.520061 212.00558 l
257.666928 211.751604 l
257.872208 211.606474 l
257.984872 211.38878 l
259.736281 209.792358 l
259.913561 209.610946 l
260.023532 209.320687 l
260.719953 208.703888 l
260.884496 208.558759 l
261.062659 208.377347 l
262.265168 207.252595 l
262.534633 207.034901 l
262.660955 206.926054 l
262.868985 206.744642 l
263.162857 206.454383 l
263.571015 206.200407 l
263.721464 205.946431 l
264.003726 205.547325 l
264.104109 205.365914 l
264.429303 205.00309 l
264.756616 204.567702 l
264.876425 204.422573 l
265.589154 203.987185 l
265.708135 203.696926 l
267.592109 201.701398 l
267.627857 201.592551 l
268.06912 201.338575 l
268.197418 201.26601 l
268.359028 201.084599 l
268.456035 200.939469 l
268.769392 200.685493 l
269.095398 200.17754 l
269.330496 199.996129 l
269.474535 199.70587 l
269.802271 199.488176 l
270.06628 198.980224 l
270.25882 198.798812 l
270.277786 198.76253 l
270.585725 198.6174 l
270.778401 198.508553 l
270.955494 198.363424 l
271.055948 198.14573 l
271.269267 197.819189 l
271.61673 197.420083 l
271.731805 197.347519 l
271.940432 197.202389 l
272.088516 197.05726 l
272.259731 196.875848 l
272.572347 196.295331 l
272.650311 196.150202 l
273.283872 195.642249 l
273.536952 195.315708 l
273.927418 194.952885 l
274.032305 194.735191 l
275.853193 193.283898 l
276.058378 193.138769 l
276.350189 192.739663 l
276.44373 192.521969 l
276.566988 192.37684 l
278.045677 190.744135 l
278.167435 190.417594 l
279.737297 188.349501 l
279.824663 188.240654 l
279.91405 188.059242 l
280.336484 187.297314 l
280.41679 187.115902 l
280.523642 186.898208 l
280.76798 186.716796 l
281.170913 186.099997 l
281.262538 185.954867 l
281.936439 185.301785 l
282.002448 185.120374 l
282.444945 184.721268 l
282.549582 184.467292 l
282.659181 184.249598 l
282.770582 183.995622 l
283.007194 183.669081 l
283.242028 183.523951 l
284.03069 182.870869 l
284.248761 182.580611 l
284.381098 182.399199 l
284.618319 182.10894 l
284.86428 181.891246 l
286.271309 179.968283 l
286.484121 179.823154 l
286.635614 179.532895 l
287.00884 179.206354 l
288.058308 177.791343 l
288.203055 177.42852 l
288.301265 177.210826 l
288.379397 177.138261 l
288.575148 176.95685 l
289.266614 175.86838 l
289.39984 175.686968 l
289.999893 174.271957 l
290.139201 174.126828 l
290.803241 173.07464 l
290.931002 172.748099 l
291.034049 172.566688 l
291.625756 171.65963 l
291.916687 171.333089 l
292.008757 171.187959 l
292.18724 170.933983 l
292.26294 170.716289 l
292.384805 170.498595 l
292.498547 170.42603 l
292.632945 170.208336 l
292.771125 169.772948 l
292.882729 169.627819 l
292.993903 169.373843 l
293.280041 169.119867 l
293.421561 168.938455 l
293.63935 168.720761 l
294.216577 167.741138 l
294.408683 167.559726 l
294.898571 166.797797 l
295.113213 166.652668 l
295.520786 165.600481 l
295.693381 165.346504 l
296.135321 164.330599 l
296.820213 163.242129 l
296.977065 162.988153 l
297.125498 162.697894 l
297.2779 162.443918 l
297.439947 162.189942 l
297.524209 162.044812 l
297.832569 161.827118 l
298.255537 161.101472 l
298.336013 160.738648 l
298.577202 160.557237 l
298.685687 160.412107 l
298.877726 160.194413 l
298.980734 159.97672 l
299.143591 159.650179 l
299.280684 159.468767 l
299.672692 158.851967 l
299.793767 158.670556 l
299.873667 158.489144 l
300.026396 158.126321 l
300.339017 157.79978 l
300.521377 157.65465 l
300.678035 157.473239 l
301.030654 156.783875 l
301.836721 155.731687 l
302.3618 154.606935 l
303.002874 153.808724 l
303.792152 152.792818 l
303.97502 152.611407 l
304.121944 152.321148 l
304.270824 152.139736 l
304.363929 151.958325 l
304.678213 151.813195 l
305.380147 150.398185 l
305.698088 150.216773 l
305.9187 149.85395 l
306.198925 149.273432 l
306.338378 149.092021 l
307.171312 147.967268 l
307.264857 147.785857 l
307.39989 147.604445 l
307.916615 146.661105 l
308.073833 146.225717 l
308.289799 145.97174 l
308.543446 145.354941 l
308.630832 145.209811 l
308.762746 144.919553 l
308.937054 144.774423 l
309.090454 144.484165 l
309.255274 144.157624 l
309.368933 143.867365 l
309.810629 143.286848 l
310.447292 142.198378 l
310.562738 142.053249 l
310.711876 141.76299 l
310.967008 141.509014 l
311.101395 141.182473 l
311.290991 141.001061 l
311.603288 140.311697 l
312.133746 139.404639 l
312.244522 139.11438 l
312.438436 138.860404 l
312.596117 138.461298 l
312.948858 137.917063 l
313.104223 137.735652 l
313.215197 137.409111 l
313.427246 137.227699 l
313.71419 136.683464 l
313.887261 136.429488 l
314.702365 135.123324 l
314.986557 134.397677 l
315.084293 134.216266 l
315.229795 133.853442 l
315.649127 133.164078 l
315.745427 133.018949 l
316.048136 132.547278 l
316.154175 132.184455 l
316.329685 131.966761 l
316.606862 131.349962 l
316.806072 131.059703 l
316.895007 130.878291 l
317.099548 130.55175 l
317.413842 129.971233 l
317.501695 129.826104 l
317.686134 129.390716 l
317.820333 129.245587 l
318.506099 127.975705 l
318.633991 127.830576 l
318.923746 127.104929 l
319.075959 126.81467 l
319.337231 126.524412 l
319.750945 125.87133 l
319.867209 125.617354 l
320.08328 125.290813 l
320.384851 124.855425 l
320.542407 124.565166 l
320.68738 124.383754 l
321.147237 123.077591 l
321.244696 122.859897 l
321.659406 122.097968 l
321.798765 121.952838 l
322.00996 121.626297 l
322.140768 121.444886 l
322.28157 121.009498 l
322.416046 120.791804 l
322.614626 120.537827 l
323.237043 119.48564 l
323.29987 119.159099 l
323.545697 118.977687 l
323.836697 118.252041 l
324.873494 116.546771 l
324.971158 116.329077 l
325.069493 116.111383 l
325.247104 115.821125 l
325.326788 115.639713 l
325.411752 115.349454 l
325.565079 114.950349 l
325.639766 114.696372 l
325.738334 114.369831 l
325.849781 114.224702 l
326.632882 112.700844 l
326.759516 112.446868 l
327.071122 111.975198 l
327.129904 111.830068 l
327.263493 111.648657 l
327.610658 111.249551 l
328.035177 110.523905 l
328.876169 109.036329 l
329.0253 108.818635 l
329.140998 108.673506 l
329.28179 108.2744 l
329.374071 108.020424 l
329.47759 107.548754 l
329.678762 107.149648 l
329.794142 107.004519 l
330.194368 106.460284 l
330.280621 106.206307 l
330.55098 105.335531 l
330.67719 105.117837 l
331.226598 103.775391 l
331.329323 103.630262 l
331.552193 103.122309 l
332.05688 102.215251 l
332.232934 101.852428 l
332.430145 101.634734 l
332.543392 101.308193 l
332.760264 100.981652 l
332.892974 100.763958 l
333.978373 98.732148 l
334.107056 98.405607 l
334.337423 98.079066 l
334.510323 97.825089 l
334.694894 97.571113 l
334.785546 97.135725 l
334.844661 96.918031 l
334.899611 96.809184 l
335.052052 96.627772 l
335.172422 96.410078 l
335.813565 94.632244 l
336.239642 93.797751 l
336.36358 93.47121 l
336.465074 93.144669 l
336.555427 92.818128 l
336.704298 92.600434 l
336.837119 92.019917 l
337.002035 91.76594 l
337.18338 91.439399 l
337.322899 91.185423 l
337.470099 90.858882 l
337.646493 90.423494 l
337.759612 89.697847 l
337.901623 89.189895 l
340.149816 85.017427 l
340.465823 84.763451 l
340.858998 83.928957 l
341.063599 83.711263 l
341.360406 83.167028 l
341.453489 82.913052 l
342.219978 81.098935 l
342.625438 80.627265 l
345.69227 75.25748 l
345.795801 74.676963 l
346.000016 74.241575 l
346.065519 74.096446 l
346.153433 73.878752 l
346.271654 73.661058 l
346.412994 73.298235 l
346.680696 72.862847 l
346.820734 72.427459 l
346.959709 71.955788 l
347.167232 71.701812 l
347.284047 71.447836 l
347.451704 71.230142 l
347.844997 70.069107 l
347.987 69.851413 l
348.244047 69.307178 l
349.414566 67.130239 l
349.688884 66.83998 l
350.26158 65.533816 l
350.35298 65.352404 l
351.581915 62.994053 l
351.707942 62.848924 l
351.973028 62.304689 l
352.224637 62.01443 l
353.269806 60.164031 l
353.381608 59.910055 l
353.507353 59.764926 l
353.68598 59.256973 l
353.947603 58.749021 l
354.456373 57.841962 l
354.544197 57.660551 l
354.833698 57.442857 l
354.929168 57.297727 l
355.446087 56.644645 l
355.698949 56.064128 l
356.134678 55.483611 l
356.331666 55.120788 l
356.489503 54.757964 l
356.592355 54.54027 l
357.049562 54.141165 l
357.708505 52.689872 l
357.866265 52.544742 l
358.001401 52.363331 l
358.347143 51.927943 l
358.434498 51.782813 l
358.576744 51.565119 l
359.457467 50.404085 l
359.837589 50.113826 l
359.960471 49.896132 l
360.054134 49.714721 l
360.286562 49.569591 l
360.382164 49.460744 l
361.254771 48.444839 l
361.475826 48.227145 l
361.918633 47.465216 l
362.119513 47.283804 l
362.237907 46.993546 l
362.366175 46.812134 l
362.819669 46.086488 l
363.030633 45.941358 l
363.370567 45.578535 l
363.51736 45.433406 l
363.740121 45.215712 l
363.766772 45.179429 l
363.926581 44.4175 l
364.304292 43.800701 l
364.596765 43.619289 l
364.757907 43.401595 l
365.079811 43.075054 l
366.620207 41.514914 l
366.799421 41.333502 l
366.904677 41.224655 l
367.117097 41.006961 l
367.334309 40.752985 l
367.828714 39.882209 l
368.065676 39.700798 l
368.160713 39.410539 l
368.275978 39.192845 l
369.316455 38.249504 l
369.697389 38.104375 l
370.016585 37.741552 l
370.185774 37.596422 l
370.325647 37.378729 l
370.599782 37.08847 l
371.028065 36.907058 l
371.128188 36.725647 l
371.144663 36.653082 l
372.709141 36.217694 l
373.581818 36.036282 l
373.581818 36.036282 l
stroke
grestore
0.750 0.750 0.000 setrgbcolor
gsave
334.8 217.4 54 36 clipbox
69.218182 252.24924 m
80.07925 252.284748 l
118.977271 252.462823 l
128.583703 252.425618 l
129.237856 252.443483 l
133.699598 252.334035 l
139.347349 252.169695 l
140.056286 252.114921 l
145.665821 252.022861 l
147.156674 252.022624 l
156.521399 251.673676 l
159.117225 251.545098 l
171.928491 251.063806 l
172.036591 251.026844 l
175.098579 250.841407 l
175.561353 250.785837 l
179.736417 250.580395 l
188.682349 249.795754 l
189.365244 249.66468 l
195.122353 249.287916 l
196.965195 248.834866 l
198.643916 248.66476 l
199.346167 248.475447 l
201.305472 248.114863 l
203.996446 247.828405 l
204.001573 247.809343 l
206.341755 247.464635 l
207.966317 247.17737 l
208.249131 247.062257 l
211.992254 246.483715 l
213.04514 246.213219 l
213.930055 246.058356 l
215.74918 245.650824 l
217.836869 245.319834 l
218.187818 245.163737 l
218.374861 245.12324 l
221.309159 244.4555 l
221.880848 244.317832 l
222.097461 244.25878 l
224.965736 243.704446 l
225.039008 243.625263 l
226.237405 243.367537 l
226.752221 243.188769 l
228.801276 242.570855 l
228.924538 242.510879 l
233.384604 241.122678 l
233.677887 241.001167 l
234.503748 240.757759 l
234.525875 240.696826 l
235.68691 240.409744 l
236.150205 240.226264 l
237.262877 239.776528 l
237.717764 239.592038 l
238.837937 239.139822 l
238.844801 239.119225 l
239.257816 238.974941 l
239.310359 238.91305 l
239.747288 238.727179 l
240.023626 238.665156 l
242.123742 237.89747 l
243.33848 237.393917 l
243.894088 237.247452 l
244.192757 237.016921 l
245.284379 236.596607 l
245.784362 236.449139 l
245.849787 236.385882 l
246.552123 236.111373 l
246.738688 235.963294 l
247.063749 235.772632 l
247.350913 235.560422 l
248.806732 234.682943 l
249.120088 234.533031 l
250.053032 234.146668 l
250.150608 234.103661 l
251.223365 233.802172 l
251.835577 233.435045 l
252.966114 232.893081 l
253.261034 232.632059 l
254.080718 232.108293 l
254.156638 231.976992 l
255.564655 231.428345 l
255.68806 231.362338 l
256.025096 231.186141 l
256.145525 231.075886 l
256.785138 230.832968 l
256.982611 230.722388 l
257.506413 230.567405 l
257.60745 230.412221 l
258.209127 230.056763 l
258.537679 229.834067 l
258.66779 229.655614 l
260.161394 228.804339 l
260.238227 228.736877 l
260.700445 228.534266 l
260.941598 228.308744 l
261.245954 228.150629 l
261.369789 228.060184 l
261.662143 227.901745 l
263.765764 226.718262 l
264.756616 225.89215 l
264.876425 225.800015 l
265.596014 225.476995 l
265.815862 225.222595 l
266.220619 225.08361 l
266.439277 224.851617 l
266.620011 224.688961 l
266.997936 224.52609 l
267.135323 224.432924 l
267.440531 224.269714 l
267.767062 223.942645 l
269.424883 222.838253 l
269.613547 222.720183 l
269.974027 222.460032 l
270.06628 222.294198 l
270.585725 222.056907 l
270.778401 221.985632 l
270.962836 221.842958 l
271.391272 221.413953 l
272.287972 220.887603 l
273.597111 219.870095 l
273.916631 219.749162 l
274.032305 219.506944 l
276.106247 218.3867 l
276.681571 217.871958 l
276.963692 217.699911 l
277.07759 217.576876 l
278.053161 216.761841 l
278.197376 216.563466 l
278.477911 216.339924 l
278.800149 216.041256 l
279.034556 215.866708 l
279.098515 215.791829 l
279.409293 215.591937 l
279.537004 215.366682 l
279.700879 215.216292 l
280.624473 214.133291 l
280.865042 213.93079 l
280.994254 213.854769 l
281.135874 213.651828 l
281.495701 213.37226 l
281.858847 213.117579 l
282.637196 212.376148 l
282.758515 212.14518 l
282.957044 211.965253 l
283.689843 211.553051 l
283.899333 211.423968 l
285.256406 210.152125 l
285.394777 210.021643 l
285.820339 209.760289 l
286.171691 209.262269 l
286.494188 209.078308 l
287.615888 208.128126 l
287.728943 207.942567 l
288.035051 207.703605 l
288.111929 207.570661 l
288.243149 207.35767 l
288.379397 207.171021 l
288.595464 207.010825 l
288.714121 206.770166 l
289.419223 206.045548 l
289.538364 205.803124 l
289.888504 205.235739 l
290.586974 204.366467 l
290.736997 204.230129 l
291.12084 203.57376 l
291.238656 203.464051 l
291.861827 202.914152 l
292.073091 202.665959 l
292.187338 202.500241 l
292.26294 202.361986 l
292.618976 202.029594 l
292.733388 201.668571 l
292.931768 201.390202 l
292.993903 201.334459 l
293.296273 201.111256 l
293.395676 201.055397 l
293.865894 200.523585 l
294.071507 200.299037 l
294.216577 200.074115 l
294.435312 199.877001 l
294.726703 199.623147 l
294.84453 199.453647 l
294.898571 199.340529 l
295.124061 199.198999 l
295.232799 198.943873 l
295.323756 198.74511 l
295.520786 198.403697 l
295.705496 198.175612 l
296.290216 197.201974 l
296.820213 196.539385 l
296.977065 196.33709 l
297.125498 196.105531 l
297.2779 195.902595 l
297.447 195.670302 l
297.656632 195.466723 l
298.094149 195.146204 l
298.515335 194.41497 l
298.769762 194.180155 l
300.003844 192.465745 l
300.053096 192.376491 l
300.295522 192.168008 l
300.74261 191.750104 l
300.873365 191.540682 l
301.263718 191.09086 l
301.418558 190.910525 l
301.555902 190.729958 l
301.740669 190.519002 l
301.919479 190.247305 l
302.070274 189.884222 l
302.182104 189.73266 l
302.272761 189.55057 l
302.987117 188.880883 l
303.091921 188.697687 l
303.508397 188.269304 l
303.619418 188.085312 l
304.035902 187.71661 l
304.629507 187.16175 l
304.752435 186.976314 l
304.990078 186.480629 l
305.278117 186.076608 l
305.735496 185.733847 l
306.122811 185.139857 l
306.324869 184.826236 l
306.455736 184.669168 l
306.647569 184.511926 l
307.916615 182.675218 l
308.073833 182.292264 l
308.298973 182.036396 l
308.762746 181.137272 l
308.937054 181.008368 l
309.090454 180.750217 l
309.255274 180.459247 l
309.368933 180.200116 l
309.880271 179.615378 l
309.97793 179.517693 l
310.081761 179.322126 l
310.17663 179.093632 l
310.287236 178.930203 l
310.378505 178.733846 l
310.572879 178.537225 l
310.834757 178.241797 l
311.474692 177.186531 l
311.603288 176.987821 l
312.133746 176.15696 l
312.244522 175.890092 l
312.443471 175.622739 l
312.618308 175.220801 l
312.782264 175.053003 l
312.920622 174.851395 l
314.064956 173.194581 l
314.25456 172.990431 l
314.608376 172.342103 l
314.720305 172.102534 l
317.413842 167.229081 l
317.527971 167.052087 l
317.660556 166.732977 l
317.724901 166.590935 l
317.844723 166.448761 l
318.076547 165.914421 l
318.255272 165.73589 l
319.239265 163.902869 l
319.389292 163.721975 l
319.493947 163.577106 l
319.790783 163.141679 l
319.878815 162.887109 l
320.019141 162.668571 l
320.127659 162.522707 l
320.391884 162.120867 l
320.542407 161.864605 l
320.68738 161.6813 l
321.147237 160.355058 l
321.244696 160.13291 l
321.659406 159.352885 l
321.798765 159.203865 l
322.00996 158.868047 l
322.140768 158.681169 l
322.28157 158.231747 l
322.396075 158.044105 l
322.921751 157.291281 l
323.059146 157.064727 l
323.396462 156.269203 l
323.600683 155.927028 l
323.668565 155.622247 l
323.836697 155.35508 l
324.873494 153.549446 l
324.971158 153.317451 l
325.054825 153.123862 l
326.319805 150.073028 l
326.601023 149.519231 l
326.969841 148.764583 l
327.071122 148.605258 l
327.129904 148.445775 l
327.250049 148.286134 l
327.426519 148.046377 l
327.643897 147.686071 l
327.908984 147.204411 l
328.37499 146.358043 l
328.470801 146.074935 l
328.618849 145.912938 l
328.88604 145.304005 l
329.0253 145.10052 l
329.140998 144.937549 l
329.28179 144.488536 l
329.374071 144.202156 l
329.47759 143.668972 l
329.678762 143.216455 l
329.794142 143.051592 l
330.188358 142.473266 l
330.420989 141.643537 l
330.74119 140.642311 l
330.826996 140.432955 l
331.134231 139.592871 l
331.529317 138.621479 l
332.518814 136.575762 l
332.633842 136.318275 l
333.209939 135.111404 l
333.509287 134.764983 l
333.580605 134.504698 l
334.431056 132.36385 l
334.566386 132.187883 l
334.899611 131.039624 l
335.040283 130.862278 l
335.736473 128.629726 l
335.85322 128.269794 l
335.918349 127.999347 l
336.039608 127.863964 l
337.378317 123.844602 l
337.646493 123.057253 l
337.759612 122.126375 l
337.901623 121.47179 l
340.235063 115.952063 l
340.497755 115.564957 l
340.858998 114.544774 l
341.002573 114.349789 l
341.142515 114.154591 l
341.27486 113.763552 l
341.417065 113.273546 l
341.758572 111.943787 l
341.84193 111.69645 l
342.054123 111.002088 l
342.182555 110.75345 l
342.915249 109.605279 l
343.025638 109.204197 l
343.237215 108.500156 l
343.334632 108.298497 l
343.523235 107.843945 l
343.874568 106.982228 l
343.982113 106.677116 l
344.126215 106.422464 l
344.466849 105.451531 l
344.596719 105.297753 l
344.728776 104.989808 l
344.861907 104.629882 l
344.93711 104.526916 l
345.071639 104.32081 l
345.167735 104.011216 l
345.312335 103.701099 l
345.496379 103.079289 l
345.616906 102.923507 l
345.678673 102.663577 l
345.692284 102.194777 l
345.795801 101.672486 l
346.000016 101.04378 l
346.065519 100.833736 l
346.153433 100.518221 l
346.270817 100.254881 l
346.372434 99.832756 l
346.487532 99.409669 l
346.703041 98.985616 l
346.749351 98.773227 l
346.84983 98.187902 l
346.937575 97.921236 l
347.076459 97.493777 l
347.172141 97.279679 l
347.763343 95.341695 l
348.056883 94.20189 l
348.22909 93.87496 l
348.407266 93.438169 l
348.531359 93.109912 l
348.610102 92.726222 l
348.690169 92.50662 l
349.083225 91.238945 l
349.244702 91.017613 l
349.414566 90.46315 l
349.520585 90.240911 l
349.523543 90.185311 l
349.688884 90.018413 l
350.167331 88.397488 l
351.256465 84.65655 l
351.362539 84.427473 l
351.495668 84.140745 l
352.027913 82.874069 l
352.25544 82.353488 l
352.446184 81.773425 l
352.766574 81.191627 l
352.917376 80.666519 l
353.143516 80.257122 l
353.696883 77.96038 l
353.774526 77.663971 l
353.89621 77.30769 l
354.456373 75.6964 l
354.544197 75.396564 l
354.809969 75.096273 l
355.377822 73.890535 l
355.446087 73.70904 l
355.698949 72.738258 l
356.130446 71.823831 l
356.257758 71.334417 l
356.360386 71.089259 l
356.472402 70.59804 l
356.757971 69.92064 l
356.936725 69.735496 l
357.924791 66.624402 l
358.632486 64.924262 l
358.796836 64.544509 l
358.948919 64.354366 l
359.041452 63.910006 l
359.457467 63.018366 l
359.661023 62.698976 l
359.662543 62.635038 l
359.842216 62.443103 l
359.954497 62.186909 l
360.054134 61.802015 l
360.239653 61.609296 l
360.68126 60.836602 l
361.254771 59.542273 l
361.428245 59.282426 l
361.547293 58.826903 l
361.750614 58.174404 l
361.881219 57.912825 l
363.214099 54.681367 l
363.300918 54.481879 l
363.41074 54.148973 l
363.681814 53.882266 l
363.766772 53.615216 l
363.926581 52.207576 l
364.304292 51.061082 l
364.508741 50.858108 l
364.610388 50.654937 l
364.757907 50.315882 l
365.077475 49.772254 l
365.159624 49.431772 l
365.28317 49.15899 l
365.37855 48.885855 l
366.520752 46.963956 l
366.620207 46.756999 l
366.756282 46.480743 l
367.275336 45.441567 l
367.426899 45.094043 l
367.525307 44.745952 l
367.730725 43.76826 l
368.065676 43.277729 l
368.154364 42.786071 l
368.314374 42.222789 l
368.541796 41.658024 l
368.765619 41.5166 l
368.878023 41.375082 l
369.047887 41.020881 l
369.221233 40.666094 l
370.016585 39.455428 l
370.185774 39.169574 l
370.307148 38.883342 l
370.425965 38.525017 l
370.537117 38.237928 l
370.599782 38.166097 l
370.953802 37.950458 l
371.128188 37.446466 l
371.144663 37.302253 l
371.64686 36.869036 l
371.680198 36.724438 l
371.824709 36.652103 l
372.694691 36.50736 l
372.709141 36.434952 l
373.165752 36.290065 l
373.189116 36.217585 l
373.581818 36.072553 l
373.581818 36.072553 l
stroke
grestore
1.000 setlinewidth
[] 0 setdash
1.000 0.000 0.000 setrgbcolor
gsave
334.8 217.4 54 36 clipbox
/o {
gsave
newpath
translate
1.0 setlinewidth
1 setlinejoin
0 setlinecap
0 -3 m
0.795609 -3 1.55874 -2.683901 2.12132 -2.12132 c
2.683901 -1.55874 3 -0.795609 3 0 c
3 0.795609 2.683901 1.55874 2.12132 2.12132 c
1.55874 2.683901 0.795609 3 0 3 c
-0.795609 3 -1.55874 2.683901 -2.12132 2.12132 c
-2.683901 1.55874 -3 0.795609 -3 0 c
-3 -0.795609 -2.683901 -1.55874 -2.12132 -2.12132 c
-1.55874 -2.683901 -0.795609 -3 0 -3 c
cl

gsave
1.000 0.000 0.000 setrgbcolor
fill
grestore
stroke
grestore
} bind def
137.134 252.225 o
137.584 252.206 o
grestore
0.800 setlinewidth
0 setlinejoin
2 setlinecap
[] 0 setdash
0.000 setgray
gsave
54 36 m
54 253.44 l
stroke
grestore
gsave
388.8 36 m
388.8 253.44 l
stroke
grestore
gsave
54 36 m
388.8 36 l
stroke
grestore
gsave
54 253.44 m
388.8 253.44 l
stroke
grestore
/DejaVuSans findfont
12.000 scalefont
setfont
gsave
106.017188 259.440000 translate
0.000000 rotate
0.000000 0.000000 m /P glyphshow
7.236328 0.000000 m /r glyphshow
12.169922 0.000000 m /e glyphshow
19.552734 0.000000 m /c glyphshow
26.150391 0.000000 m /i glyphshow
29.484375 0.000000 m /s glyphshow
35.736328 0.000000 m /i glyphshow
39.070312 0.000000 m /o glyphshow
46.412109 0.000000 m /n glyphshow
54.017578 0.000000 m /hyphen glyphshow
58.347656 0.000000 m /R glyphshow
66.685547 0.000000 m /e glyphshow
74.068359 0.000000 m /c glyphshow
80.666016 0.000000 m /a glyphshow
88.019531 0.000000 m /l glyphshow
91.353516 0.000000 m /l glyphshow
94.687500 0.000000 m /hyphen glyphshow
99.017578 0.000000 m /F glyphshow
105.919922 0.000000 m /one glyphshow
113.554688 0.000000 m /space glyphshow
117.369141 0.000000 m /v glyphshow
124.470703 0.000000 m /s glyphshow
130.722656 0.000000 m /space glyphshow
134.537109 0.000000 m /T glyphshow
141.867188 0.000000 m /h glyphshow
149.472656 0.000000 m /r glyphshow
154.406250 0.000000 m /e glyphshow
161.789062 0.000000 m /s glyphshow
168.041016 0.000000 m /h glyphshow
175.646484 0.000000 m /o glyphshow
182.988281 0.000000 m /l glyphshow
186.322266 0.000000 m /d glyphshow
193.939453 0.000000 m /space glyphshow
197.753906 0.000000 m /C glyphshow
206.132812 0.000000 m /h glyphshow
213.738281 0.000000 m /a glyphshow
221.091797 0.000000 m /r glyphshow
226.025391 0.000000 m /t glyphshow
grestore
1.000 setlinewidth
0 setlinecap
0.800 setgray
gsave
61 41 m
138.046875 41 l
139.380208 41 140.046875 41.666667 140.046875 43 c
140.046875 86.015625 l
140.046875 87.348958 139.380208 88.015625 138.046875 88.015625 c
61 88.015625 l
59.666667 88.015625 59 87.348958 59 86.015625 c
59 43 l
59 41.666667 59.666667 41 61 41 c
cl
gsave
1.000 setgray
fill
grestore
stroke
grestore
1.500 setlinewidth
1 setlinejoin
[5.55 2.4] 0 setdash
0.000 0.000 1.000 setrgbcolor
gsave
63 79.921875 m
83 79.921875 l
stroke
grestore
0.000 setgray
/DejaVuSans findfont
10.000 scalefont
setfont
gsave
91.000000 76.421875 translate
0.000000 rotate
0.000000 0.000000 m /P glyphshow
6.030273 0.000000 m /r glyphshow
10.141602 0.000000 m /e glyphshow
16.293945 0.000000 m /c glyphshow
21.791992 0.000000 m /i glyphshow
24.570312 0.000000 m /s glyphshow
29.780273 0.000000 m /i glyphshow
32.558594 0.000000 m /o glyphshow
38.676758 0.000000 m /n glyphshow
grestore
1.000 0.000 0.000 setrgbcolor
gsave
63 65.25 m
83 65.25 l
stroke
grestore
0.000 setgray
gsave
91.000000 61.750000 translate
0.000000 rotate
0.000000 0.000000 m /R glyphshow
6.948242 0.000000 m /e glyphshow
13.100586 0.000000 m /c glyphshow
18.598633 0.000000 m /a glyphshow
24.726562 0.000000 m /l glyphshow
27.504883 0.000000 m /l glyphshow
grestore
0.750 0.750 0.000 setrgbcolor
gsave
63 50.578125 m
83 50.578125 l
stroke
grestore
0.000 setgray
gsave
91.000000 47.078125 translate
0.000000 rotate
0.000000 0.000000 m /F glyphshow
5.751953 0.000000 m /one glyphshow
12.114258 0.000000 m /hyphen glyphshow
15.722656 0.000000 m /s glyphshow
20.932617 0.000000 m /c glyphshow
26.430664 0.000000 m /o glyphshow
32.548828 0.000000 m /r glyphshow
36.660156 0.000000 m /e glyphshow
grestore

end
showpage
